{
    "0": [
        0.04280734062194824,
        0.09472537040710449,
        0.15346765518188477,
        0.2202465534210205,
        0.2834959030151367,
        0.3618905544281006,
        0.43651652336120605,
        0.5222222805023193,
        0.6028006076812744,
        0.7190132141113281
    ],
    "1": [
        0.04608631134033203,
        0.10003137588500977,
        0.16445040702819824,
        0.2597970962524414,
        0.3423123359680176,
        0.4143354892730713,
        0.507880449295044,
        0.6292250156402588,
        0.7491974830627441,
        0.8421568870544434
    ],
    "2": [
        0.043929100036621094,
        0.09046387672424316,
        0.14583373069763184,
        0.1997389793395996,
        0.26106905937194824,
        0.32262659072875977,
        0.3831360340118408,
        0.47188234329223633,
        0.574190616607666,
        0.6763358116149902
    ],
    "3": [
        0.043080806732177734,
        0.09025979042053223,
        0.14003825187683105,
        0.19041728973388672,
        0.24031496047973633,
        0.29251670837402344,
        0.34342265129089355,
        0.43869471549987793,
        0.5299704074859619,
        0.5986192226409912
    ],
    "4": [
        0.040001869201660156,
        0.09058642387390137,
        0.14417695999145508,
        0.20535826683044434,
        0.2661020755767822,
        0.34485340118408203,
        0.4276905059814453,
        0.49914097785949707,
        0.5770034790039062,
        0.6626541614532471
    ]
}