{
    "0": [
        0.030521392822265625,
        0.06300497055053711,
        0.09308671951293945,
        0.12332987785339355,
        0.1530756950378418,
        "UNSAT"
    ],
    "1": [
        0.029824256896972656,
        0.0571436882019043,
        0.08735227584838867,
        0.11761999130249023,
        0.14752984046936035,
        "UNSAT"
    ],
    "2": [
        0.026705265045166016,
        0.05395793914794922,
        0.08422064781188965,
        0.11029171943664551,
        0.13855242729187012,
        "UNSAT"
    ],
    "3": [
        0.027375459671020508,
        0.05722784996032715,
        0.08759188652038574,
        0.11676239967346191,
        0.14286589622497559,
        "UNSAT"
    ],
    "4": [
        0.03456401824951172,
        0.06427764892578125,
        0.09303784370422363,
        0.12185359001159668,
        0.14930438995361328,
        "UNSAT"
    ]
}