{
    "0": [
        0.07600569725036621,
        0.13880634307861328,
        0.22147417068481445,
        0.30125856399536133,
        0.3838808536529541,
        0.5011031627655029,
        0.6287703514099121,
        0.7268636226654053,
        0.8289287090301514,
        0.920037031173706
    ],
    "1": [
        0.058203697204589844,
        0.11908912658691406,
        0.18957972526550293,
        0.30478358268737793,
        0.406752347946167,
        0.5068745613098145,
        0.620347261428833,
        0.7354402542114258,
        0.8853647708892822,
        1.0115902423858643
    ],
    "2": [
        0.05325460433959961,
        0.16952729225158691,
        0.302293062210083,
        0.4618377685546875,
        0.5838179588317871,
        0.7076644897460938,
        0.8438019752502441,
        0.9372482299804688,
        1.0997824668884277,
        1.2096338272094727
    ],
    "3": [
        0.04859566688537598,
        0.11150503158569336,
        0.16604399681091309,
        0.24173879623413086,
        0.32330870628356934,
        0.4165773391723633,
        0.493818998336792,
        0.562751293182373,
        0.6410088539123535,
        0.7176225185394287
    ],
    "4": [
        0.06038331985473633,
        0.12506604194641113,
        0.18718647956848145,
        0.2741680145263672,
        0.35451483726501465,
        0.44739341735839844,
        0.5654478073120117,
        0.6471512317657471,
        0.7511391639709473,
        0.8973379135131836
    ]
}