{
    "0": [
        0.054256439208984375,
        0.11116552352905273,
        0.17789292335510254,
        0.26714205741882324,
        0.34597277641296387,
        0.42933011054992676,
        0.5247290134429932,
        0.6176447868347168,
        0.7105941772460938,
        0.8490908145904541
    ],
    "1": [
        0.056334495544433594,
        0.11141586303710938,
        0.16880488395690918,
        0.25162339210510254,
        0.34482765197753906,
        0.4605886936187744,
        0.5471124649047852,
        0.6381242275238037,
        0.7476866245269775,
        0.869675874710083
    ],
    "2": [
        0.0706491470336914,
        0.16946053504943848,
        0.26860523223876953,
        0.3652365207672119,
        0.46396756172180176,
        0.5650007724761963,
        0.6558761596679688,
        0.7977252006530762,
        0.9152381420135498,
        1.046138048171997
    ],
    "3": [
        0.07326197624206543,
        0.15082931518554688,
        0.26778507232666016,
        0.3924872875213623,
        0.5325584411621094,
        0.6582832336425781,
        0.7899789810180664,
        0.9435343742370605,
        1.1184208393096924,
        1.3443245887756348
    ],
    "4": [
        0.06351232528686523,
        0.13774609565734863,
        0.2169938087463379,
        0.3013186454772949,
        0.39592981338500977,
        0.526653528213501,
        0.6535768508911133,
        0.7724926471710205,
        0.8895962238311768,
        1.0172724723815918
    ]
}