{
    "0": [
        0.8666982650756836,
        2.0626723766326904,
        3.1452932357788086,
        4.209756374359131,
        5.529544830322266,
        6.870496511459351,
        8.127565860748291,
        9.96666431427002,
        11.275697946548462,
        13.209532737731934
    ],
    "1": [
        0.9061439037322998,
        2.0976710319519043,
        3.1189122200012207,
        4.331910133361816,
        5.100806474685669,
        6.336444139480591,
        7.4493749141693115,
        8.550326824188232,
        9.738364696502686,
        10.728075504302979
    ],
    "2": [
        1.1297342777252197,
        2.1886606216430664,
        3.454559564590454,
        4.66482949256897,
        6.038809537887573,
        7.284305095672607,
        8.372656106948853,
        9.897722721099854,
        11.561417579650879,
        12.709709882736206
    ],
    "3": [
        0.8040947914123535,
        1.6696503162384033,
        2.4036388397216797,
        3.1950278282165527,
        4.320979595184326,
        5.264631986618042,
        6.2813780307769775,
        7.425458192825317,
        8.581988096237183,
        9.607835531234741
    ],
    "4": [
        0.7399983406066895,
        1.4791734218597412,
        2.3610103130340576,
        3.1403086185455322,
        4.144622564315796,
        5.163257837295532,
        6.258529424667358,
        7.0528035163879395,
        7.904033899307251,
        8.782799243927002
    ]
}