{
    "0": [
        1.2094786167144775,
        2.7459006309509277,
        4.250078201293945,
        5.588371276855469,
        7.02479362487793,
        8.898838996887207,
        10.3265061378479,
        11.955743074417114,
        13.452625274658203,
        15.25887656211853
    ],
    "1": [
        0.9805552959442139,
        2.0098588466644287,
        3.086911916732788,
        4.147067308425903,
        5.401768445968628,
        6.604029655456543,
        7.791091680526733,
        9.124923467636108,
        10.303840398788452,
        11.479772567749023
    ],
    "2": [
        0.9109556674957275,
        2.138399600982666,
        3.1363799571990967,
        4.350093603134155,
        5.318694353103638,
        6.689188003540039,
        7.611437797546387,
        8.659306049346924,
        9.73713207244873,
        10.709283828735352
    ],
    "3": [
        0.5994827747344971,
        1.2796995639801025,
        1.997528076171875,
        2.693279981613159,
        3.3906500339508057,
        4.308365345001221,
        4.9817986488342285,
        5.737245798110962,
        6.64577317237854,
        7.425311803817749
    ],
    "4": [
        0.7805314064025879,
        1.7243576049804688,
        2.7693936824798584,
        3.7711141109466553,
        4.771763801574707,
        5.8566765785217285,
        6.705273151397705,
        7.876237869262695,
        8.75761866569519,
        10.075939416885376
    ]
}