{
    "0": [
        0.08082723617553711,
        0.19380927085876465,
        0.34327173233032227,
        0.4829545021057129,
        0.6139264106750488,
        0.7705748081207275,
        0.9104580879211426,
        1.0640442371368408,
        1.2213268280029297,
        1.4005165100097656
    ],
    "1": [
        0.09654879570007324,
        0.3069334030151367,
        0.4891386032104492,
        0.667266845703125,
        0.8124146461486816,
        1.0747323036193848,
        1.4322941303253174,
        1.660916805267334,
        1.9025318622589111,
        2.154737949371338
    ],
    "2": [
        0.08733940124511719,
        0.19320034980773926,
        0.4235360622406006,
        0.5531899929046631,
        0.7807106971740723,
        0.9076042175292969,
        1.1044483184814453,
        1.2288823127746582,
        1.343515396118164,
        1.4661245346069336
    ],
    "3": [
        0.07513022422790527,
        0.15715360641479492,
        0.247697114944458,
        0.35329532623291016,
        0.44797849655151367,
        0.5540318489074707,
        0.6652493476867676,
        0.7740728855133057,
        0.9001564979553223,
        1.0283701419830322
    ],
    "4": [
        0.08259057998657227,
        0.1761796474456787,
        0.2671191692352295,
        0.36528611183166504,
        0.5547828674316406,
        0.6860251426696777,
        0.9144518375396729,
        1.1114859580993652,
        1.3591563701629639,
        1.5776426792144775
    ]
}