{
    "0": [
        0.05606698989868164,
        0.1375579833984375,
        0.20163679122924805,
        0.2721695899963379,
        0.36387062072753906,
        0.462299108505249,
        0.5539593696594238,
        0.668212890625,
        0.765244722366333,
        0.8639326095581055
    ],
    "1": [
        0.052614688873291016,
        0.0985112190246582,
        0.15159988403320312,
        0.20990419387817383,
        0.27781128883361816,
        0.3457200527191162,
        0.45607662200927734,
        0.5352146625518799,
        0.6173322200775146,
        0.7029292583465576
    ],
    "2": [
        0.052366018295288086,
        0.11434102058410645,
        0.2074587345123291,
        0.3119206428527832,
        0.40047526359558105,
        0.5264067649841309,
        0.6684129238128662,
        0.7813794612884521,
        0.9333600997924805,
        1.0504930019378662
    ],
    "3": [
        0.042693138122558594,
        0.0878441333770752,
        0.14956188201904297,
        0.20597553253173828,
        0.27172303199768066,
        0.33265185356140137,
        0.4110298156738281,
        0.49171900749206543,
        0.579669713973999,
        0.6546273231506348
    ],
    "4": [
        0.04725933074951172,
        0.09307575225830078,
        0.1439499855041504,
        0.19617581367492676,
        0.26001858711242676,
        0.32526540756225586,
        0.38947081565856934,
        0.45894813537597656,
        0.5381686687469482,
        0.6277916431427002
    ]
}