{
    "0": [
        0.045146942138671875,
        0.08922433853149414,
        0.13474464416503906,
        0.18405818939208984,
        0.2282238006591797,
        0.28464555740356445,
        0.33579373359680176,
        0.38323259353637695,
        0.43180012702941895,
        0.4862534999847412
    ],
    "1": [
        0.04421567916870117,
        0.08399748802185059,
        0.12826943397521973,
        0.17084598541259766,
        0.2162177562713623,
        0.2705256938934326,
        0.323807954788208,
        0.3827087879180908,
        0.43509745597839355,
        0.4956645965576172
    ],
    "2": [
        0.05641674995422363,
        0.10798764228820801,
        0.1545088291168213,
        0.20635461807250977,
        0.2678091526031494,
        0.3274552822113037,
        0.39386510848999023,
        0.4513092041015625,
        0.5138452053070068,
        0.5801715850830078
    ],
    "3": [
        0.042771339416503906,
        0.08873462677001953,
        0.12825274467468262,
        0.17671751976013184,
        0.23287606239318848,
        0.2793898582458496,
        0.33526158332824707,
        0.38669729232788086,
        0.4342508316040039,
        0.48278164863586426
    ],
    "4": [
        0.04182291030883789,
        0.08453559875488281,
        0.12737584114074707,
        0.1707146167755127,
        0.21639037132263184,
        0.26468706130981445,
        0.31152868270874023,
        0.3569295406341553,
        0.4064180850982666,
        0.46148085594177246
    ]
}