{
    "0": [
        0.09364795684814453,
        0.18266034126281738,
        0.2742469310760498,
        0.3752171993255615,
        0.4800848960876465,
        0.5908684730529785,
        0.702017068862915,
        0.8195810317993164,
        0.9441392421722412,
        1.1035501956939697
    ],
    "1": [
        0.08738827705383301,
        0.18336939811706543,
        0.28522753715515137,
        0.4153554439544678,
        0.5180964469909668,
        0.62965989112854,
        0.7361555099487305,
        0.8518452644348145,
        0.9685318470001221,
        1.0952661037445068
    ],
    "2": [
        0.11047911643981934,
        0.20652222633361816,
        0.34484267234802246,
        0.48195719718933105,
        0.6546604633331299,
        0.8426289558410645,
        1.0224738121032715,
        1.176645278930664,
        1.3633387088775635,
        1.5394134521484375
    ],
    "3": [
        0.09097981452941895,
        0.2718782424926758,
        0.4169478416442871,
        0.6998991966247559,
        0.990211009979248,
        1.1658837795257568,
        1.4519312381744385,
        1.6550819873809814,
        1.8643121719360352,
        2.0910964012145996
    ],
    "4": [
        0.0708932876586914,
        0.14684081077575684,
        0.23682236671447754,
        0.31720685958862305,
        0.41013407707214355,
        0.502112865447998,
        0.5945215225219727,
        0.7015423774719238,
        0.7986307144165039,
        0.904594898223877
    ]
}