{
    "0": [
        0.04822206497192383,
        0.11153459548950195,
        0.19774341583251953,
        0.3071479797363281,
        0.40357160568237305,
        0.5356531143188477,
        0.6799125671386719,
        0.8342983722686768,
        0.9837474822998047,
        1.1493568420410156
    ],
    "1": [
        0.05285000801086426,
        0.1008615493774414,
        0.18635916709899902,
        0.26956796646118164,
        0.3803997039794922,
        0.49439191818237305,
        0.6234567165374756,
        0.7679615020751953,
        0.9052350521087646,
        1.0727136135101318
    ],
    "2": [
        0.046004533767700195,
        0.10761260986328125,
        0.17389202117919922,
        0.2750570774078369,
        0.4566059112548828,
        0.5771050453186035,
        0.6776607036590576,
        0.8004195690155029,
        0.9083859920501709,
        1.1021034717559814
    ],
    "3": [
        0.0345768928527832,
        0.14223122596740723,
        0.2299354076385498,
        0.35484814643859863,
        0.4524545669555664,
        0.6047968864440918,
        0.6986243724822998,
        0.7988376617431641,
        0.9132068157196045,
        1.0070178508758545
    ],
    "4": [
        0.053220272064208984,
        0.12195682525634766,
        0.18866801261901855,
        0.28074216842651367,
        0.3685894012451172,
        0.5136635303497314,
        0.6510884761810303,
        0.7977356910705566,
        0.9692142009735107,
        1.107619047164917
    ]
}