{
    "0": [
        0.0352940559387207,
        0.07450151443481445,
        0.11760950088500977,
        0.16631245613098145,
        0.2156965732574463,
        0.264024019241333,
        0.31170129776000977,
        0.36413097381591797,
        0.4156150817871094,
        0.4710276126861572
    ],
    "1": [
        0.04092693328857422,
        0.08282327651977539,
        0.1286780834197998,
        0.17242217063903809,
        0.2245619297027588,
        0.27404284477233887,
        0.32563257217407227,
        0.3794829845428467,
        0.4359421730041504,
        0.4809105396270752
    ],
    "2": [
        0.03324079513549805,
        0.07228636741638184,
        0.11816906929016113,
        0.16107797622680664,
        0.21030449867248535,
        0.2604978084564209,
        0.31265997886657715,
        0.36191511154174805,
        0.4123678207397461,
        0.4661083221435547
    ],
    "3": [
        0.038550376892089844,
        0.08066415786743164,
        0.12242317199707031,
        0.17196249961853027,
        0.22073841094970703,
        0.2705495357513428,
        0.32205867767333984,
        0.3766181468963623,
        0.4236338138580322,
        0.47432899475097656
    ],
    "4": [
        0.03993034362792969,
        0.07947826385498047,
        0.12074685096740723,
        0.1628265380859375,
        0.20824599266052246,
        0.2560544013977051,
        0.29944634437561035,
        0.3532843589782715,
        0.40127992630004883,
        0.4526360034942627
    ]
}