{
    "0": [
        0.05330538749694824,
        0.11203718185424805,
        0.16925621032714844,
        0.2428603172302246,
        0.3291311264038086,
        0.4676640033721924,
        0.5776047706604004,
        0.7163925170898438,
        0.8806123733520508,
        1.0020990371704102
    ],
    "1": [
        0.050766706466674805,
        0.1082606315612793,
        0.16329717636108398,
        0.23705124855041504,
        0.361314058303833,
        0.49075984954833984,
        0.7016379833221436,
        0.8502092361450195,
        1.0506997108459473,
        1.256486177444458
    ],
    "2": [
        0.04773879051208496,
        0.09584641456604004,
        0.1679384708404541,
        0.2648448944091797,
        0.33492612838745117,
        0.4140639305114746,
        0.49065494537353516,
        0.5755946636199951,
        0.6597690582275391,
        0.7607052326202393
    ],
    "3": [
        0.04899477958679199,
        0.10120415687561035,
        0.15700578689575195,
        0.2236635684967041,
        0.3000607490539551,
        0.3582625389099121,
        0.4564664363861084,
        0.5696895122528076,
        0.6609377861022949,
        0.7773590087890625
    ],
    "4": [
        0.05122709274291992,
        0.11020445823669434,
        0.1743311882019043,
        0.24611330032348633,
        0.33194637298583984,
        0.43097448348999023,
        0.5381631851196289,
        0.6597089767456055,
        0.7649941444396973,
        0.8708679676055908
    ]
}