{
    "0": [
        0.031183242797851562,
        0.0692286491394043,
        0.1060647964477539,
        0.1434006690979004,
        0.18432235717773438,
        0.22520947456359863,
        0.26322126388549805,
        0.3061685562133789,
        0.348038911819458,
        0.3914768695831299
    ],
    "1": [
        0.03753304481506348,
        0.07441329956054688,
        0.11148643493652344,
        0.15619421005249023,
        0.19721508026123047,
        0.2436215877532959,
        0.290971040725708,
        0.33737754821777344,
        0.387711763381958,
        0.43860745429992676
    ],
    "2": [
        0.03630852699279785,
        0.07222867012023926,
        0.10542798042297363,
        0.13780665397644043,
        0.18167352676391602,
        0.22443413734436035,
        0.26280879974365234,
        0.3033630847930908,
        0.3458733558654785,
        0.3794879913330078
    ],
    "3": [
        0.035108089447021484,
        0.07327914237976074,
        0.10947084426879883,
        0.14687871932983398,
        0.1874864101409912,
        0.22335362434387207,
        0.2658383846282959,
        0.3087313175201416,
        0.34911251068115234,
        0.38859128952026367
    ],
    "4": [
        0.03897428512573242,
        0.07308530807495117,
        0.1121528148651123,
        0.15209197998046875,
        0.1900486946105957,
        0.23193097114562988,
        0.27788424491882324,
        0.32473230361938477,
        0.3713552951812744,
        0.4165651798248291
    ]
}