{
    "0": [
        0.0406336784362793,
        0.08379840850830078,
        0.12947845458984375,
        0.18727993965148926,
        0.24313735961914062,
        0.30294275283813477,
        0.3632383346557617,
        0.4237022399902344,
        0.48535990715026855,
        0.5611975193023682
    ],
    "1": [
        0.050173044204711914,
        0.10106945037841797,
        0.14734435081481934,
        0.22475934028625488,
        0.29485011100769043,
        0.37825512886047363,
        0.43863582611083984,
        0.507516622543335,
        0.5870776176452637,
        0.6790006160736084
    ],
    "2": [
        0.04482078552246094,
        0.09576249122619629,
        0.15470457077026367,
        0.2105858325958252,
        0.2605588436126709,
        0.31247663497924805,
        0.3682379722595215,
        0.42846035957336426,
        0.5172421932220459,
        0.6161458492279053
    ],
    "3": [
        0.03852057456970215,
        0.08231258392333984,
        0.13369989395141602,
        0.1795940399169922,
        0.23274612426757812,
        0.302126407623291,
        0.3720693588256836,
        0.4428369998931885,
        0.5324974060058594,
        0.6264481544494629
    ],
    "4": [
        0.044791221618652344,
        0.09440946578979492,
        0.14403939247131348,
        0.1975257396697998,
        0.24644780158996582,
        0.29433631896972656,
        0.34816813468933105,
        0.4053339958190918,
        0.467026948928833,
        0.5533127784729004
    ]
}