{
    "0": [
        0.05689430236816406,
        0.10212111473083496,
        0.16299033164978027,
        0.2068641185760498,
        0.25241827964782715,
        0.300931453704834,
        0.35006141662597656,
        0.40006232261657715,
        0.45062851905822754,
        0.5058629512786865
    ],
    "1": [
        0.06055092811584473,
        0.11968016624450684,
        0.19783401489257812,
        0.254955530166626,
        0.32498860359191895,
        0.3858187198638916,
        0.44812870025634766,
        0.5133609771728516,
        0.6031630039215088,
        0.6929254531860352
    ],
    "2": [
        0.05491948127746582,
        0.10109663009643555,
        0.1599864959716797,
        0.21249842643737793,
        0.2622866630554199,
        0.31049299240112305,
        0.37360596656799316,
        0.4201943874359131,
        0.48628711700439453,
        0.5466451644897461
    ],
    "3": [
        0.055832862854003906,
        0.10658550262451172,
        0.151719331741333,
        0.205092191696167,
        0.25659704208374023,
        0.3100600242614746,
        0.3697693347930908,
        0.43778467178344727,
        0.4954195022583008,
        0.5561926364898682
    ],
    "4": [
        0.05733942985534668,
        0.11864542961120605,
        0.1902315616607666,
        0.24500775337219238,
        0.3016629219055176,
        0.3578824996948242,
        0.4189267158508301,
        0.49480152130126953,
        0.5660295486450195,
        0.6433134078979492
    ]
}