{
    "0": [
        0.0690162181854248,
        0.17496085166931152,
        0.2989997863769531,
        0.41344404220581055,
        0.5195088386535645,
        0.631638765335083,
        0.7405314445495605,
        0.8658108711242676,
        0.9924373626708984,
        1.1154096126556396
    ],
    "1": [
        0.07325577735900879,
        0.19470000267028809,
        0.29440999031066895,
        0.4006187915802002,
        0.4854774475097656,
        0.6033143997192383,
        0.6869959831237793,
        0.7892978191375732,
        0.8971900939941406,
        0.9896180629730225
    ],
    "2": [
        0.056838274002075195,
        0.12739920616149902,
        0.20773863792419434,
        0.2757539749145508,
        0.39653539657592773,
        0.53133225440979,
        0.679271936416626,
        0.8122336864471436,
        0.9125065803527832,
        1.0292787551879883
    ],
    "3": [
        0.05991411209106445,
        0.13636279106140137,
        0.24836349487304688,
        0.34177494049072266,
        0.4380030632019043,
        0.5314116477966309,
        0.6391322612762451,
        0.7853124141693115,
        0.8930416107177734,
        0.9992787837982178
    ],
    "4": [
        0.0738987922668457,
        0.1962571144104004,
        0.29522037506103516,
        0.39462900161743164,
        0.5379607677459717,
        0.6467885971069336,
        0.7423193454742432,
        0.8461446762084961,
        0.9460482597351074,
        1.048492670059204
    ]
}