{
    "0": [
        2.0979323387145996,
        4.679229497909546,
        7.366008281707764,
        9.458862066268921,
        12.444308757781982,
        15.144568920135498,
        17.06539559364319,
        18.916192770004272,
        21.31308341026306,
        23.465646982192993
    ],
    "1": [
        2.01121187210083,
        4.079387187957764,
        6.224190950393677,
        8.484857559204102,
        10.628964185714722,
        12.988487243652344,
        15.149725437164307,
        17.128824949264526,
        19.42518949508667,
        21.537739992141724
    ],
    "2": [
        1.975679636001587,
        4.222906827926636,
        6.078773498535156,
        8.214581727981567,
        10.106544017791748,
        11.733993291854858,
        13.915697574615479,
        16.041544437408447,
        18.40138530731201,
        20.56307625770569
    ],
    "3": [
        1.522369384765625,
        2.648125410079956,
        4.600477933883667,
        5.809369802474976,
        6.810118913650513,
        8.754674911499023,
        10.575562238693237,
        11.897196531295776,
        13.153482437133789,
        14.780765295028687
    ],
    "4": [
        1.9251000881195068,
        3.7422401905059814,
        5.945832014083862,
        8.253714561462402,
        10.793647527694702,
        13.216278076171875,
        15.601438283920288,
        17.782379150390625,
        20.161182641983032,
        22.430248737335205
    ]
}