{
    "0": [
        0.041810035705566406,
        0.07904601097106934,
        0.11519193649291992,
        0.15247011184692383,
        0.19580984115600586,
        0.23440074920654297,
        0.26715731620788574,
        0.3090379238128662,
        0.34624814987182617,
        0.38463830947875977
    ],
    "1": [
        0.03070807456970215,
        0.06444478034973145,
        0.10176944732666016,
        0.14680790901184082,
        0.18626999855041504,
        0.22700238227844238,
        0.2703094482421875,
        0.31188011169433594,
        0.36013245582580566,
        0.40827274322509766
    ],
    "2": [
        0.04513072967529297,
        0.07883858680725098,
        0.11580562591552734,
        0.15476155281066895,
        0.19852614402770996,
        0.24324607849121094,
        0.2923696041107178,
        0.3381388187408447,
        0.39667820930480957,
        0.4639933109283447
    ],
    "3": [
        0.0449833869934082,
        0.08558034896850586,
        0.12058401107788086,
        0.16184568405151367,
        0.20114636421203613,
        0.24433469772338867,
        0.280564546585083,
        0.32566118240356445,
        0.36430883407592773,
        0.4017035961151123
    ],
    "4": [
        0.03602957725524902,
        0.07569217681884766,
        0.1126093864440918,
        0.15328192710876465,
        0.19275164604187012,
        0.22934985160827637,
        0.26884913444519043,
        0.30680060386657715,
        0.3451261520385742,
        0.4006688594818115
    ]
}