{
    "0": [
        0.08256006240844727,
        0.17435598373413086,
        0.29976654052734375,
        0.4228932857513428,
        0.5593132972717285,
        0.6992361545562744,
        0.8265326023101807,
        0.9695866107940674,
        1.1113877296447754,
        1.248183012008667
    ],
    "1": [
        0.07032489776611328,
        0.1530747413635254,
        0.2315051555633545,
        0.31398797035217285,
        0.40979862213134766,
        0.49143266677856445,
        0.5892314910888672,
        0.68971848487854,
        0.8012065887451172,
        0.9548587799072266
    ],
    "2": [
        0.08632230758666992,
        0.17456650733947754,
        0.26828670501708984,
        0.38704490661621094,
        0.5002052783966064,
        0.6029984951019287,
        0.7280378341674805,
        0.8524203300476074,
        0.9828648567199707,
        1.1234369277954102
    ],
    "3": [
        0.07145047187805176,
        0.15178894996643066,
        0.23671603202819824,
        0.3205757141113281,
        0.41738176345825195,
        0.5033106803894043,
        0.6111538410186768,
        0.706204891204834,
        0.8124654293060303,
        0.9145774841308594
    ],
    "4": [
        0.07622647285461426,
        0.1549668312072754,
        0.23255491256713867,
        0.31989073753356934,
        0.40355634689331055,
        0.5060343742370605,
        0.6036889553070068,
        0.7035186290740967,
        0.8085510730743408,
        0.9117100238800049
    ]
}