{
    "0": [
        0.06094098091125488,
        0.13747715950012207,
        0.2095928192138672,
        0.28451013565063477,
        0.3594653606414795,
        0.4332563877105713,
        0.5101866722106934,
        0.5980179309844971,
        0.7001705169677734,
        0.804779052734375
    ],
    "1": [
        0.07474493980407715,
        0.15405726432800293,
        0.2270336151123047,
        0.31554079055786133,
        0.41860365867614746,
        0.5259933471679688,
        0.6212646961212158,
        0.7267055511474609,
        0.8349530696868896,
        0.9373681545257568
    ],
    "2": [
        0.09081172943115234,
        0.17505145072937012,
        0.2602808475494385,
        0.34621477127075195,
        0.4738924503326416,
        0.5964303016662598,
        0.6965427398681641,
        0.7978284358978271,
        0.89646315574646,
        1.030181884765625
    ],
    "3": [
        0.10150694847106934,
        0.1931018829345703,
        0.2911996841430664,
        0.4320859909057617,
        0.5726580619812012,
        0.6739435195922852,
        0.8028101921081543,
        0.9412848949432373,
        1.0733625888824463,
        1.221073865890503
    ],
    "4": [
        0.10190272331237793,
        0.2248678207397461,
        0.35344862937927246,
        0.4690825939178467,
        0.5994076728820801,
        0.786339282989502,
        0.9377226829528809,
        1.1484527587890625,
        1.3612627983093262,
        1.558135747909546
    ]
}