{
    "0": [
        0.07704925537109375,
        0.15381169319152832,
        0.2609870433807373,
        0.3403291702270508,
        0.47061848640441895,
        0.5837550163269043,
        0.6641948223114014,
        0.7486104965209961,
        0.8501691818237305,
        0.9507744312286377
    ],
    "1": [
        0.09147405624389648,
        0.18952703475952148,
        0.31687402725219727,
        0.4435741901397705,
        0.6050193309783936,
        0.7487373352050781,
        0.9262356758117676,
        1.121568202972412,
        1.26568603515625,
        1.3985600471496582
    ],
    "2": [
        0.09709286689758301,
        0.19023799896240234,
        0.3173820972442627,
        0.4172091484069824,
        0.516901969909668,
        0.629824161529541,
        0.757061243057251,
        0.8886926174163818,
        1.0948832035064697,
        1.2070636749267578
    ],
    "3": [
        0.10125398635864258,
        0.21579623222351074,
        0.339310884475708,
        0.503615140914917,
        0.6557848453521729,
        0.9014511108398438,
        1.1330935955047607,
        1.3024377822875977,
        1.4532759189605713,
        1.612290620803833
    ],
    "4": [
        0.07606244087219238,
        0.17613554000854492,
        0.26249051094055176,
        0.369182825088501,
        0.49589109420776367,
        0.6331243515014648,
        0.7877569198608398,
        0.9499783515930176,
        1.0612900257110596,
        1.1921727657318115
    ]
}