{
    "0": [
        0.07354879379272461,
        0.1508488655090332,
        0.25716614723205566,
        0.38162899017333984,
        0.4884223937988281,
        0.6415090560913086,
        0.7915177345275879,
        0.9461417198181152,
        1.0907628536224365,
        1.2552311420440674
    ],
    "1": [
        0.07065653800964355,
        0.16705942153930664,
        0.2682788372039795,
        0.37377023696899414,
        0.4762909412384033,
        0.5808095932006836,
        0.684227705001831,
        0.8054547309875488,
        0.9484548568725586,
        1.0919766426086426
    ],
    "2": [
        0.05880856513977051,
        0.13073468208312988,
        0.2008206844329834,
        0.2844696044921875,
        0.3559379577636719,
        0.4278123378753662,
        0.50028395652771,
        0.5858809947967529,
        0.6587965488433838,
        0.737555980682373
    ],
    "3": [
        0.0648503303527832,
        0.13066816329956055,
        0.1998920440673828,
        0.2718229293823242,
        0.35842323303222656,
        0.44907498359680176,
        0.5413715839385986,
        0.6329302787780762,
        0.7276101112365723,
        0.826331377029419
    ],
    "4": [
        0.06989502906799316,
        0.13960838317871094,
        0.21250367164611816,
        0.2950599193572998,
        0.38591909408569336,
        0.4695744514465332,
        0.5662307739257812,
        0.6493570804595947,
        0.7511656284332275,
        0.8586502075195312
    ]
}