{
    "0": [
        0.11182022094726562,
        0.23018646240234375,
        0.36030054092407227,
        0.5023584365844727,
        0.7064366340637207,
        0.9041454792022705,
        1.1387293338775635,
        1.3822226524353027,
        1.5627379417419434,
        1.7654998302459717
    ],
    "1": [
        0.1412971019744873,
        0.28461742401123047,
        0.43441224098205566,
        0.6325855255126953,
        0.8446965217590332,
        1.026625156402588,
        1.261613368988037,
        1.4200000762939453,
        1.6114208698272705,
        1.8264658451080322
    ],
    "2": [
        0.08976411819458008,
        0.19341325759887695,
        0.35393476486206055,
        0.4705777168273926,
        0.6087839603424072,
        0.7852861881256104,
        0.9201295375823975,
        1.1219594478607178,
        1.2722361087799072,
        1.5077381134033203
    ],
    "3": [
        0.10693240165710449,
        0.2463517189025879,
        0.4019632339477539,
        0.6401722431182861,
        0.8227145671844482,
        1.0431315898895264,
        1.3572120666503906,
        1.585331916809082,
        1.7868826389312744,
        2.00972580909729
    ],
    "4": [
        0.09845352172851562,
        0.25140810012817383,
        0.3721163272857666,
        0.5050003528594971,
        0.6343786716461182,
        0.8528842926025391,
        1.1595964431762695,
        1.3971354961395264,
        1.6230130195617676,
        1.8325254917144775
    ]
}