{
    "0": {
        "parsing": 0.011,
        "preparation": 0.005,
        "satisfiability": 0.003,
        "total": 0.06108665466308594
    },
    "1": {
        "parsing": 0.011,
        "preparation": 0.005,
        "satisfiability": 0.003,
        "total": 0.06088829040527344
    },
    "2": {
        "parsing": 0.012,
        "preparation": 0.005,
        "satisfiability": 0.003,
        "total": 0.06286883354187012
    },
    "3": {
        "parsing": 0.011,
        "preparation": 0.005,
        "satisfiability": 0.003,
        "total": 0.06211996078491211
    },
    "4": {
        "parsing": 0.012,
        "preparation": 0.005,
        "satisfiability": 0.003,
        "total": 0.06087231636047363
    }
}