{
    "0": {
        "parsing": 0.029,
        "preparation": 0.046,
        "satisfiability": 0.005,
        "total": 0.13285040855407715
    },
    "1": {
        "parsing": 0.03,
        "preparation": 0.045,
        "satisfiability": 0.005,
        "total": 0.13791298866271973
    },
    "2": {
        "parsing": 0.03,
        "preparation": 0.047,
        "satisfiability": 0.005,
        "total": 0.13563919067382812
    },
    "3": {
        "parsing": 0.029,
        "preparation": 0.047,
        "satisfiability": 0.005,
        "total": 0.1367020606994629
    },
    "4": {
        "parsing": 0.029,
        "preparation": 0.046,
        "satisfiability": 0.005,
        "total": 0.13361573219299316
    }
}