{
    "0": {
        "parsing": 0.214,
        "preparation": 0.986,
        "satisfiability": 0.005,
        "total": 1.2528016567230225
    },
    "1": {
        "parsing": 0.216,
        "preparation": 1.023,
        "satisfiability": 0.006,
        "total": 1.3146677017211914
    },
    "2": {
        "parsing": 0.211,
        "preparation": 1.111,
        "satisfiability": 0.006,
        "total": 1.4028806686401367
    },
    "3": {
        "parsing": 0.215,
        "preparation": 1.189,
        "satisfiability": 0.006,
        "total": 1.494201898574829
    },
    "4": {
        "parsing": 0.216,
        "preparation": 1.081,
        "satisfiability": 0.005,
        "total": 1.3745317459106445
    }
}