{
    "0": {
        "parsing": 0.022,
        "preparation": 0.027,
        "satisfiability": 0.004,
        "total": 0.10690975189208984
    },
    "1": {
        "parsing": 0.022,
        "preparation": 0.027,
        "satisfiability": 0.004,
        "total": 0.10809659957885742
    },
    "2": {
        "parsing": 0.022,
        "preparation": 0.028,
        "satisfiability": 0.004,
        "total": 0.1083378791809082
    },
    "3": {
        "parsing": 0.022,
        "preparation": 0.028,
        "satisfiability": 0.004,
        "total": 0.1080625057220459
    },
    "4": {
        "parsing": 0.022,
        "preparation": 0.028,
        "satisfiability": 0.004,
        "total": 0.10911703109741211
    }
}