{
    "0": {
        "parsing": 0.018,
        "preparation": 0.009,
        "satisfiability": 0.003,
        "total": 0.10697293281555176
    },
    "1": {
        "parsing": 0.014,
        "preparation": 0.008,
        "satisfiability": 0.003,
        "total": 0.07689189910888672
    },
    "2": {
        "parsing": 0.014,
        "preparation": 0.009,
        "satisfiability": 0.003,
        "total": 0.0772860050201416
    },
    "3": {
        "parsing": 0.014,
        "preparation": 0.009,
        "satisfiability": 0.003,
        "total": 0.0782158374786377
    },
    "4": {
        "parsing": 0.014,
        "preparation": 0.009,
        "satisfiability": 0.003,
        "total": 0.07723522186279297
    }
}