{
    "0": {
        "parsing": 0.015,
        "preparation": 0.009,
        "satisfiability": 0.003,
        "total": 0.07856988906860352
    },
    "1": {
        "parsing": 0.015,
        "preparation": 0.008,
        "satisfiability": 0.003,
        "total": 0.07873678207397461
    },
    "2": {
        "parsing": 0.015,
        "preparation": 0.008,
        "satisfiability": 0.003,
        "total": 0.07778692245483398
    },
    "3": {
        "parsing": 0.015,
        "preparation": 0.008,
        "satisfiability": 0.003,
        "total": 0.07750439643859863
    },
    "4": {
        "parsing": 0.014,
        "preparation": 0.008,
        "satisfiability": 0.003,
        "total": 0.07904720306396484
    }
}