{
    "0": {
        "parsing": 0.027,
        "preparation": 0.034,
        "satisfiability": 0.004,
        "total": 0.11938214302062988
    },
    "1": {
        "parsing": 0.026,
        "preparation": 0.033,
        "satisfiability": 0.004,
        "total": 0.1177670955657959
    },
    "2": {
        "parsing": 0.027,
        "preparation": 0.034,
        "satisfiability": 0.004,
        "total": 0.11737680435180664
    },
    "3": {
        "parsing": 0.027,
        "preparation": 0.033,
        "satisfiability": 0.004,
        "total": 0.11852860450744629
    },
    "4": {
        "parsing": 0.027,
        "preparation": 0.033,
        "satisfiability": 0.004,
        "total": 0.1187446117401123
    }
}