{
    "0": {
        "parsing": 0.046,
        "preparation": 0.099,
        "satisfiability": 0.005,
        "total": 0.20621013641357422
    },
    "1": {
        "parsing": 0.046,
        "preparation": 0.098,
        "satisfiability": 0.005,
        "total": 0.21546244621276855
    },
    "2": {
        "parsing": 0.045,
        "preparation": 0.099,
        "satisfiability": 0.005,
        "total": 0.20601177215576172
    },
    "3": {
        "parsing": 0.045,
        "preparation": 0.099,
        "satisfiability": 0.005,
        "total": 0.20620489120483398
    },
    "4": {
        "parsing": 0.045,
        "preparation": 0.1,
        "satisfiability": 0.005,
        "total": 0.2067399024963379
    }
}