{
    "0": {
        "parsing": 0.014,
        "preparation": 0.008,
        "satisfiability": 0.003,
        "total": 0.07753443717956543
    },
    "1": {
        "parsing": 0.014,
        "preparation": 0.008,
        "satisfiability": 0.003,
        "total": 0.07770347595214844
    },
    "2": {
        "parsing": 0.014,
        "preparation": 0.008,
        "satisfiability": 0.003,
        "total": 0.07825040817260742
    },
    "3": {
        "parsing": 0.014,
        "preparation": 0.008,
        "satisfiability": 0.003,
        "total": 0.07835507392883301
    },
    "4": {
        "parsing": 0.014,
        "preparation": 0.008,
        "satisfiability": 0.003,
        "total": 0.07792019844055176
    }
}