{
    "0": {
        "parsing": 0.014,
        "preparation": 0.008,
        "satisfiability": 0.003,
        "total": 0.07664227485656738
    },
    "1": {
        "parsing": 0.014,
        "preparation": 0.008,
        "satisfiability": 0.003,
        "total": 0.07810425758361816
    },
    "2": {
        "parsing": 0.014,
        "preparation": 0.008,
        "satisfiability": 0.003,
        "total": 0.07793354988098145
    },
    "3": {
        "parsing": 0.014,
        "preparation": 0.008,
        "satisfiability": 0.003,
        "total": 0.07743310928344727
    },
    "4": {
        "parsing": 0.014,
        "preparation": 0.008,
        "satisfiability": 0.003,
        "total": 0.07723665237426758
    }
}