{
    "0": {
        "parsing": 0.06,
        "preparation": 0.228,
        "satisfiability": 0.006,
        "total": 0.3508718013763428
    },
    "1": {
        "parsing": 0.061,
        "preparation": 0.231,
        "satisfiability": 0.009,
        "total": 0.3593628406524658
    },
    "2": {
        "parsing": 0.061,
        "preparation": 0.22,
        "satisfiability": 0.006,
        "total": 0.34423327445983887
    },
    "3": {
        "parsing": 0.062,
        "preparation": 0.22,
        "satisfiability": 0.006,
        "total": 0.34439802169799805
    },
    "4": {
        "parsing": 0.06,
        "preparation": 0.219,
        "satisfiability": 0.006,
        "total": 0.3421053886413574
    }
}