{
    "0": {
        "parsing": 0.02,
        "preparation": 0.022,
        "satisfiability": 0.004,
        "total": 0.0990746021270752
    },
    "1": {
        "parsing": 0.02,
        "preparation": 0.021,
        "satisfiability": 0.004,
        "total": 0.09900116920471191
    },
    "2": {
        "parsing": 0.02,
        "preparation": 0.022,
        "satisfiability": 0.004,
        "total": 0.0983889102935791
    },
    "3": {
        "parsing": 0.02,
        "preparation": 0.022,
        "satisfiability": 0.005,
        "total": 0.10167193412780762
    },
    "4": {
        "parsing": 0.02,
        "preparation": 0.022,
        "satisfiability": 0.005,
        "total": 0.10027742385864258
    }
}