{
    "0": {
        "parsing": 0.019,
        "preparation": 0.022,
        "satisfiability": 0.003,
        "total": 0.09855890274047852
    },
    "1": {
        "parsing": 0.019,
        "preparation": 0.022,
        "satisfiability": 0.003,
        "total": 0.09695053100585938
    },
    "2": {
        "parsing": 0.02,
        "preparation": 0.022,
        "satisfiability": 0.003,
        "total": 0.09783053398132324
    },
    "3": {
        "parsing": 0.019,
        "preparation": 0.022,
        "satisfiability": 0.003,
        "total": 0.0980520248413086
    },
    "4": {
        "parsing": 0.019,
        "preparation": 0.022,
        "satisfiability": 0.003,
        "total": 0.09675931930541992
    }
}