{
    "0": {
        "parsing": 0.287,
        "preparation": 4.564,
        "satisfiability": 0.01,
        "total": 4.918750047683716
    },
    "1": {
        "parsing": 0.282,
        "preparation": 4.606,
        "satisfiability": 0.011,
        "total": 4.972518444061279
    },
    "2": {
        "parsing": 0.278,
        "preparation": 4.586,
        "satisfiability": 0.01,
        "total": 4.948611497879028
    },
    "3": {
        "parsing": 0.285,
        "preparation": 4.547,
        "satisfiability": 0.01,
        "total": 4.9175310134887695
    },
    "4": {
        "parsing": 0.285,
        "preparation": 4.475,
        "satisfiability": 0.01,
        "total": 4.844882965087891
    }
}