{
    "0": {
        "parsing": 0.011,
        "preparation": 0.005,
        "satisfiability": 0.002,
        "total": 0.0809943675994873
    },
    "1": {
        "parsing": 0.011,
        "preparation": 0.005,
        "satisfiability": 0.002,
        "total": 0.05986666679382324
    },
    "2": {
        "parsing": 0.011,
        "preparation": 0.005,
        "satisfiability": 0.002,
        "total": 0.0592343807220459
    },
    "3": {
        "parsing": 0.011,
        "preparation": 0.005,
        "satisfiability": 0.002,
        "total": 0.06016802787780762
    },
    "4": {
        "parsing": 0.011,
        "preparation": 0.005,
        "satisfiability": 0.002,
        "total": 0.059021711349487305
    }
}