{
    "0": {
        "parsing": 0.093,
        "preparation": 0.417,
        "satisfiability": 0.007,
        "total": 0.5746402740478516
    },
    "1": {
        "parsing": 0.091,
        "preparation": 0.409,
        "satisfiability": 0.007,
        "total": 0.5548298358917236
    },
    "2": {
        "parsing": 0.092,
        "preparation": 0.402,
        "satisfiability": 0.006,
        "total": 0.5476281642913818
    },
    "3": {
        "parsing": 0.092,
        "preparation": 0.395,
        "satisfiability": 0.007,
        "total": 0.5404276847839355
    },
    "4": {
        "parsing": 0.091,
        "preparation": 0.408,
        "satisfiability": 0.007,
        "total": 0.5554547309875488
    }
}