{
    "0": {
        "parsing": 0.01,
        "preparation": 0.003,
        "satisfiability": 0.002,
        "total": 0.05701732635498047
    },
    "1": {
        "parsing": 0.01,
        "preparation": 0.003,
        "satisfiability": 0.002,
        "total": 0.05584311485290527
    },
    "2": {
        "parsing": 0.01,
        "preparation": 0.003,
        "satisfiability": 0.002,
        "total": 0.0562589168548584
    },
    "3": {
        "parsing": 0.01,
        "preparation": 0.003,
        "satisfiability": 0.002,
        "total": 0.05549192428588867
    },
    "4": {
        "parsing": 0.01,
        "preparation": 0.003,
        "satisfiability": 0.002,
        "total": 0.05687570571899414
    }
}