{
    "0": {
        "parsing": 0.009,
        "preparation": 0.002,
        "satisfiability": 0.002,
        "total": 0.055631160736083984
    },
    "1": {
        "parsing": 0.009,
        "preparation": 0.002,
        "satisfiability": 0.002,
        "total": 0.05474710464477539
    },
    "2": {
        "parsing": 0.009,
        "preparation": 0.002,
        "satisfiability": 0.002,
        "total": 0.053822994232177734
    },
    "3": {
        "parsing": 0.009,
        "preparation": 0.002,
        "satisfiability": 0.002,
        "total": 0.054163455963134766
    },
    "4": {
        "parsing": 0.009,
        "preparation": 0.002,
        "satisfiability": 0.002,
        "total": 0.055295467376708984
    }
}