{
    "0": {
        "parsing": 0.01,
        "preparation": 0.003,
        "satisfiability": 0.002,
        "total": 0.0579073429107666
    },
    "1": {
        "parsing": 0.01,
        "preparation": 0.002,
        "satisfiability": 0.002,
        "total": 0.05700516700744629
    },
    "2": {
        "parsing": 0.01,
        "preparation": 0.003,
        "satisfiability": 0.002,
        "total": 0.05721640586853027
    },
    "3": {
        "parsing": 0.01,
        "preparation": 0.003,
        "satisfiability": 0.002,
        "total": 0.0562288761138916
    },
    "4": {
        "parsing": 0.01,
        "preparation": 0.003,
        "satisfiability": 0.002,
        "total": 0.05677509307861328
    }
}