{
    "0": {
        "parsing": 0.009,
        "preparation": 0.002,
        "satisfiability": 0.002,
        "total": 0.056539058685302734
    },
    "1": {
        "parsing": 0.009,
        "preparation": 0.002,
        "satisfiability": 0.002,
        "total": 0.05502581596374512
    },
    "2": {
        "parsing": 0.009,
        "preparation": 0.002,
        "satisfiability": 0.002,
        "total": 0.05534982681274414
    },
    "3": {
        "parsing": 0.009,
        "preparation": 0.002,
        "satisfiability": 0.002,
        "total": 0.05467963218688965
    },
    "4": {
        "parsing": 0.009,
        "preparation": 0.002,
        "satisfiability": 0.002,
        "total": 0.05519604682922363
    }
}