{
    "0": {
        "parsing": 0.009,
        "preparation": 0.002,
        "satisfiability": 0.002,
        "total": 0.0558466911315918
    },
    "1": {
        "parsing": 0.009,
        "preparation": 0.002,
        "satisfiability": 0.002,
        "total": 0.0551609992980957
    },
    "2": {
        "parsing": 0.009,
        "preparation": 0.002,
        "satisfiability": 0.002,
        "total": 0.05403017997741699
    },
    "3": {
        "parsing": 0.009,
        "preparation": 0.002,
        "satisfiability": 0.002,
        "total": 0.05395245552062988
    },
    "4": {
        "parsing": 0.009,
        "preparation": 0.002,
        "satisfiability": 0.002,
        "total": 0.05378890037536621
    }
}