{
    "0": {
        "parsing": 0.018,
        "preparation": 0.018,
        "satisfiability": 0.005,
        "total": 0.09414553642272949
    },
    "1": {
        "parsing": 0.018,
        "preparation": 0.018,
        "satisfiability": 0.006,
        "total": 0.09465575218200684
    },
    "2": {
        "parsing": 0.018,
        "preparation": 0.018,
        "satisfiability": 0.005,
        "total": 0.09542965888977051
    },
    "3": {
        "parsing": 0.018,
        "preparation": 0.018,
        "satisfiability": 0.005,
        "total": 0.09445309638977051
    },
    "4": {
        "parsing": 0.018,
        "preparation": 0.018,
        "satisfiability": 0.006,
        "total": 0.09538006782531738
    }
}