{
    "0": {
        "parsing": 0.022,
        "preparation": 0.026,
        "satisfiability": 0.005,
        "total": 0.10637569427490234
    },
    "1": {
        "parsing": 0.022,
        "preparation": 0.027,
        "satisfiability": 0.006,
        "total": 0.10988354682922363
    },
    "2": {
        "parsing": 0.022,
        "preparation": 0.027,
        "satisfiability": 0.005,
        "total": 0.10552716255187988
    },
    "3": {
        "parsing": 0.022,
        "preparation": 0.027,
        "satisfiability": 0.005,
        "total": 0.10668802261352539
    },
    "4": {
        "parsing": 0.021,
        "preparation": 0.027,
        "satisfiability": 0.005,
        "total": 0.1077718734741211
    }
}