{
    "0": {
        "parsing": 0.03,
        "preparation": 0.06,
        "satisfiability": 0.005,
        "total": 0.17206025123596191
    },
    "1": {
        "parsing": 0.03,
        "preparation": 0.057,
        "satisfiability": 0.005,
        "total": 0.14528274536132812
    },
    "2": {
        "parsing": 0.03,
        "preparation": 0.057,
        "satisfiability": 0.005,
        "total": 0.14807343482971191
    },
    "3": {
        "parsing": 0.03,
        "preparation": 0.06,
        "satisfiability": 0.005,
        "total": 0.1497657299041748
    },
    "4": {
        "parsing": 0.03,
        "preparation": 0.059,
        "satisfiability": 0.005,
        "total": 0.14873838424682617
    }
}