{
    "0": {
        "parsing": 0.057,
        "preparation": 0.18,
        "satisfiability": 0.036,
        "total": 0.32375168800354004
    },
    "1": {
        "parsing": 0.06,
        "preparation": 0.182,
        "satisfiability": 0.034,
        "total": 0.3378582000732422
    },
    "2": {
        "parsing": 0.057,
        "preparation": 0.182,
        "satisfiability": 0.036,
        "total": 0.3253040313720703
    },
    "3": {
        "parsing": 0.06,
        "preparation": 0.182,
        "satisfiability": 0.036,
        "total": 0.3301084041595459
    },
    "4": {
        "parsing": 0.06,
        "preparation": 0.182,
        "satisfiability": 0.037,
        "total": 0.33103370666503906
    }
}