{
    "0": {
        "parsing": 0.031,
        "preparation": 0.051,
        "satisfiability": 0.006,
        "total": 0.14137864112854004
    },
    "1": {
        "parsing": 0.031,
        "preparation": 0.051,
        "satisfiability": 0.007,
        "total": 0.14342045783996582
    },
    "2": {
        "parsing": 0.03,
        "preparation": 0.05,
        "satisfiability": 0.007,
        "total": 0.14346098899841309
    },
    "3": {
        "parsing": 0.032,
        "preparation": 0.05,
        "satisfiability": 0.007,
        "total": 0.15543532371520996
    },
    "4": {
        "parsing": 0.031,
        "preparation": 0.051,
        "satisfiability": 0.006,
        "total": 0.14226436614990234
    }
}