{
    "0": {
        "parsing": 0.018,
        "preparation": 0.018,
        "satisfiability": 0.005,
        "total": 0.09399247169494629
    },
    "1": {
        "parsing": 0.018,
        "preparation": 0.018,
        "satisfiability": 0.005,
        "total": 0.09528517723083496
    },
    "2": {
        "parsing": 0.017,
        "preparation": 0.017,
        "satisfiability": 0.005,
        "total": 0.0945744514465332
    },
    "3": {
        "parsing": 0.017,
        "preparation": 0.018,
        "satisfiability": 0.004,
        "total": 0.09263205528259277
    },
    "4": {
        "parsing": 0.018,
        "preparation": 0.017,
        "satisfiability": 0.005,
        "total": 0.09391522407531738
    }
}