{
    "0": [
        0.022064924240112305,
        0.0386815071105957,
        0.05837512016296387,
        0.07868623733520508,
        0.09842371940612793,
        0.12153458595275879,
        0.18181538581848145,
        0.21569347381591797,
        0.2440497875213623,
        0.27240514755249023
    ],
    "1": [
        0.02501225471496582,
        0.04150128364562988,
        0.061681270599365234,
        0.08258891105651855,
        0.10895729064941406,
        0.1329793930053711,
        0.1556992530822754,
        0.17962408065795898,
        0.20921564102172852,
        0.24390506744384766
    ],
    "2": [
        0.02379155158996582,
        0.04088425636291504,
        0.06684350967407227,
        0.08734679222106934,
        0.11073589324951172,
        0.13545584678649902,
        0.16133546829223633,
        0.18967103958129883,
        0.22411704063415527,
        0.2585732936859131
    ],
    "3": [
        0.02320384979248047,
        0.04390597343444824,
        0.06329798698425293,
        0.09204411506652832,
        0.11863899230957031,
        0.14232277870178223,
        0.16511797904968262,
        0.19089627265930176,
        0.2247614860534668,
        0.261368989944458
    ],
    "4": [
        0.023794889450073242,
        0.04252028465270996,
        0.07074332237243652,
        0.0958554744720459,
        0.12006998062133789,
        0.147979736328125,
        0.17621612548828125,
        0.20992517471313477,
        0.24247407913208008,
        0.2762274742126465
    ]
}