{
    "0": [
        0.07298469543457031,
        0.1252915859222412,
        0.18490028381347656,
        0.2407681941986084,
        0.31799745559692383,
        0.4366340637207031,
        0.5504927635192871,
        0.6869525909423828,
        0.7993185520172119,
        0.9344422817230225
    ],
    "1": [
        0.08441352844238281,
        0.141770601272583,
        0.2141892910003662,
        0.28836631774902344,
        0.3535463809967041,
        0.46851181983947754,
        0.5966739654541016,
        0.7161252498626709,
        0.8391680717468262,
        0.9768271446228027
    ],
    "2": [
        0.07184743881225586,
        0.14254426956176758,
        0.20551466941833496,
        0.2639338970184326,
        0.34148478507995605,
        0.45935916900634766,
        0.5640733242034912,
        0.6768691539764404,
        0.8037610054016113,
        0.9171993732452393
    ],
    "3": [
        0.07125473022460938,
        0.13476181030273438,
        0.19443821907043457,
        0.26979541778564453,
        0.34401655197143555,
        0.48083949089050293,
        0.5857117176055908,
        0.6927027702331543,
        0.8196284770965576,
        0.9599583148956299
    ],
    "4": [
        0.06461429595947266,
        0.11361408233642578,
        0.16790556907653809,
        0.24237680435180664,
        0.3232858180999756,
        0.4382321834564209,
        0.5628170967102051,
        0.6746401786804199,
        0.8264985084533691,
        0.9468684196472168
    ]
}