{
    "0": [
        0.05479907989501953,
        0.1051938533782959,
        0.15860223770141602,
        0.2127835750579834,
        0.2589735984802246,
        0.3069732189178467,
        0.3747415542602539,
        0.441265344619751,
        0.5058135986328125,
        0.5671164989471436
    ],
    "1": [
        0.06312441825866699,
        0.10496377944946289,
        0.14809274673461914,
        0.21410179138183594,
        0.270885705947876,
        0.3302886486053467,
        0.38643646240234375,
        0.45088744163513184,
        0.5131378173828125,
        0.5808064937591553
    ],
    "2": [
        0.08865046501159668,
        0.1360640525817871,
        0.18243980407714844,
        0.2332620620727539,
        0.28958773612976074,
        0.3442728519439697,
        0.3982670307159424,
        0.47723984718322754,
        0.5414423942565918,
        0.6046397686004639
    ],
    "3": [
        0.06007814407348633,
        0.10994696617126465,
        0.15371942520141602,
        0.20779871940612793,
        0.2567892074584961,
        0.3169684410095215,
        0.4036753177642822,
        0.47446537017822266,
        0.5435037612915039,
        0.6184113025665283
    ],
    "4": [
        0.062494754791259766,
        0.12186861038208008,
        0.17222809791564941,
        0.22671842575073242,
        0.2795219421386719,
        0.35024404525756836,
        0.4202291965484619,
        0.48406267166137695,
        0.5423266887664795,
        0.6046466827392578
    ]
}