{
    "0": [
        0.01861095428466797,
        0.035574913024902344,
        0.05442404747009277,
        0.0723562240600586,
        0.09010148048400879,
        0.10660362243652344,
        0.12566304206848145,
        0.14186358451843262,
        0.1613013744354248,
        0.182905912399292
    ],
    "1": [
        0.018757104873657227,
        0.03714942932128906,
        0.05682992935180664,
        0.07411980628967285,
        0.09115076065063477,
        0.10987639427185059,
        0.13166594505310059,
        0.15316987037658691,
        0.17190003395080566,
        0.19032740592956543
    ],
    "2": [
        0.020740509033203125,
        0.03869748115539551,
        0.06054115295410156,
        0.0804905891418457,
        0.10208559036254883,
        0.12256288528442383,
        0.14070796966552734,
        0.16069746017456055,
        0.17896294593811035,
        0.19795632362365723
    ],
    "3": [
        0.019880294799804688,
        0.036293983459472656,
        0.059244632720947266,
        0.08237886428833008,
        0.10664892196655273,
        0.12571001052856445,
        0.1463468074798584,
        0.16470789909362793,
        0.18661117553710938,
        0.2092437744140625
    ],
    "4": [
        0.01617908477783203,
        0.035653114318847656,
        0.056617021560668945,
        0.07444167137145996,
        0.09268498420715332,
        0.11433601379394531,
        0.1340470314025879,
        0.15312480926513672,
        0.17249679565429688,
        0.1913156509399414
    ]
}