{
    "0": [
        0.02660846710205078,
        0.04269003868103027,
        0.06308841705322266,
        0.08072495460510254,
        0.0978555679321289,
        0.12289762496948242,
        0.15313100814819336,
        0.1765894889831543,
        0.20712661743164062,
        0.24089503288269043
    ],
    "1": [
        0.01970839500427246,
        0.03892636299133301,
        0.05698990821838379,
        0.07535266876220703,
        0.09726309776306152,
        0.1215662956237793,
        0.14876341819763184,
        0.17461395263671875,
        0.20153450965881348,
        0.22923827171325684
    ],
    "2": [
        0.021248579025268555,
        0.039763450622558594,
        0.061266422271728516,
        0.08232235908508301,
        0.10530757904052734,
        0.13458514213562012,
        0.15713262557983398,
        0.18457889556884766,
        0.21828222274780273,
        0.2576894760131836
    ],
    "3": [
        0.021437644958496094,
        0.037015676498413086,
        0.053952693939208984,
        0.07832503318786621,
        0.0990605354309082,
        0.1238555908203125,
        0.14967560768127441,
        0.17377424240112305,
        0.20178532600402832,
        0.2366960048675537
    ],
    "4": [
        0.017779111862182617,
        0.03561592102050781,
        0.05640721321105957,
        0.08392190933227539,
        0.10724949836730957,
        0.13644933700561523,
        0.16204285621643066,
        0.19033288955688477,
        0.2151658535003662,
        0.24387359619140625
    ]
}