{
    "0": [
        0.015472173690795898,
        0.03210806846618652,
        0.04889535903930664,
        0.06529974937438965,
        0.08078336715698242,
        0.10241174697875977,
        0.1224210262298584,
        0.13996052742004395,
        0.15890145301818848,
        0.18019676208496094
    ],
    "1": [
        0.018671512603759766,
        0.035001277923583984,
        0.05124926567077637,
        0.07110905647277832,
        0.08825898170471191,
        0.11101961135864258,
        0.12953996658325195,
        0.14878630638122559,
        0.16715359687805176,
        0.18746042251586914
    ],
    "2": [
        0.022031545639038086,
        0.041097164154052734,
        0.05863618850708008,
        0.07399940490722656,
        0.09134459495544434,
        0.11281538009643555,
        0.13278698921203613,
        0.15412378311157227,
        0.17890048027038574,
        0.20233154296875
    ],
    "3": [
        0.017972230911254883,
        0.03500938415527344,
        0.0571589469909668,
        0.07697844505310059,
        0.09586024284362793,
        0.11534905433654785,
        0.13533997535705566,
        0.15407991409301758,
        0.17519235610961914,
        0.20130395889282227
    ],
    "4": [
        0.0211794376373291,
        0.03861856460571289,
        0.061736345291137695,
        0.08286404609680176,
        0.09971451759338379,
        0.1210794448852539,
        0.14135408401489258,
        0.16315031051635742,
        0.18585491180419922,
        0.20754361152648926
    ]
}