{
    "0": [
        0.02260446548461914,
        0.0425570011138916,
        0.06447339057922363,
        0.09092545509338379,
        0.1189565658569336,
        0.14399051666259766,
        0.17175507545471191,
        0.1980743408203125,
        0.23264265060424805,
        0.25692152976989746
    ],
    "1": [
        0.02750849723815918,
        0.049481868743896484,
        0.07281804084777832,
        0.09450602531433105,
        0.11860036849975586,
        0.14294815063476562,
        0.1683356761932373,
        0.19559192657470703,
        0.22472929954528809,
        0.2506427764892578
    ],
    "2": [
        0.02199101448059082,
        0.04648113250732422,
        0.06978654861450195,
        0.09295272827148438,
        0.1173095703125,
        0.14262175559997559,
        0.17225050926208496,
        0.20337510108947754,
        0.2385571002960205,
        0.2674686908721924
    ],
    "3": [
        0.029212236404418945,
        0.05495166778564453,
        0.0765230655670166,
        0.09941887855529785,
        0.12604713439941406,
        0.15587282180786133,
        0.18316125869750977,
        0.2147212028503418,
        0.24271869659423828,
        0.2720317840576172
    ],
    "4": [
        0.024399518966674805,
        0.04674339294433594,
        0.07250452041625977,
        0.09869885444641113,
        0.12269902229309082,
        0.1500096321105957,
        0.17648768424987793,
        0.2053816318511963,
        0.2324068546295166,
        0.25704264640808105
    ]
}