{
    "0": [
        0.008408784866333008,
        0.017630577087402344,
        0.026824474334716797,
        0.0355987548828125,
        0.043245553970336914,
        0.052392005920410156,
        0.09537649154663086,
        0.10535192489624023,
        0.1138448715209961,
        0.12357640266418457
    ],
    "1": [
        0.008880615234375,
        0.016028642654418945,
        0.02463221549987793,
        0.033150672912597656,
        0.04193758964538574,
        0.05076003074645996,
        0.060607194900512695,
        0.06894254684448242,
        0.07916712760925293,
        0.08734917640686035
    ],
    "2": [
        0.009498834609985352,
        0.019335269927978516,
        0.0289766788482666,
        0.03924393653869629,
        0.04963946342468262,
        0.058028221130371094,
        0.06938719749450684,
        0.0785222053527832,
        0.08996772766113281,
        0.10012006759643555
    ],
    "3": [
        0.009063243865966797,
        0.01879429817199707,
        0.028543710708618164,
        0.03834080696105957,
        0.047814369201660156,
        0.05872678756713867,
        0.0684049129486084,
        0.0802774429321289,
        0.09268045425415039,
        0.10579848289489746
    ],
    "4": [
        0.01190948486328125,
        0.021612882614135742,
        0.03403878211975098,
        0.04578757286071777,
        0.05554318428039551,
        0.06614804267883301,
        0.07584643363952637,
        0.08617234230041504,
        0.09887862205505371,
        0.11183714866638184
    ]
}