{
    "0": [
        0.007303714752197266,
        0.016445636749267578,
        0.023806333541870117,
        0.0339350700378418,
        0.043435096740722656,
        0.05151653289794922,
        0.09531497955322266,
        0.10299015045166016,
        0.11278605461120605,
        0.12275242805480957
    ],
    "1": [
        0.008100748062133789,
        0.015615224838256836,
        0.02459549903869629,
        0.034684181213378906,
        0.044159650802612305,
        0.05327272415161133,
        0.06240487098693848,
        0.07099580764770508,
        0.07929301261901855,
        0.09030008316040039
    ],
    "2": [
        0.009330272674560547,
        0.01995563507080078,
        0.028200864791870117,
        0.03682875633239746,
        0.045423030853271484,
        0.053629398345947266,
        0.06179332733154297,
        0.0723581314086914,
        0.0848398208618164,
        0.09674334526062012
    ],
    "3": [
        0.010700225830078125,
        0.020581960678100586,
        0.02888345718383789,
        0.037668704986572266,
        0.048145294189453125,
        0.05676150321960449,
        0.06560921669006348,
        0.07655191421508789,
        0.08877277374267578,
        0.10197949409484863
    ],
    "4": [
        0.011109352111816406,
        0.022397994995117188,
        0.03209853172302246,
        0.04116487503051758,
        0.051280975341796875,
        0.060827016830444336,
        0.07075381278991699,
        0.08069300651550293,
        0.09142017364501953,
        0.1025090217590332
    ]
}