{
    "0": [
        0.027027606964111328,
        0.047853946685791016,
        0.06961965560913086,
        0.09054112434387207,
        0.11545920372009277,
        0.13951420783996582,
        0.16330909729003906,
        0.18590664863586426,
        0.20954632759094238,
        0.23351621627807617
    ],
    "1": [
        0.025060415267944336,
        0.05013275146484375,
        0.07177209854125977,
        0.09228134155273438,
        0.1176750659942627,
        0.1439042091369629,
        0.16826820373535156,
        0.19584345817565918,
        0.2190570831298828,
        0.2444779872894287
    ],
    "2": [
        0.02611374855041504,
        0.04882192611694336,
        0.07142353057861328,
        0.0975797176361084,
        0.12064003944396973,
        0.14345955848693848,
        0.16873836517333984,
        0.191636323928833,
        0.21526002883911133,
        0.24102568626403809
    ],
    "3": [
        0.02489018440246582,
        0.053177833557128906,
        0.07709980010986328,
        0.09865951538085938,
        0.1227114200592041,
        0.1502678394317627,
        0.18021059036254883,
        0.20354533195495605,
        0.23415493965148926,
        0.26101016998291016
    ],
    "4": [
        0.022617816925048828,
        0.05129122734069824,
        0.08036947250366211,
        0.10578632354736328,
        0.13377785682678223,
        0.16097617149353027,
        0.18529534339904785,
        0.20965123176574707,
        0.23576903343200684,
        0.2707054615020752
    ]
}