{
    "0": [
        0.022359371185302734,
        0.042336463928222656,
        0.06446623802185059,
        0.08817124366760254,
        0.10661530494689941,
        0.12475705146789551,
        0.14450407028198242,
        0.16245198249816895,
        0.18046784400939941,
        0.20009517669677734
    ],
    "1": [
        0.02022862434387207,
        0.038847923278808594,
        0.06091666221618652,
        0.07943105697631836,
        0.10008406639099121,
        0.11900162696838379,
        0.14311909675598145,
        0.16201567649841309,
        0.1824047565460205,
        0.2018744945526123
    ],
    "2": [
        0.018773317337036133,
        0.04061245918273926,
        0.06350302696228027,
        0.0834817886352539,
        0.10500264167785645,
        0.12659692764282227,
        0.14637398719787598,
        0.16927075386047363,
        0.18987154960632324,
        0.21283698081970215
    ],
    "3": [
        0.019955158233642578,
        0.040920257568359375,
        0.06463027000427246,
        0.08762884140014648,
        0.11097478866577148,
        0.13606023788452148,
        0.15840506553649902,
        0.18182158470153809,
        0.20626020431518555,
        0.22786831855773926
    ],
    "4": [
        0.02196025848388672,
        0.04181361198425293,
        0.06655645370483398,
        0.0884392261505127,
        0.11242437362670898,
        0.13705205917358398,
        0.1598374843597412,
        0.17986774444580078,
        0.20245838165283203,
        0.22585511207580566
    ]
}