{
    "0": [
        0.02706766128540039,
        0.05794930458068848,
        0.10069727897644043,
        0.13817834854125977,
        0.1740741729736328,
        0.20797109603881836,
        0.2380845546722412,
        0.28498363494873047,
        0.32024073600769043,
        0.3695716857910156
    ],
    "1": [
        0.028148174285888672,
        0.05608844757080078,
        0.08579015731811523,
        0.12187719345092773,
        0.15726184844970703,
        0.1961958408355713,
        0.2367253303527832,
        0.2748405933380127,
        0.3223123550415039,
        0.37410783767700195
    ],
    "2": [
        0.027109146118164062,
        0.05423617362976074,
        0.08939743041992188,
        0.12343001365661621,
        0.15949678421020508,
        0.20051240921020508,
        0.2454984188079834,
        0.2849314212799072,
        0.32441115379333496,
        0.36622142791748047
    ],
    "3": [
        0.029970884323120117,
        0.0592954158782959,
        0.09593725204467773,
        0.13689851760864258,
        0.1695859432220459,
        0.20696163177490234,
        0.2426314353942871,
        0.29175782203674316,
        0.32773303985595703,
        0.37134480476379395
    ],
    "4": [
        0.03284049034118652,
        0.05951285362243652,
        0.09251904487609863,
        0.13256192207336426,
        0.17870545387268066,
        0.21459722518920898,
        0.24840354919433594,
        0.28662991523742676,
        0.3295736312866211,
        0.36538171768188477
    ]
}