{
    "0": [
        0.0172421932220459,
        0.03400111198425293,
        0.04832863807678223,
        0.06335186958312988,
        0.08111262321472168,
        0.09653258323669434,
        0.11011648178100586,
        0.12487292289733887,
        0.1396629810333252,
        0.15586376190185547
    ],
    "1": [
        0.02098369598388672,
        0.03700566291809082,
        0.05443692207336426,
        0.0686495304107666,
        0.08524346351623535,
        0.0999915599822998,
        0.1185603141784668,
        0.1358201503753662,
        0.15093994140625,
        0.16944289207458496
    ],
    "2": [
        0.017711400985717773,
        0.030658721923828125,
        0.046861886978149414,
        0.06355786323547363,
        0.0797266960144043,
        0.09794020652770996,
        0.1164400577545166,
        0.13640451431274414,
        0.1535968780517578,
        0.17159533500671387
    ],
    "3": [
        0.01677536964416504,
        0.03476357460021973,
        0.04995846748352051,
        0.06433677673339844,
        0.0835878849029541,
        0.10198211669921875,
        0.11968302726745605,
        0.14109277725219727,
        0.16014456748962402,
        0.1823110580444336
    ],
    "4": [
        0.017498016357421875,
        0.03536653518676758,
        0.0496671199798584,
        0.06905841827392578,
        0.08532214164733887,
        0.10124731063842773,
        0.12063145637512207,
        0.1375563144683838,
        0.15967655181884766,
        0.17793631553649902
    ]
}