{
    "0": [
        0.015587568283081055,
        0.03012990951538086,
        0.04923415184020996,
        0.06757116317749023,
        0.08475470542907715,
        0.10125851631164551,
        0.12241625785827637,
        0.13989520072937012,
        0.15714406967163086,
        0.1753392219543457
    ],
    "1": [
        0.017424821853637695,
        0.03214216232299805,
        0.04928278923034668,
        0.06809043884277344,
        0.08546972274780273,
        0.1049201488494873,
        0.12198567390441895,
        0.1371779441833496,
        0.15700745582580566,
        0.17650341987609863
    ],
    "2": [
        0.01753973960876465,
        0.03521299362182617,
        0.051534414291381836,
        0.06885695457458496,
        0.08713459968566895,
        0.10388755798339844,
        0.12067914009094238,
        0.13812494277954102,
        0.15567469596862793,
        0.17237234115600586
    ],
    "3": [
        0.021390438079833984,
        0.040898799896240234,
        0.05732131004333496,
        0.07395577430725098,
        0.09426498413085938,
        0.11163067817687988,
        0.13190865516662598,
        0.15159034729003906,
        0.17009878158569336,
        0.18697643280029297
    ],
    "4": [
        0.01915287971496582,
        0.0384674072265625,
        0.054346323013305664,
        0.07122159004211426,
        0.09115433692932129,
        0.11158180236816406,
        0.13254737854003906,
        0.15185785293579102,
        0.23003244400024414,
        0.2500166893005371
    ]
}