{
    "0": [
        0.012966632843017578,
        0.02830791473388672,
        0.040090084075927734,
        0.05251646041870117,
        0.0664362907409668,
        0.07996344566345215,
        0.09305596351623535,
        0.10906815528869629,
        0.12381505966186523,
        0.1395280361175537
    ],
    "1": [
        0.013134241104125977,
        0.02736687660217285,
        0.039824724197387695,
        0.0547025203704834,
        0.06801986694335938,
        0.0810697078704834,
        0.09566879272460938,
        0.10877037048339844,
        0.12261390686035156,
        0.13557124137878418
    ],
    "2": [
        0.011798858642578125,
        0.027375459671020508,
        0.04121565818786621,
        0.05245566368103027,
        0.06610393524169922,
        0.08241605758666992,
        0.09650969505310059,
        0.11055588722229004,
        0.12494778633117676,
        0.13977646827697754
    ],
    "3": [
        0.013453245162963867,
        0.028110027313232422,
        0.03988194465637207,
        0.055869102478027344,
        0.07302975654602051,
        0.09071707725524902,
        0.10754084587097168,
        0.12272310256958008,
        0.1392836570739746,
        0.15505027770996094
    ],
    "4": [
        0.01572728157043457,
        0.03194999694824219,
        0.04769325256347656,
        0.06139659881591797,
        0.07926487922668457,
        0.0970311164855957,
        0.11285853385925293,
        0.12828898429870605,
        0.14528107643127441,
        0.1595308780670166
    ]
}