{
    "0": [
        0.022262096405029297,
        0.04440879821777344,
        0.06687211990356445,
        0.1010289192199707,
        0.12216043472290039,
        0.1408216953277588,
        0.1636061668395996,
        0.18555188179016113,
        0.21225881576538086,
        0.23342633247375488
    ],
    "1": [
        0.020711183547973633,
        0.0435328483581543,
        0.06299996376037598,
        0.08444643020629883,
        0.10724472999572754,
        0.1321408748626709,
        0.1571354866027832,
        0.17889952659606934,
        0.20108532905578613,
        0.22321581840515137
    ],
    "2": [
        0.020467758178710938,
        0.04290294647216797,
        0.06611967086791992,
        0.08910274505615234,
        0.11245512962341309,
        0.13368010520935059,
        0.16298246383666992,
        0.18776535987854004,
        0.21747517585754395,
        0.23882269859313965
    ],
    "3": [
        0.023954153060913086,
        0.04613447189331055,
        0.06978464126586914,
        0.09427666664123535,
        0.11764001846313477,
        0.13964509963989258,
        0.1642136573791504,
        0.18604159355163574,
        0.20846986770629883,
        0.2315230369567871
    ],
    "4": [
        0.026153087615966797,
        0.0473017692565918,
        0.06752896308898926,
        0.08907413482666016,
        0.11477947235107422,
        0.13667035102844238,
        0.16078758239746094,
        0.18386173248291016,
        0.20711469650268555,
        0.22801923751831055
    ]
}