{
    "0": [
        0.007802486419677734,
        0.015621662139892578,
        0.024239778518676758,
        0.030771970748901367,
        0.03800797462463379,
        0.0438847541809082,
        0.05180692672729492,
        0.058777809143066406,
        0.06510233879089355,
        0.07308626174926758
    ],
    "1": [
        0.00781559944152832,
        0.014521360397338867,
        0.02142643928527832,
        0.028228759765625,
        0.035243988037109375,
        0.0423121452331543,
        0.05030059814453125,
        0.05651521682739258,
        0.0631248950958252,
        0.0695807933807373
    ],
    "2": [
        0.006562471389770508,
        0.012488126754760742,
        0.019730567932128906,
        0.0257110595703125,
        0.03200030326843262,
        0.04007244110107422,
        0.04841780662536621,
        0.056871652603149414,
        0.0642709732055664,
        0.07164597511291504
    ],
    "3": [
        0.008861780166625977,
        0.01605391502380371,
        0.023552417755126953,
        0.029953479766845703,
        0.037033796310424805,
        0.04441666603088379,
        0.05170321464538574,
        0.05827975273132324,
        0.06544995307922363,
        0.07274937629699707
    ],
    "4": [
        0.008233308792114258,
        0.01674056053161621,
        0.02571702003479004,
        0.03308725357055664,
        0.03935074806213379,
        0.04567074775695801,
        0.05243229866027832,
        0.061185598373413086,
        0.06832194328308105,
        0.07487297058105469
    ]
}