{
    "0": [
        0.017805099487304688,
        0.03442573547363281,
        0.05081987380981445,
        0.07041788101196289,
        0.0885624885559082,
        0.1049044132232666,
        0.12260890007019043,
        0.13870906829833984,
        0.1551659107208252,
        0.17418837547302246
    ],
    "1": [
        0.017879724502563477,
        0.03551006317138672,
        0.05586361885070801,
        0.07359671592712402,
        0.09426689147949219,
        0.11298131942749023,
        0.1334085464477539,
        0.15355777740478516,
        0.17282629013061523,
        0.19171643257141113
    ],
    "2": [
        0.021181344985961914,
        0.040144920349121094,
        0.057735443115234375,
        0.07475566864013672,
        0.09177422523498535,
        0.11016130447387695,
        0.1313495635986328,
        0.1540071964263916,
        0.17587661743164062,
        0.19658899307250977
    ],
    "3": [
        0.018270254135131836,
        0.03699445724487305,
        0.05922055244445801,
        0.07897377014160156,
        0.09645223617553711,
        0.1175074577331543,
        0.1379389762878418,
        0.15706086158752441,
        0.17893052101135254,
        0.20162582397460938
    ],
    "4": [
        0.024891138076782227,
        0.04805278778076172,
        0.06875491142272949,
        0.09057879447937012,
        0.11445832252502441,
        0.13584446907043457,
        0.15674948692321777,
        0.17950844764709473,
        0.20383286476135254,
        0.22554826736450195
    ]
}