{
    "0": [
        0.020461559295654297,
        0.0434880256652832,
        0.06451582908630371,
        0.08628296852111816,
        0.11331844329833984,
        0.1405045986175537,
        0.17032575607299805,
        0.19506549835205078,
        0.22447824478149414,
        0.26118922233581543
    ],
    "1": [
        0.023189783096313477,
        0.04653286933898926,
        0.07075047492980957,
        0.0982217788696289,
        0.12635231018066406,
        0.1547386646270752,
        0.1811075210571289,
        0.22006511688232422,
        0.2560145854949951,
        0.2846200466156006
    ],
    "2": [
        0.02245497703552246,
        0.04297685623168945,
        0.06297159194946289,
        0.08490109443664551,
        0.11432957649230957,
        0.14122891426086426,
        0.1659233570098877,
        0.19437503814697266,
        0.2335798740386963,
        0.26320672035217285
    ],
    "3": [
        0.02299356460571289,
        0.047129154205322266,
        0.0724344253540039,
        0.0984182357788086,
        0.12405109405517578,
        0.14859294891357422,
        0.1792757511138916,
        0.2133934497833252,
        0.24536967277526855,
        0.2755265235900879
    ],
    "4": [
        0.022643566131591797,
        0.04592728614807129,
        0.06858110427856445,
        0.09110522270202637,
        0.11478471755981445,
        0.1405181884765625,
        0.17180752754211426,
        0.20441102981567383,
        0.2348337173461914,
        0.2756664752960205
    ]
}