{
    "0": [
        0.022271394729614258,
        0.0380406379699707,
        0.07891321182250977,
        0.12627387046813965,
        0.17087054252624512,
        0.22631454467773438,
        0.2803642749786377,
        0.33809828758239746,
        0.39900803565979004,
        0.4636499881744385
    ],
    "1": [
        0.01671767234802246,
        0.03709864616394043,
        0.07708597183227539,
        0.12047386169433594,
        0.16776394844055176,
        0.22206830978393555,
        0.27110958099365234,
        0.33114147186279297,
        0.3892698287963867,
        0.4565012454986572
    ],
    "2": [
        0.015400171279907227,
        0.029808521270751953,
        0.07126736640930176,
        0.12036919593811035,
        0.16847681999206543,
        0.21506547927856445,
        0.2635841369628906,
        0.3284151554107666,
        0.38817715644836426,
        0.4477388858795166
    ],
    "3": [
        0.017303466796875,
        0.03653836250305176,
        0.08802080154418945,
        0.13535237312316895,
        0.18109631538391113,
        0.2317202091217041,
        0.2896442413330078,
        0.3417026996612549,
        0.399993896484375,
        0.45244598388671875
    ],
    "4": [
        0.0212552547454834,
        0.038100242614746094,
        0.08179569244384766,
        0.12628960609436035,
        0.1707608699798584,
        0.2224283218383789,
        0.27150416374206543,
        0.3277883529663086,
        0.38224053382873535,
        0.45003509521484375
    ]
}