{
    "0": [
        0.015386819839477539,
        0.029704570770263672,
        0.04635953903198242,
        0.06162834167480469,
        0.07853889465332031,
        0.0944359302520752,
        0.11165189743041992,
        0.1271359920501709,
        0.14438819885253906,
        0.16128921508789062
    ],
    "1": [
        0.017587661743164062,
        0.03345942497253418,
        0.050716400146484375,
        0.06852579116821289,
        0.08708357810974121,
        0.10755085945129395,
        0.12623834609985352,
        0.14545011520385742,
        0.16517400741577148,
        0.18348217010498047
    ],
    "2": [
        0.019585609436035156,
        0.03626585006713867,
        0.05292797088623047,
        0.06855607032775879,
        0.09498405456542969,
        0.11422872543334961,
        0.13266563415527344,
        0.14951014518737793,
        0.16814851760864258,
        0.18360471725463867
    ],
    "3": [
        0.017721891403198242,
        0.03516721725463867,
        0.05175018310546875,
        0.06856489181518555,
        0.0857844352722168,
        0.10251855850219727,
        0.1206810474395752,
        0.14165425300598145,
        0.16167926788330078,
        0.18213653564453125
    ],
    "4": [
        0.015530824661254883,
        0.03286933898925781,
        0.050445556640625,
        0.06842732429504395,
        0.08386397361755371,
        0.10125041007995605,
        0.12151932716369629,
        0.141371488571167,
        0.15964889526367188,
        0.18138337135314941
    ]
}