{
    "0": [
        0.03242182731628418,
        0.06659078598022461,
        0.0960838794708252,
        0.12638163566589355,
        0.1579906940460205,
        0.1875772476196289,
        0.21216535568237305,
        0.2444918155670166,
        0.2738313674926758,
        0.29921889305114746
    ],
    "1": [
        0.025357723236083984,
        0.059485435485839844,
        0.08732962608337402,
        0.11407780647277832,
        0.14710307121276855,
        0.17687439918518066,
        0.2100980281829834,
        0.24297809600830078,
        0.271895170211792,
        0.30284667015075684
    ],
    "2": [
        0.031223297119140625,
        0.056029319763183594,
        0.08003497123718262,
        0.10745549201965332,
        0.1364133358001709,
        0.16404151916503906,
        0.19195938110351562,
        0.21750569343566895,
        0.2429637908935547,
        0.2762579917907715
    ],
    "3": [
        0.03803825378417969,
        0.06618046760559082,
        0.08976030349731445,
        0.1174771785736084,
        0.14616894721984863,
        0.1740875244140625,
        0.21246671676635742,
        0.24555373191833496,
        0.2722644805908203,
        0.30222177505493164
    ],
    "4": [
        0.029880285263061523,
        0.05870532989501953,
        0.0850992202758789,
        0.11209464073181152,
        0.13742852210998535,
        0.1629948616027832,
        0.1932077407836914,
        0.2212381362915039,
        0.24966835975646973,
        0.28318190574645996
    ]
}