{
    "0": [
        0.0258181095123291,
        0.04928708076477051,
        0.07545924186706543,
        0.10242676734924316,
        0.12860703468322754,
        0.15305352210998535,
        0.17845439910888672,
        0.20814728736877441,
        0.23969745635986328,
        0.2708611488342285
    ],
    "1": [
        0.02864241600036621,
        0.050740957260131836,
        0.08147120475769043,
        0.10647845268249512,
        0.13350939750671387,
        0.17129063606262207,
        0.20543289184570312,
        0.2374897003173828,
        0.2645406723022461,
        0.2935347557067871
    ],
    "2": [
        0.022319555282592773,
        0.04600024223327637,
        0.0763850212097168,
        0.10211682319641113,
        0.1282060146331787,
        0.1547532081604004,
        0.18971037864685059,
        0.2183370590209961,
        0.25194454193115234,
        0.283994197845459
    ],
    "3": [
        0.026152610778808594,
        0.049936532974243164,
        0.07957053184509277,
        0.11043429374694824,
        0.14152193069458008,
        0.17424488067626953,
        0.2020883560180664,
        0.22850942611694336,
        0.25733089447021484,
        0.28900694847106934
    ],
    "4": [
        0.02496647834777832,
        0.053394317626953125,
        0.07841038703918457,
        0.10789251327514648,
        0.13460803031921387,
        0.16250896453857422,
        0.1946120262145996,
        0.22159337997436523,
        0.25241804122924805,
        0.2909586429595947
    ]
}