{
    "0": [
        0.013059616088867188,
        0.025150537490844727,
        0.03841042518615723,
        0.049280405044555664,
        0.060678720474243164,
        0.07392001152038574,
        0.08518576622009277,
        0.09995317459106445,
        0.11731815338134766,
        0.1330721378326416
    ],
    "1": [
        0.013694524765014648,
        0.02548837661743164,
        0.03779268264770508,
        0.05059337615966797,
        0.06297421455383301,
        0.07438111305236816,
        0.09143447875976562,
        0.10918545722961426,
        0.126267671585083,
        0.14206767082214355
    ],
    "2": [
        0.014724493026733398,
        0.02611374855041504,
        0.03703904151916504,
        0.04806971549987793,
        0.05819559097290039,
        0.07157206535339355,
        0.08756041526794434,
        0.10432147979736328,
        0.12110710144042969,
        0.13662123680114746
    ],
    "3": [
        0.011073112487792969,
        0.02143073081970215,
        0.03394365310668945,
        0.048133134841918945,
        0.0638117790222168,
        0.07593297958374023,
        0.08817815780639648,
        0.1031031608581543,
        0.11610984802246094,
        0.13597965240478516
    ],
    "4": [
        0.014086484909057617,
        0.02660679817199707,
        0.0398252010345459,
        0.05252575874328613,
        0.06618881225585938,
        0.14809322357177734,
        0.16548991203308105,
        0.1800856590270996,
        0.1980597972869873,
        0.21681690216064453
    ]
}