{
    "0": [
        0.01912665367126465,
        0.037375450134277344,
        0.05785536766052246,
        0.07225871086120605,
        0.09373760223388672,
        0.11287426948547363,
        0.13507723808288574,
        0.15775585174560547,
        0.1769416332244873,
        0.19691157341003418
    ],
    "1": [
        0.014905214309692383,
        0.033614158630371094,
        0.05171513557434082,
        0.07065725326538086,
        0.08916568756103516,
        0.10537457466125488,
        0.12276530265808105,
        0.14262676239013672,
        0.1639881134033203,
        0.1923232078552246
    ],
    "2": [
        0.014867067337036133,
        0.029895782470703125,
        0.04864645004272461,
        0.06747984886169434,
        0.0860757827758789,
        0.10670185089111328,
        0.12576580047607422,
        0.14717435836791992,
        0.16824603080749512,
        0.1942288875579834
    ],
    "3": [
        0.016737699508666992,
        0.03339576721191406,
        0.05217409133911133,
        0.07046222686767578,
        0.09109616279602051,
        0.11510396003723145,
        0.13636565208435059,
        0.1614394187927246,
        0.1864793300628662,
        0.21619725227355957
    ],
    "4": [
        0.020998001098632812,
        0.03783726692199707,
        0.05600786209106445,
        0.08006715774536133,
        0.10254883766174316,
        0.12236809730529785,
        0.14171648025512695,
        0.1633291244506836,
        0.18296313285827637,
        0.2050917148590088
    ]
}