{
    "0": [
        0.02790093421936035,
        0.05266141891479492,
        0.07639479637145996,
        0.09960746765136719,
        0.13127875328063965,
        0.15699458122253418,
        0.1859891414642334,
        0.22136878967285156,
        0.2489490509033203,
        0.28539514541625977
    ],
    "1": [
        0.02637338638305664,
        0.05031323432922363,
        0.0811147689819336,
        0.10628008842468262,
        0.13219690322875977,
        0.16123723983764648,
        0.19067692756652832,
        0.2256031036376953,
        0.25368642807006836,
        0.29435110092163086
    ],
    "2": [
        0.021101713180541992,
        0.04309248924255371,
        0.06619477272033691,
        0.09302353858947754,
        0.11942386627197266,
        0.1510939598083496,
        0.18073606491088867,
        0.21203875541687012,
        0.24207663536071777,
        0.27759385108947754
    ],
    "3": [
        0.0221407413482666,
        0.0443882942199707,
        0.07131314277648926,
        0.09771370887756348,
        0.1254112720489502,
        0.15407848358154297,
        0.18743610382080078,
        0.22565698623657227,
        0.25951290130615234,
        0.2990758419036865
    ],
    "4": [
        0.025435447692871094,
        0.05115914344787598,
        0.08299708366394043,
        0.10996699333190918,
        0.134171724319458,
        0.1594855785369873,
        0.19362998008728027,
        0.22318744659423828,
        0.30568528175354004,
        0.3371891975402832
    ]
}