{
    "0": [
        0.01621842384338379,
        0.03154420852661133,
        0.04766368865966797,
        0.06653046607971191,
        0.0834815502166748,
        0.10382270812988281,
        0.12264347076416016,
        0.14045214653015137,
        0.16458630561828613,
        0.18575286865234375
    ],
    "1": [
        0.01665663719177246,
        0.03622746467590332,
        0.05209970474243164,
        0.06669306755065918,
        0.08381009101867676,
        0.10549163818359375,
        0.12485408782958984,
        0.14987564086914062,
        0.17762398719787598,
        0.2028512954711914
    ],
    "2": [
        0.07247161865234375,
        0.08816814422607422,
        0.10716009140014648,
        0.12636995315551758,
        0.14420270919799805,
        0.16701579093933105,
        0.1883690357208252,
        0.20775866508483887,
        0.23244452476501465,
        0.2581629753112793
    ],
    "3": [
        0.017692089080810547,
        0.0343782901763916,
        0.05318474769592285,
        0.07139444351196289,
        0.08921551704406738,
        0.10932183265686035,
        0.13246369361877441,
        0.15080499649047852,
        0.1726512908935547,
        0.19657444953918457
    ],
    "4": [
        0.015835285186767578,
        0.03329801559448242,
        0.04971957206726074,
        0.06931066513061523,
        0.08876419067382812,
        0.11226248741149902,
        0.1398029327392578,
        0.16288137435913086,
        0.18658161163330078,
        0.21633577346801758
    ]
}