{
    "0": [
        0.009259223937988281,
        0.01856851577758789,
        0.029254913330078125,
        0.04244422912597656,
        0.054795026779174805,
        0.06676125526428223,
        0.12297892570495605,
        0.13704538345336914,
        0.15070748329162598,
        0.16859865188598633
    ],
    "1": [
        0.012253522872924805,
        0.02556467056274414,
        0.0379481315612793,
        0.05013895034790039,
        0.06615996360778809,
        0.0781400203704834,
        0.09074735641479492,
        0.10482907295227051,
        0.12049436569213867,
        0.14044523239135742
    ],
    "2": [
        0.012485265731811523,
        0.026041746139526367,
        0.03908896446228027,
        0.05349588394165039,
        0.06801462173461914,
        0.08388352394104004,
        0.09754180908203125,
        0.11197543144226074,
        0.12995290756225586,
        0.14760541915893555
    ],
    "3": [
        0.011512994766235352,
        0.022570133209228516,
        0.03617358207702637,
        0.05013012886047363,
        0.062406063079833984,
        0.07532715797424316,
        0.0894935131072998,
        0.10918903350830078,
        0.1307821273803711,
        0.15152192115783691
    ],
    "4": [
        0.015567302703857422,
        0.02836918830871582,
        0.04443621635437012,
        0.059693098068237305,
        0.07609057426452637,
        0.09236788749694824,
        0.11161041259765625,
        0.12964797019958496,
        0.1482541561126709,
        0.16549992561340332
    ]
}