c [run-simplifier-and-extend-solution.sh] input '../test/cnf/prime361.cnf'
c [run-simplifier-and-extend-solution.sh] found '../build/../scripts/../build/cadical'
c [run-simplifier-and-extend-solution.sh] ../build/../scripts/../build/cadical -n -O1 -c 0 -o /tmp/run-simplifier-and-extend-solution-100196.out -e /tmp/run-simplifier-and-extend-solution-100196.ext ../test/cnf/prime361.cnf > /tmp/run-simplifier-and-extend-solution-100196.log
c [run-simplifier-and-extend-solution.sh] simplifier exit code '0'
c [run-simplifier-and-extend-solution.sh] sed -e 's,^[vs],c,' -e 's,^c,c [simplifier],' /tmp/run-simplifier-and-extend-solution-100196.log
c [simplifier] --- [ banner ] -------------------------------------------------------------
c [simplifier] 
c [simplifier] CaDiCaL Radically Simplified CDCL SAT Solver
c [simplifier] Copyright (c) 2016-2019 Armin Biere, JKU Linz
c [simplifier] 
c [simplifier] Version 1.2.1 f44d5014010d82b1f63693a3df82e42fea558a53
c [simplifier] g++ (Ubuntu 9.3.0-17ubuntu1~20.04) 9.3.0 -Wall -Wextra -O3 -DNDEBUG
c [simplifier] Mon Jul 12 11:33:50 CEST 2021 Linux LNE-GWW60F3 5.8.0-59-generic x86_64
c [simplifier] 
c [simplifier] --- [ limit ] --------------------------------------------------------------
c [simplifier] 
c [simplifier] setting conflict limit to 0 conflicts
c [simplifier] 
c [simplifier] --- [ parsing input ] ------------------------------------------------------
c [simplifier] 
c [simplifier] reading DIMACS file from '../test/cnf/prime361.cnf'
c [simplifier] opening file to read '../test/cnf/prime361.cnf'
c [simplifier] found 'p cnf 615 1798' header
c [simplifier] parsed 1798 clauses in 0.00 seconds process time
c [simplifier] closing file '../test/cnf/prime361.cnf'
c [simplifier] after reading 21959 bytes 0.0 MB
c [simplifier] 
c [simplifier] --- [ options ] ------------------------------------------------------------
c [simplifier] 
c [simplifier] optimization mode '-O1' increased 44 limits
c [simplifier] 
c [simplifier]   --blockmaxclslim=1000000       (different from default '1e5')
c [simplifier]   --blockocclim=1000             (different from default '1e2')
c [simplifier]   --conditionmaxeff=20000000     (different from default '1e7')
c [simplifier]   --conditionmaxratio=200        (different from default '100')
c [simplifier]   --conditionmineff=2000000      (different from default '1e6')
c [simplifier]   --covermaxclslim=1000000       (different from default '1e5')
c [simplifier]   --covermaxeff=200000000        (different from default '1e8')
c [simplifier]   --covermineff=2000000          (different from default '1e6')
c [simplifier]   --coverreleff=8                (different from default '4')
c [simplifier]   --decomposerounds=4            (different from default '2')
c [simplifier]   --elimboundmax=32              (different from default '16')
c [simplifier]   --elimclslim=1000              (different from default '1e2')
c [simplifier]   --elimineff=20000000           (different from default '1e7')
c [simplifier]   --elimocclim=10000             (different from default '1e3')
c [simplifier]   --elimreleff=2000              (different from default '1e3')
c [simplifier]   --elimrounds=4                 (different from default '2')
c [simplifier]   --elimxorlim=10                (different from default '5')
c [simplifier]   --instantiateocclim=10         (different from default '1')
c [simplifier]   --probemaxeff=200000000        (different from default '1e8')
c [simplifier]   --probemineff=2000000          (different from default '1e6')
c [simplifier]   --probereleff=40               (different from default '20')
c [simplifier]   --proberounds=2                (different from default '1')
c [simplifier]   --subsumebinlim=20000          (different from default '1e4')
c [simplifier]   --subsumeclslim=10000          (different from default '1e3')
c [simplifier]   --subsumemaxeff=200000000      (different from default '1e8')
c [simplifier]   --subsumemineff=2000000        (different from default '1e6')
c [simplifier]   --subsumeocclim=200            (different from default '1e2')
c [simplifier]   --subsumereleff=2000           (different from default '1e3')
c [simplifier]   --ternarymaxadd=2000           (different from default '1e3')
c [simplifier]   --ternarymaxeff=200000000      (different from default '1e8')
c [simplifier]   --ternarymineff=2000000        (different from default '1e6')
c [simplifier]   --ternaryocclim=1000           (different from default '1e2')
c [simplifier]   --ternaryreleff=20             (different from default '10')
c [simplifier]   --ternaryrounds=4              (different from default '2')
c [simplifier]   --transredmaxeff=200000000     (different from default '1e8')
c [simplifier]   --transredmineff=2000000       (different from default '1e6')
c [simplifier]   --transredreleff=200           (different from default '1e2')
c [simplifier]   --vivifymaxeff=200000000       (different from default '1e8')
c [simplifier]   --vivifymineff=200000          (different from default '1e5')
c [simplifier]   --vivifyredeff=600             (different from default '300')
c [simplifier]   --vivifyreleff=160             (different from default '80')
c [simplifier]   --walkmaxeff=20000000          (different from default '1e7')
c [simplifier]   --walkmineff=200000            (different from default '1e5')
c [simplifier]   --walkreleff=40                (different from default '20')
c [simplifier] 
c [simplifier] --- [ solving ] ------------------------------------------------------------
c [simplifier] 
c [simplifier] time measured in process time since initialization
c [simplifier] 
c [simplifier]  seconds  reductions  redundant irredundant
c [simplifier]         MB    restarts       trail    variables
c [simplifier]          level   conflicts       glue     remaining
c [simplifier] 
c [simplifier] *  0.00  3  0 0   0    0    0  0% 0 1797 560 91%
c [simplifier] ?  0.00  3  0 0   0    0    0  0% 0 1797 560 91%
c [simplifier] 
c [simplifier] --- [ writing output ] -----------------------------------------------------
c [simplifier] 
c [simplifier] writing simplified CNF to DIMACS file '/tmp/run-simplifier-and-extend-solution-100196.out'
c [simplifier] opening file to write '/tmp/run-simplifier-and-extend-solution-100196.out'
c [simplifier] writing 'p cnf 615 1637' header
c [simplifier] closing file '/tmp/run-simplifier-and-extend-solution-100196.out'
c [simplifier] after writing 19797 bytes 0.0 MB
c [simplifier] wrote 1637 clauses in 0.00 seconds process time
c [simplifier] 
c [simplifier] --- [ writing extension ] --------------------------------------------------
c [simplifier] 
c [simplifier] writing extension stack to '/tmp/run-simplifier-and-extend-solution-100196.ext'
c [simplifier] opening file to write '/tmp/run-simplifier-and-extend-solution-100196.ext'
c [simplifier] closing file '/tmp/run-simplifier-and-extend-solution-100196.ext'
c [simplifier] after writing 688 bytes 0.0 MB
c [simplifier] wrote 55 witnesses in 0.00 seconds process time
c [simplifier] 
c [simplifier] --- [ result ] -------------------------------------------------------------
c [simplifier] 
c [simplifier] UNKNOWN
c [simplifier] 
c [simplifier] --- [ run-time profiling ] -------------------------------------------------
c [simplifier] 
c [simplifier] process time taken by individual solving procedures
c [simplifier] (percentage relative to process time for solving)
c [simplifier] 
c [simplifier]         0.00   63.33% lucky
c [simplifier]         0.00   63.33% search
c [simplifier]         0.00    0.00% simplify
c [simplifier]   =================================
c [simplifier]         0.00   15.44% solve
c [simplifier] 
c [simplifier] last line shows process time for solving
c [simplifier] (percentage relative to total process time)
c [simplifier] 
c [simplifier] --- [ statistics ] ---------------------------------------------------------
c [simplifier] 
c [simplifier] fixed:                        55         8.94 %  of all variables
c [simplifier] minimized:                     0         0.00 %  minimized
c [simplifier] all_uip minimized:                     0         0.00 %  minimized by all-uip
c [simplifier] all_uip attempt rate:          0.00 % 
c [simplifier] all_uip success rate:          0.00 % 
c [simplifier] propagations:                 55         0.46 M  per second
c [simplifier] 
c [simplifier] seconds are measured in process time for solving
c [simplifier] 
c [simplifier] --- [ resources ] ----------------------------------------------------------
c [simplifier] 
c [simplifier] total process time since initialization:         0.00    seconds
c [simplifier] total real time since initialization:            0.00    seconds
c [simplifier] maximum resident set size of process:            3.44    MB
c [simplifier] 
c [simplifier] --- [ shutting down ] ------------------------------------------------------
c [simplifier] 
c [simplifier] exit 0
c [run-simplifier-and-extend-solution.sh] ../build/../scripts/../build/cadical /tmp/run-simplifier-and-extend-solution-100196.out > /tmp/run-simplifier-and-extend-solution-100196.log
c [run-simplifier-and-extend-solution.sh] solver exit code '10'
c [run-simplifier-and-extend-solution.sh] sed -e 's,^[vs],c,' -e 's,^c,c [solver],' /tmp/run-simplifier-and-extend-solution-100196.log
c [solver] --- [ banner ] -------------------------------------------------------------
c [solver] 
c [solver] CaDiCaL Radically Simplified CDCL SAT Solver
c [solver] Copyright (c) 2016-2019 Armin Biere, JKU Linz
c [solver] 
c [solver] Version 1.2.1 f44d5014010d82b1f63693a3df82e42fea558a53
c [solver] g++ (Ubuntu 9.3.0-17ubuntu1~20.04) 9.3.0 -Wall -Wextra -O3 -DNDEBUG
c [solver] Mon Jul 12 11:33:50 CEST 2021 Linux LNE-GWW60F3 5.8.0-59-generic x86_64
c [solver] 
c [solver] --- [ parsing input ] ------------------------------------------------------
c [solver] 
c [solver] reading DIMACS file from '/tmp/run-simplifier-and-extend-solution-100196.out'
c [solver] opening file to read '/tmp/run-simplifier-and-extend-solution-100196.out'
c [solver] found 'p cnf 615 1637' header
c [solver] parsed 1637 clauses in 0.00 seconds process time
c [solver] closing file '/tmp/run-simplifier-and-extend-solution-100196.out'
c [solver] after reading 19797 bytes 0.0 MB
c [solver] 
c [solver] --- [ options ] ------------------------------------------------------------
c [solver] 
c [solver] all options are set to their default value
c [solver] 
c [solver] --- [ solving ] ------------------------------------------------------------
c [solver] 
c [solver] time measured in process time since initialization
c [solver] 
c [solver]  seconds  reductions  redundant irredundant
c [solver]         MB    restarts       trail    variables
c [solver]          level   conflicts       glue     remaining
c [solver] 
c [solver] *  0.00  4  0 0   0    0    0  0% 0 1637 560 91%
c [solver] {  0.00  4  0 0   0    0    0  0% 0 1637 560 91%
c [solver] }  0.00  4 52 0   0   36   33 87% 4 1637 560 91%
c [solver] 1  0.00  4 52 0   0   36   33 87% 4 1637 560 91%
c [solver] 
c [solver] --- [ result ] -------------------------------------------------------------
c [solver] 
c [solver] SATISFIABLE
c [solver] 1 2 -3 -4 5 -6 -7 -8 9 10 -11 -12 13 -14 -15 -16 17 18 -19 -20 -21 22 23 24
c [solver] 25 -26 -27 -28 29 30 31 32 33 34 35 -36 37 -38 -39 40 -41 -42 43 -44 45 -46
c [solver] -47 48 49 -50 -51 -52 -53 54 -55 -56 -57 58 -59 -60 -61 62 -63 -64 -65 66
c [solver] -67 -68 69 70 71 72 73 74 -75 76 -77 -78 79 -80 -81 82 -83 -84 85 -86 -87
c [solver] -88 -89 90 -91 -92 93 -94 -95 96 -97 -98 99 100 -101 -102 103 104 -105 106
c [solver] -107 -108 109 -110 -111 -112 113 114 -115 -116 -117 -118 119 -120 -121 -122
c [solver] -123 124 -125 -126 127 -128 -129 130 -131 -132 133 -134 135 -136 -137 138
c [solver] -139 -140 141 142 -143 -144 145 -146 -147 148 149 150 151 -152 -153 -154
c [solver] -155 -156 -157 158 -159 -160 161 -162 163 -164 -165 -166 -167 -168 169 -170
c [solver] -171 172 -173 174 -175 -176 -177 -178 -179 180 -181 -182 183 -184 185 -186
c [solver] -187 -188 189 190 -191 -192 193 -194 -195 -196 197 -198 -199 200 201 -202
c [solver] -203 204 205 206 207 -208 -209 -210 211 -212 -213 214 -215 -216 217 -218 219
c [solver] -220 -221 222 -223 -224 225 -226 -227 228 -229 230 -231 -232 233 -234 -235
c [solver] 236 -237 -238 239 -240 241 -242 -243 244 -245 -246 247 -248 -249 250 -251
c [solver] 252 -253 -254 -255 256 -257 258 -259 -260 261 -262 263 -264 -265 -266 267
c [solver] 268 -269 270 -271 -272 273 274 -275 276 -277 -278 279 -280 281 -282 -283 284
c [solver] -285 -286 287 -288 -289 290 -291 292 -293 -294 295 -296 -297 298 -299 -300
c [solver] 301 -302 303 -304 305 306 -307 -308 309 310 -311 -312 -313 -314 315 -316 317
c [solver] -318 -319 320 -321 -322 323 -324 -325 326 -327 328 329 -330 331 -332 -333
c [solver] 334 -335 -336 337 -338 -339 -340 341 342 343 344 -345 346 -347 -348 349 -350
c [solver] -351 352 -353 354 -355 -356 357 -358 -359 360 -361 -362 363 -364 365 -366
c [solver] -367 -368 -369 -370 371 -372 -373 374 -375 376 -377 -378 -379 -380 -381 382
c [solver] -383 -384 385 -386 387 -388 -389 -390 -391 -392 393 -394 -395 396 -397 398
c [solver] -399 -400 -401 -402 -403 404 -405 -406 407 -408 409 410 411 -412 -413 414
c [solver] -415 416 -417 -418 419 -420 -421 422 -423 424 -425 -426 427 -428 -429 430
c [solver] -431 -432 433 -434 435 -436 -437 438 -439 -440 441 -442 -443 444 -445 446
c [solver] -447 -448 449 -450 -451 452 -453 -454 455 -456 457 -458 -459 460 -461 -462
c [solver] 463 -464 -465 466 -467 468 469 470 -471 -472 473 -474 475 -476 -477 478 -479
c [solver] -480 481 -482 483 -484 -485 486 -487 -488 489 -490 -491 492 -493 494 -495
c [solver] -496 497 -498 -499 500 -501 -502 503 -504 505 -506 -507 508 -509 -510 511
c [solver] -512 -513 514 -515 516 517 518 -519 -520 521 -522 523 -524 -525 526 -527
c [solver] -528 529 -530 531 -532 -533 534 -535 -536 537 -538 -539 540 -541 542 -543
c [solver] -544 545 -546 -547 548 -549 -550 551 -552 553 554 555 -556 -557 558 -559 560
c [solver] -561 -562 563 -564 -565 566 -567 568 -569 -570 571 -572 -573 574 -575 -576
c [solver] 577 -578 579 580 581 -582 -583 584 -585 586 -587 -588 589 590 591 592 593
c [solver] -594 -595 596 -597 598 599 600 601 602 603 604 605 606 607 608 609 610 611
c [solver] 612 613 614 615 0
c [solver] 
c [solver] --- [ run-time profiling ] -------------------------------------------------
c [solver] 
c [solver] process time taken by individual solving procedures
c [solver] (percentage relative to process time for solving)
c [solver] 
c [solver]         0.00   94.62% search
c [solver]         0.00   82.69% unstable
c [solver]         0.00   16.97% stable_allUip
c [solver]         0.00    9.92% lucky
c [solver]         0.00    0.00% simplify
c [solver]   =================================
c [solver]         0.00   57.94% solve
c [solver] 
c [solver] last line shows process time for solving
c [solver] (percentage relative to total process time)
c [solver] 
c [solver] --- [ statistics ] ---------------------------------------------------------
c [solver] 
c [solver] chronological:                 7        19.44 %  of conflicts
c [solver] conflicts:                    36     60504.20    per second
c [solver] decisions:                   119    200000.00    per second
c [solver] learnt clauses:                      36       100.00 %  per conflict
c [solver] learnt literals:                   268
c [solver] minimized:                    65        17.66 %  minimized
c [solver] all_uip minimized:                    35        27.17 %  minimized by all-uip
c [solver] all_uip attempt rate:          0.00 % 
c [solver] all_uip success rate:          0.00 % 
c [solver] propagations:               4471         7.51 M  per second
c [solver] subsumed:                      3         0.09 %  of all clauses
c [solver] 
c [solver] seconds are measured in process time for solving
c [solver] 
c [solver] --- [ resources ] ----------------------------------------------------------
c [solver] 
c [solver] total process time since initialization:         0.00    seconds
c [solver] total real time since initialization:            0.00    seconds
c [solver] maximum resident set size of process:            3.50    MB
c [solver] 
c [solver] --- [ shutting down ] ------------------------------------------------------
c [solver] 
c [solver] exit 10
c [run-simplifier-and-extend-solution.sh] ../build/../scripts/extend-solution.sh /tmp/run-simplifier-and-extend-solution-100196.log /tmp/run-simplifier-and-extend-solution-100196.ext
s SATISFIABLE
v -588
v -513
v -445
v 430
v 306
v -243
v -171
v 148
v -94
v 76
v 613
v -547
v -495
v -459
v -402
v 374
v -338
v 217
v -187
v -121
v 48
v -469
v 344
v -520
v -487
v -425
v -388
v 292
v 270
v -102
v -81
v 34
v -3
v 574
v -501
v -453
v -408
v -390
v -332
v -251
v -224
v -42
v -29
v -535
v 360
v -359
v -265
v -162
v 10
v -71
v 558
v 514
v -442
v -437
v 301
v 244
v -208
v -198
v -176
v 93
v 560
v 414
v 357
v -322
v -285
v 230
v -115
v -52
v -27
v 596
v -462
v -383
v -314
v -299
v -156
v 109
v -64
v -8
v 610
v -544
v 508
v -496
v -401
v -399
v -377
v 258
v 214
v -184
v -122
v 31
v 598
v -525
v -482
v -420
v 341
v -297
v -275
v 158
v -107
v -84
v -6
v 605
v -133
v 586
v 551
v -472
v -308
v 201
v -191
v -146
v -78
v -329
v -530
v 365
v -260
v -167
v -59
v -15
v -517
v 72
v 478
v 441
v -434
v -302
v 247
v -175
v -139
v 90
v -543
v -491
v -406
v -370
v -213
v 183
v -125
v -591
v 151
v -465
v -429
v -384
v -348
v -313
v -63
v -38
v -570
v -549
v 505
v 457
v -394
v -336
v -255
v -220
v 219
v 189
v -46
v -342
v 32
v 526
v 481
v -423
v -319
v -294
v 276
v 104
v -87
v 69
v 5
v 600
v -554
v -583
v 518
v -477
v -248
v 204
v -194
v -143
v -136
v -410
v -23
v -564
v -353
v 326
v 281
v -234
v -168
v -111
v -56
v -149
v 589
v -512
v 444
v -431
v -307
v -242
v -170
v -95
v -77
v 614
v 579
v 540
v 492
v -405
v -373
v -229
v -210
v 180
v -126
v 521
v 486
v 468
v 424
v -389
v -345
v -293
v -271
v 103
v -80
v 35
v 2
v 577
v -502
v -450
v 393
v 331
v 252
v -227
v -128
v -41
v 534
v -361
v -358
v -264
v 163
v -28
v -11
v 603
v -580
v 207
v -557
v -474
v 438
v 197
v -179
v -140
v 135
v -561
v -415
v -356
v 323
v 284
v -231
v 114
v -53
v -26
v -595
v -528
v -461
v -380
v 317
v -278
v -155
v -89
v -67
v 611
v 545
v -509
v 497
v -400
v 398
v 376
v -259
v -215
v 185
v -123
v 1
v -522
v -485
v 427
v 346
v 290
v -272
v 100
v -83
v -36
v 604
v -200
v -587
v -550
v 473
v 309
v 190
v -147
v -132
v 79
v 568
v -533
v -366
v 263
v -238
v -164
v -16
v 516
v -479
v -440
v 435
v 303
v -246
v 174
v 138
v -91
v 73
v -562
v -539
v 416
v -355
v 320
v 287
v -269
v -232
v -117
v -50
v 25
v -150
v 590
v -464
v -428
v 385
v 349
v -312
v 62
v -39
v -256
v -573
v -506
v -498
v -454
v -397
v -379
v -335
v -223
v 45
v -343
v -527
v -480
v 422
v -318
v 295
v -277
v -105
v -86
v -68
v 33
v -4
v 607
v 584
v 553
v 470
v 449
v -203
v 193
v -144
v -131
v -98
v -22
v -565
v 411
v 352
v -327
v -280
v -235
v 169
v -110
v -57
v 609
v 511
v -447
v -432
v -304
v 241
v -173
v 96
v 74
v 615
v -578
v -541
v -493
v 404
v -372
v 228
v 211
v -181
v 127
v 593
v 489
v -467
v -386
v -311
v -153
v -61
v -576
v 503
v -451
v -392
v -330
v -253
v -226
v -129
v 40
v -267
v 537
v -418
v -362
v -289
v -160
v 119
v -12
v 602
v -206
v 581
v -556
v 475
v -439
v -196
v -178
v 141
v -134
v 566
v -412
v -368
v -351
v -324
v -283
v 236
v 113
v 54
v -21
v 18
v -594
v 529
v 460
v -381
v -316
v 279
v -154
v -88
v 66
v 612
v -49
v -546
v 494
v -458
v -403
v -375
v -339
v -216
v -186
v -120
v -37
v 523
v -484
v -426
v -347
v -291
v 273
v -101
v 82
v -575
v 500
v 452
v 409
v -391
v -333
v 250
v 225
v 43
v -569
v -532
v -367
v -262
v 239
v -165
v 17
v -70
v -559
v -515
v -443
v -436
v -300
v -245
v -209
v -199
v -177
v -92
v 563
v -538
v -417
v 354
v -321
v -286
v 268
v 233
v -116
v -51
v 24
v 9
v -597
v 463
v 382
v 315
v 298
v -157
v -108
v -65
v -572
v -507
v -499
v 455
v 396
v -378
v 334
v -257
v 222
v -44
v -599
v -274
v -106
v -30
v -524
v 483
v -421
v -340
v -296
v -159
v 85
v -7
v 606
v -99
v -585
v -552
v -471
v -448
v -202
v -192
v 145
v 130
v 531
v -364
v 328
v 261
v -166
v 58
v -14
v 608
v -510
v 446
v 433
v 305
v -240
v 172
v -97
v -75
v 542
v -490
v 407
v 371
v -212
v -182
v 124
v -592
v -488
v 466
v 387
v 310
v -152
v -60
v 571
v 548
v -504
v -456
v -395
v 337
v -254
v -221
v -218
v -188
v -47
v -536
v 419
v 363
v -288
v -266
v 161
v -118
v 13
v 601
v -205
v -582
v 555
v -519
v -476
v -249
v -195
v 142
v -137
v -567
v -413
v -369
v -350
v -325
v -282
v -237
v -112
v -55
v -20
v -19
v 0
c [run-simplifier-and-extend-solution.sh] extender exit code 10
c [run-simplifier-and-extend-solution.sh] rm -f /tmp/run-simplifier-and-extend-solution-100196*
c [run-simplifier-and-extend-solution.sh] exit 10
