c [run-simplifier-and-extend-solution.sh] input '../test/cnf/unit2.cnf'
c [run-simplifier-and-extend-solution.sh] found '../build/../scripts/../build/cadical'
c [run-simplifier-and-extend-solution.sh] ../build/../scripts/../build/cadical -n -O1 -c 0 -o /tmp/run-simplifier-and-extend-solution-99576.out -e /tmp/run-simplifier-and-extend-solution-99576.ext ../test/cnf/unit2.cnf > /tmp/run-simplifier-and-extend-solution-99576.log
c [run-simplifier-and-extend-solution.sh] simplifier exit code '10'
c [run-simplifier-and-extend-solution.sh] sed -e 's,^[vs],c,' -e 's,^c,c [simplifier],' /tmp/run-simplifier-and-extend-solution-99576.log
c [simplifier] --- [ banner ] -------------------------------------------------------------
c [simplifier] 
c [simplifier] CaDiCaL Radically Simplified CDCL SAT Solver
c [simplifier] Copyright (c) 2016-2019 Armin Biere, JKU Linz
c [simplifier] 
c [simplifier] Version 1.2.1 f44d5014010d82b1f63693a3df82e42fea558a53
c [simplifier] g++ (Ubuntu 9.3.0-17ubuntu1~20.04) 9.3.0 -Wall -Wextra -O3 -DNDEBUG
c [simplifier] Mon Jul 12 11:33:50 CEST 2021 Linux LNE-GWW60F3 5.8.0-59-generic x86_64
c [simplifier] 
c [simplifier] --- [ limit ] --------------------------------------------------------------
c [simplifier] 
c [simplifier] setting conflict limit to 0 conflicts
c [simplifier] 
c [simplifier] --- [ parsing input ] ------------------------------------------------------
c [simplifier] 
c [simplifier] reading DIMACS file from '../test/cnf/unit2.cnf'
c [simplifier] opening file to read '../test/cnf/unit2.cnf'
c [simplifier] found 'p cnf 2 2' header
c [simplifier] parsed 2 clauses in 0.00 seconds process time
c [simplifier] closing file '../test/cnf/unit2.cnf'
c [simplifier] after reading 21 bytes 0.0 MB
c [simplifier] 
c [simplifier] --- [ options ] ------------------------------------------------------------
c [simplifier] 
c [simplifier] optimization mode '-O1' increased 44 limits
c [simplifier] 
c [simplifier]   --blockmaxclslim=1000000       (different from default '1e5')
c [simplifier]   --blockocclim=1000             (different from default '1e2')
c [simplifier]   --conditionmaxeff=20000000     (different from default '1e7')
c [simplifier]   --conditionmaxratio=200        (different from default '100')
c [simplifier]   --conditionmineff=2000000      (different from default '1e6')
c [simplifier]   --covermaxclslim=1000000       (different from default '1e5')
c [simplifier]   --covermaxeff=200000000        (different from default '1e8')
c [simplifier]   --covermineff=2000000          (different from default '1e6')
c [simplifier]   --coverreleff=8                (different from default '4')
c [simplifier]   --decomposerounds=4            (different from default '2')
c [simplifier]   --elimboundmax=32              (different from default '16')
c [simplifier]   --elimclslim=1000              (different from default '1e2')
c [simplifier]   --elimineff=20000000           (different from default '1e7')
c [simplifier]   --elimocclim=10000             (different from default '1e3')
c [simplifier]   --elimreleff=2000              (different from default '1e3')
c [simplifier]   --elimrounds=4                 (different from default '2')
c [simplifier]   --elimxorlim=10                (different from default '5')
c [simplifier]   --instantiateocclim=10         (different from default '1')
c [simplifier]   --probemaxeff=200000000        (different from default '1e8')
c [simplifier]   --probemineff=2000000          (different from default '1e6')
c [simplifier]   --probereleff=40               (different from default '20')
c [simplifier]   --proberounds=2                (different from default '1')
c [simplifier]   --subsumebinlim=20000          (different from default '1e4')
c [simplifier]   --subsumeclslim=10000          (different from default '1e3')
c [simplifier]   --subsumemaxeff=200000000      (different from default '1e8')
c [simplifier]   --subsumemineff=2000000        (different from default '1e6')
c [simplifier]   --subsumeocclim=200            (different from default '1e2')
c [simplifier]   --subsumereleff=2000           (different from default '1e3')
c [simplifier]   --ternarymaxadd=2000           (different from default '1e3')
c [simplifier]   --ternarymaxeff=200000000      (different from default '1e8')
c [simplifier]   --ternarymineff=2000000        (different from default '1e6')
c [simplifier]   --ternaryocclim=1000           (different from default '1e2')
c [simplifier]   --ternaryreleff=20             (different from default '10')
c [simplifier]   --ternaryrounds=4              (different from default '2')
c [simplifier]   --transredmaxeff=200000000     (different from default '1e8')
c [simplifier]   --transredmineff=2000000       (different from default '1e6')
c [simplifier]   --transredreleff=200           (different from default '1e2')
c [simplifier]   --vivifymaxeff=200000000       (different from default '1e8')
c [simplifier]   --vivifymineff=200000          (different from default '1e5')
c [simplifier]   --vivifyredeff=600             (different from default '300')
c [simplifier]   --vivifyreleff=160             (different from default '80')
c [simplifier]   --walkmaxeff=20000000          (different from default '1e7')
c [simplifier]   --walkmineff=200000            (different from default '1e5')
c [simplifier]   --walkreleff=40                (different from default '20')
c [simplifier] 
c [simplifier] --- [ solving ] ------------------------------------------------------------
c [simplifier] 
c [simplifier] time measured in process time since initialization
c [simplifier] 
c [simplifier]  seconds  reductions  redundant irredundant
c [simplifier]         MB    restarts       trail    variables
c [simplifier]          level   conflicts       glue     remaining
c [simplifier] 
c [simplifier] *  0.00  2  0 0   0    0    0  0% 0    0   0  0%
c [simplifier] l  0.00  2  0 0   0    0    0  0% 0    0   0  0%
c [simplifier] 1  0.00  2  0 0   0    0    0  0% 0    0   0  0%
c [simplifier] 
c [simplifier] --- [ writing output ] -----------------------------------------------------
c [simplifier] 
c [simplifier] writing simplified CNF to DIMACS file '/tmp/run-simplifier-and-extend-solution-99576.out'
c [simplifier] opening file to write '/tmp/run-simplifier-and-extend-solution-99576.out'
c [simplifier] writing 'p cnf 2 0' header
c [simplifier] closing file '/tmp/run-simplifier-and-extend-solution-99576.out'
c [simplifier] after writing 10 bytes 0.0 MB
c [simplifier] wrote 0 clauses in 0.00 seconds process time
c [simplifier] 
c [simplifier] --- [ writing extension ] --------------------------------------------------
c [simplifier] 
c [simplifier] writing extension stack to '/tmp/run-simplifier-and-extend-solution-99576.ext'
c [simplifier] opening file to write '/tmp/run-simplifier-and-extend-solution-99576.ext'
c [simplifier] closing file '/tmp/run-simplifier-and-extend-solution-99576.ext'
c [simplifier] after writing 16 bytes 0.0 MB
c [simplifier] wrote 2 witnesses in 0.00 seconds process time
c [simplifier] 
c [simplifier] --- [ result ] -------------------------------------------------------------
c [simplifier] 
c [simplifier] SATISFIABLE
c [simplifier] 
c [simplifier] --- [ run-time profiling ] -------------------------------------------------
c [simplifier] 
c [simplifier] process time taken by individual solving procedures
c [simplifier] (percentage relative to process time for solving)
c [simplifier] 
c [simplifier]         0.00   25.00% lucky
c [simplifier]         0.00   25.00% search
c [simplifier]         0.00    0.00% simplify
c [simplifier]   =================================
c [simplifier]         0.00   17.71% solve
c [simplifier] 
c [simplifier] last line shows process time for solving
c [simplifier] (percentage relative to total process time)
c [simplifier] 
c [simplifier] --- [ statistics ] ---------------------------------------------------------
c [simplifier] 
c [simplifier] fixed:                         2       100.00 %  of all variables
c [simplifier] lucky:                         1       100.00 %  of tried
c [simplifier] minimized:                     0         0.00 %  minimized
c [simplifier] all_uip minimized:                     0         0.00 %  minimized by all-uip
c [simplifier] all_uip attempt rate:          0.00 % 
c [simplifier] all_uip success rate:          0.00 % 
c [simplifier] propagations:                  2         0.04 M  per second
c [simplifier] 
c [simplifier] seconds are measured in process time for solving
c [simplifier] 
c [simplifier] --- [ resources ] ----------------------------------------------------------
c [simplifier] 
c [simplifier] total process time since initialization:         0.00    seconds
c [simplifier] total real time since initialization:            0.00    seconds
c [simplifier] maximum resident set size of process:            1.82    MB
c [simplifier] 
c [simplifier] --- [ shutting down ] ------------------------------------------------------
c [simplifier] 
c [simplifier] exit 10
c [run-simplifier-and-extend-solution.sh] ../build/../scripts/../build/cadical /tmp/run-simplifier-and-extend-solution-99576.out > /tmp/run-simplifier-and-extend-solution-99576.log
c [run-simplifier-and-extend-solution.sh] solver exit code '10'
c [run-simplifier-and-extend-solution.sh] sed -e 's,^[vs],c,' -e 's,^c,c [solver],' /tmp/run-simplifier-and-extend-solution-99576.log
c [solver] --- [ banner ] -------------------------------------------------------------
c [solver] 
c [solver] CaDiCaL Radically Simplified CDCL SAT Solver
c [solver] Copyright (c) 2016-2019 Armin Biere, JKU Linz
c [solver] 
c [solver] Version 1.2.1 f44d5014010d82b1f63693a3df82e42fea558a53
c [solver] g++ (Ubuntu 9.3.0-17ubuntu1~20.04) 9.3.0 -Wall -Wextra -O3 -DNDEBUG
c [solver] Mon Jul 12 11:33:50 CEST 2021 Linux LNE-GWW60F3 5.8.0-59-generic x86_64
c [solver] 
c [solver] --- [ parsing input ] ------------------------------------------------------
c [solver] 
c [solver] reading DIMACS file from '/tmp/run-simplifier-and-extend-solution-99576.out'
c [solver] opening file to read '/tmp/run-simplifier-and-extend-solution-99576.out'
c [solver] found 'p cnf 2 0' header
c [solver] parsed 0 clauses in 0.00 seconds process time
c [solver] closing file '/tmp/run-simplifier-and-extend-solution-99576.out'
c [solver] after reading 10 bytes 0.0 MB
c [solver] 
c [solver] --- [ options ] ------------------------------------------------------------
c [solver] 
c [solver] all options are set to their default value
c [solver] 
c [solver] --- [ solving ] ------------------------------------------------------------
c [solver] 
c [solver] time measured in process time since initialization
c [solver] 
c [solver]  seconds  reductions  redundant irredundant
c [solver]         MB    restarts       trail    variables
c [solver]          level   conflicts       glue     remaining
c [solver] 
c [solver] *  0.00  2  0 0   0    0    0  0% 0    0   0  0%
c [solver] l  0.00  2  0 0   0    0    0  0% 0    0   0  0%
c [solver] 1  0.00  2  0 0   0    0    0  0% 0    0   0  0%
c [solver] 
c [solver] --- [ result ] -------------------------------------------------------------
c [solver] 
c [solver] SATISFIABLE
c [solver] -1 -2 0
c [solver] 
c [solver] --- [ run-time profiling ] -------------------------------------------------
c [solver] 
c [solver] process time taken by individual solving procedures
c [solver] (percentage relative to process time for solving)
c [solver] 
c [solver]         0.00   27.08% search
c [solver]         0.00   25.00% lucky
c [solver]         0.00    0.00% simplify
c [solver]   =================================
c [solver]         0.00   37.80% solve
c [solver] 
c [solver] last line shows process time for solving
c [solver] (percentage relative to total process time)
c [solver] 
c [solver] --- [ statistics ] ---------------------------------------------------------
c [solver] 
c [solver] lucky:                         1       100.00 %  of tried
c [solver] minimized:                     0         0.00 %  minimized
c [solver] all_uip minimized:                     0         0.00 %  minimized by all-uip
c [solver] all_uip attempt rate:          0.00 % 
c [solver] all_uip success rate:          0.00 % 
c [solver] propagations:                  0         0.00 M  per second
c [solver] 
c [solver] seconds are measured in process time for solving
c [solver] 
c [solver] --- [ resources ] ----------------------------------------------------------
c [solver] 
c [solver] total process time since initialization:         0.00    seconds
c [solver] total real time since initialization:            0.00    seconds
c [solver] maximum resident set size of process:            1.79    MB
c [solver] 
c [solver] --- [ shutting down ] ------------------------------------------------------
c [solver] 
c [solver] exit 10
c [run-simplifier-and-extend-solution.sh] ../build/../scripts/extend-solution.sh /tmp/run-simplifier-and-extend-solution-99576.log /tmp/run-simplifier-and-extend-solution-99576.ext
s SATISFIABLE
v 2
v 1
v 0
c [run-simplifier-and-extend-solution.sh] extender exit code 10
c [run-simplifier-and-extend-solution.sh] rm -f /tmp/run-simplifier-and-extend-solution-99576*
c [run-simplifier-and-extend-solution.sh] exit 10
