c --- [ banner ] -------------------------------------------------------------
c 
c CaDiCaL Radically Simplified CDCL SAT Solver
c Copyright (c) 2016-2019 Armin Biere, JKU Linz
c 
c Version 1.2.1 f44d5014010d82b1f63693a3df82e42fea558a53
c g++ (Ubuntu 9.3.0-17ubuntu1~20.04) 9.3.0 -Wall -Wextra -O3 -DNDEBUG
c Mon Jul 12 11:33:50 CEST 2021 Linux LNE-GWW60F3 5.8.0-59-generic x86_64
c 
c --- [ parsing input ] ------------------------------------------------------
c 
c reading DIMACS file from '../test/cnf/sqrt4489.cnf'
c opening file to read '../test/cnf/sqrt4489.cnf'
c found 'p cnf 302 839' header
c parsed 839 clauses in 0.00 seconds process time
c closing file '../test/cnf/sqrt4489.cnf'
c after reading 9762 bytes 0.0 MB
c 
c --- [ parsing solution ] ---------------------------------------------------
c 
c reading solution file from '../test/cnf/sqrt4489.sol'
c opening file to read '../test/cnf/sqrt4489.sol'
c parsed 302 values 100.00%
c closing file '../test/cnf/sqrt4489.sol'
c after reading 1328 bytes 0.0 MB
c 
c --- [ options ] ------------------------------------------------------------
c 
c   --check=true                   (different from default 'false')
c 
c --- [ solving ] ------------------------------------------------------------
c 
c time measured in process time since initialization
c 
c  seconds  reductions  redundant irredundant
c         MB    restarts       trail    variables
c          level   conflicts       glue     remaining
c 
c *  0.00  4  0 0   0    0    0  0% 0  838 268 89%
c l  0.00  4  0 0   0    0    0  0% 0  838 268 89%
c 1  0.00  4  0 0   0    0    0  0% 0  838 268 89%
c 
c --- [ result ] -------------------------------------------------------------
c 
s SATISFIABLE
v 1 -2 3 -4 -5 -6 7 -8 9 -10 -11 12 13 -14 -15 -16 17 -18 -19 -20 -21 -22 23
v -24 -25 -26 27 -28 -29 30 -31 -32 33 -34 -35 36 -37 -38 39 40 -41 42 -43 -44
v 45 -46 -47 48 -49 -50 51 -52 -53 54 -55 -56 57 -58 -59 60 -61 -62 -63 64 -65
v 66 67 -68 69 -70 -71 72 -73 -74 75 -76 -77 78 -79 -80 81 -82 -83 84 -85 -86
v 87 -88 -89 90 -91 -92 93 -94 95 -96 97 -98 99 100 101 -102 -103 104 -105
v -106 107 -108 -109 110 -111 -112 113 -114 -115 116 -117 -118 119 -120 -121
v 122 -123 -124 125 -126 -127 128 -129 -130 131 132 -133 -134 135 136 -137 138
v -139 140 141 142 -143 -144 145 -146 -147 148 -149 -150 151 -152 -153 154
v -155 -156 157 -158 -159 160 -161 -162 163 -164 -165 166 -167 -168 169 170
v -171 -172 -173 -174 175 -176 -177 178 -179 180 181 182 -183 184 -185 -186
v 187 -188 -189 190 -191 -192 193 -194 -195 196 -197 -198 199 -200 -201 202
v -203 -204 205 -206 -207 208 -209 -210 -211 212 213 -214 215 -216 217 218 219
v -220 221 -222 -223 224 -225 -226 227 -228 -229 230 -231 -232 233 -234 -235
v 236 -237 -238 239 -240 -241 242 -243 244 -245 246 247 248 -249 250 -251 -252
v 253 -254 -255 256 -257 -258 259 -260 -261 262 -263 -264 265 -266 267 -268
v 269 270 -271 272 -273 -274 275 -276 -277 278 -279 -280 281 -282 283 284 -285
v -286 287 -288 -289 290 291 292 293 294 295 296 297 298 299 300 301 302 0
c 
c --- [ run-time profiling ] -------------------------------------------------
c 
c process time taken by individual solving procedures
c (percentage relative to process time for solving)
c 
c         0.00  330.30% checking
c         0.00   42.42% search
c         0.00   40.40% lucky
c         0.00    0.00% simplify
c   =================================
c         0.00   10.63% solve
c 
c last line shows process time for solving
c (percentage relative to total process time)
c 
c --- [ statistics ] ---------------------------------------------------------
c 
c fixed:                        34        11.26 %  of all variables
c lucky:                         1       100.00 %  of tried
c minimized:                     0         0.00 %  minimized
c all_uip minimized:                     0         0.00 %  minimized by all-uip
c all_uip attempt rate:          0.00 % 
c all_uip success rate:          0.00 % 
c propagations:                 34         0.34 M  per second
c 
c seconds are measured in process time for solving
c 
c --- [ resources ] ----------------------------------------------------------
c 
c total process time since initialization:         0.00    seconds
c total real time since initialization:            0.00    seconds
c maximum resident set size of process:            3.58    MB
c 
c --- [ checker statistics ] -------------------------------------------------
c 
c checks:                        0
c assumptions:                   0         0.00    per check
c propagations:                 34         0.00    per check
c original:                    839        96.22 %  of all clauses
c derived:                      33         3.78 %  of all clauses
c deleted:                       0         0.00 %  of all clauses
c insertions:                  838        96.10 %  of all clauses
c collections:                   0         0.00    deleted per collection
c collisions:                    0         0.00    per search
c searches:                      0
c units:                         1
c 
c --- [ shutting down ] ------------------------------------------------------
c 
c exit 10
