{
    "0": [
        0.18003535270690918,
        0.37964677810668945,
        0.6127450466156006,
        0.8366649150848389,
        1.0512678623199463,
        1.2696073055267334,
        1.527106761932373,
        1.7575600147247314,
        2.0314762592315674,
        2.311720848083496
    ],
    "1": [
        0.1735975742340088,
        0.39055562019348145,
        0.6264238357543945,
        0.8802371025085449,
        1.0943701267242432,
        1.3672425746917725,
        1.6308202743530273,
        1.9105274677276611,
        2.1893789768218994,
        2.4614930152893066
    ],
    "2": [
        0.1783607006072998,
        0.3824954032897949,
        0.6228005886077881,
        0.8306684494018555,
        1.0752527713775635,
        1.3286211490631104,
        1.5716605186462402,
        1.845078468322754,
        2.083360195159912,
        2.3456478118896484
    ],
    "3": [
        0.4589807987213135,
        0.8571054935455322,
        1.246504783630371,
        1.5848414897918701,
        2.012627601623535,
        2.508849859237671,
        2.954676866531372,
        3.4389243125915527,
        3.905501365661621,
        4.421679973602295
    ],
    "4": [
        0.13779163360595703,
        0.4105706214904785,
        0.6417098045349121,
        0.8623812198638916,
        1.1488323211669922,
        1.4049384593963623,
        1.6877243518829346,
        1.9924633502960205,
        2.2631025314331055,
        2.595836639404297
    ]
}