{
    "0": [
        0.11783266067504883,
        0.2566666603088379,
        0.4122660160064697,
        0.5835044384002686,
        0.8051738739013672,
        1.0037333965301514,
        1.205962896347046,
        1.4396977424621582,
        1.6832480430603027,
        1.9238548278808594
    ],
    "1": [
        0.1765270233154297,
        0.3788795471191406,
        0.5805902481079102,
        0.8730485439300537,
        1.1506502628326416,
        1.5142362117767334,
        1.764664649963379,
        2.187469244003296,
        2.4810783863067627,
        2.8338265419006348
    ],
    "2": [
        0.27819228172302246,
        0.6866850852966309,
        1.039085865020752,
        1.4406182765960693,
        1.8553032875061035,
        2.2564704418182373,
        2.794375419616699,
        3.1599767208099365,
        3.689336061477661,
        4.166348218917847
    ],
    "3": [
        0.13940954208374023,
        0.28539562225341797,
        0.4409651756286621,
        0.6233651638031006,
        0.832329511642456,
        1.0550580024719238,
        1.2661211490631104,
        1.4284780025482178,
        1.6704373359680176,
        1.8968186378479004
    ],
    "4": [
        0.125413179397583,
        0.28183984756469727,
        0.44219422340393066,
        0.6153278350830078,
        0.8018074035644531,
        1.004518747329712,
        1.197680950164795,
        1.4054813385009766,
        1.633946418762207,
        1.889634370803833
    ]
}