{
    "0": [
        0.230086088180542,
        0.501969575881958,
        0.7584025859832764,
        1.0734434127807617,
        1.3780138492584229,
        1.6829807758331299,
        2.0376949310302734,
        2.3789243698120117,
        2.755066156387329,
        3.281798839569092
    ],
    "1": [
        0.6767623424530029,
        1.3132731914520264,
        2.1223630905151367,
        2.776179552078247,
        3.714179277420044,
        4.565428256988525,
        5.37314248085022,
        6.317960739135742,
        7.20293116569519,
        8.157942771911621
    ],
    "2": [
        0.20817065238952637,
        0.514655351638794,
        0.8573033809661865,
        1.2004923820495605,
        1.5321247577667236,
        1.9028732776641846,
        2.3134427070617676,
        2.7808845043182373,
        3.2460336685180664,
        3.704427480697632
    ],
    "3": [
        0.211043119430542,
        0.5042967796325684,
        0.7979907989501953,
        1.1866464614868164,
        1.53605318069458,
        1.886340618133545,
        2.3586363792419434,
        2.953636407852173,
        3.475154161453247,
        3.942176342010498
    ],
    "4": [
        0.26555418968200684,
        0.6544582843780518,
        1.1196653842926025,
        1.5417015552520752,
        1.9879992008209229,
        2.397632360458374,
        2.860243082046509,
        3.2919671535491943,
        3.9441635608673096,
        4.602289438247681
    ]
}