{
    "0": [
        0.029963016510009766,
        0.05701422691345215,
        0.0816504955291748,
        0.10669398307800293,
        0.13102960586547852,
        "UNSAT"
    ],
    "1": [
        0.026539087295532227,
        0.05288982391357422,
        0.08239483833312988,
        0.10773086547851562,
        0.13224315643310547,
        "UNSAT"
    ],
    "2": [
        0.027798891067504883,
        0.051195383071899414,
        0.07485723495483398,
        0.09804415702819824,
        0.1200110912322998,
        "UNSAT"
    ],
    "3": [
        0.026125431060791016,
        0.050055503845214844,
        0.0738215446472168,
        0.09712076187133789,
        0.11911559104919434,
        "UNSAT"
    ],
    "4": [
        0.02616596221923828,
        0.05189633369445801,
        0.07651615142822266,
        0.09897065162658691,
        0.12268781661987305,
        "UNSAT"
    ]
}