{
    "0": [
        0.039066314697265625,
        0.07803964614868164,
        0.12004232406616211,
        0.1657400131225586,
        0.21698594093322754,
        0.2793440818786621,
        0.34118080139160156,
        0.41048622131347656,
        0.4793701171875,
        0.5470693111419678
    ],
    "1": [
        0.039121389389038086,
        0.08186221122741699,
        0.12387585639953613,
        0.16842079162597656,
        0.21123814582824707,
        0.26397252082824707,
        0.32101964950561523,
        0.38996315002441406,
        0.46091556549072266,
        0.5275051593780518
    ],
    "2": [
        0.038073062896728516,
        0.07718801498413086,
        0.12088537216186523,
        0.1693129539489746,
        0.21859169006347656,
        0.2687375545501709,
        0.32054591178894043,
        0.3740870952606201,
        0.42098450660705566,
        0.4698524475097656
    ],
    "3": [
        0.03934144973754883,
        0.08255910873413086,
        0.12795519828796387,
        0.17594623565673828,
        0.22937464714050293,
        0.2977743148803711,
        0.36820292472839355,
        0.42456603050231934,
        0.4889945983886719,
        0.5435223579406738
    ],
    "4": [
        0.037606000900268555,
        0.07737851142883301,
        0.11870694160461426,
        0.16391706466674805,
        0.21595048904418945,
        0.268751859664917,
        0.329986572265625,
        0.39570069313049316,
        0.46123743057250977,
        0.5092031955718994
    ]
}