{
    "0": [
        0.1999521255493164,
        0.40321779251098633,
        0.6127898693084717,
        0.8236238956451416,
        1.027968406677246,
        1.2968552112579346,
        1.558849811553955,
        1.8367764949798584,
        2.102313995361328,
        2.336146831512451
    ],
    "1": [
        0.17308902740478516,
        0.39243555068969727,
        0.6267921924591064,
        0.8593783378601074,
        1.0970098972320557,
        1.358776569366455,
        1.7071826457977295,
        1.9761676788330078,
        2.2376625537872314,
        2.553934335708618
    ],
    "2": [
        0.16668272018432617,
        0.44243383407592773,
        0.724067211151123,
        1.0817804336547852,
        1.4705266952514648,
        1.8358783721923828,
        2.1528501510620117,
        2.461343765258789,
        2.839693784713745,
        3.21516752243042
    ],
    "3": [
        0.17895030975341797,
        0.453413724899292,
        0.7471725940704346,
        1.0774857997894287,
        1.4177892208099365,
        1.8127684593200684,
        2.1269783973693848,
        2.4949331283569336,
        2.9029383659362793,
        3.354659080505371
    ],
    "4": [
        0.40717577934265137,
        0.8471193313598633,
        1.683032512664795,
        2.2951903343200684,
        2.7564797401428223,
        3.4413034915924072,
        3.9600210189819336,
        4.66226863861084,
        5.3757593631744385,
        6.042536497116089
    ]
}