{
    "0": [
        0.044909000396728516,
        0.09401965141296387,
        0.1461808681488037,
        0.21389985084533691,
        0.2709352970123291,
        0.33000993728637695,
        0.3860917091369629,
        0.44303369522094727,
        0.5122933387756348,
        0.5803127288818359
    ],
    "1": [
        0.05557870864868164,
        0.10858011245727539,
        0.16024160385131836,
        0.2134556770324707,
        0.27055835723876953,
        0.3373146057128906,
        0.3881042003631592,
        0.4501986503601074,
        0.5037839412689209,
        0.561931848526001
    ],
    "2": [
        0.04782581329345703,
        0.09846305847167969,
        0.15078234672546387,
        0.20921659469604492,
        0.26806640625,
        0.3276631832122803,
        0.38684654235839844,
        0.44723987579345703,
        0.5031485557556152,
        0.563737154006958
    ],
    "3": [
        0.060781002044677734,
        0.11481499671936035,
        0.17256951332092285,
        0.2301485538482666,
        0.2931337356567383,
        0.3470304012298584,
        0.39835262298583984,
        0.44925546646118164,
        0.5098094940185547,
        0.5648949146270752
    ],
    "4": [
        0.05562162399291992,
        0.12297224998474121,
        0.18477487564086914,
        0.23722410202026367,
        0.2895193099975586,
        0.3457450866699219,
        0.39728379249572754,
        0.44941139221191406,
        0.5080525875091553,
        0.5677356719970703
    ]
}