{
    "0": [
        0.3884456157684326,
        0.6389799118041992,
        1.0829784870147705,
        1.578197956085205,
        2.294849157333374,
        2.9004225730895996,
        3.2619519233703613,
        3.747474193572998,
        4.234655857086182,
        4.7281084060668945
    ],
    "1": [
        0.09590291976928711,
        0.28383517265319824,
        0.5047507286071777,
        0.6803674697875977,
        0.8454024791717529,
        1.0470731258392334,
        1.2475993633270264,
        1.4568984508514404,
        1.763566017150879,
        2.094836950302124
    ],
    "2": [
        0.4603433609008789,
        0.9021008014678955,
        1.439877986907959,
        1.926288366317749,
        2.383697271347046,
        2.888803243637085,
        3.4384970664978027,
        3.9990792274475098,
        4.525346755981445,
        5.183699607849121
    ],
    "3": [
        0.09649205207824707,
        0.22878026962280273,
        0.3906698226928711,
        0.5387420654296875,
        0.7025942802429199,
        0.8528180122375488,
        1.08512282371521,
        1.270883321762085,
        1.4657282829284668,
        1.6859676837921143
    ],
    "4": [
        0.06770825386047363,
        0.17348432540893555,
        0.29392266273498535,
        0.4668900966644287,
        0.6614274978637695,
        0.8709149360656738,
        1.0444464683532715,
        1.2753980159759521,
        1.46494460105896,
        1.6854453086853027
    ]
}