{
    "0": [
        0.21553373336791992,
        0.4544060230255127,
        0.7940046787261963,
        1.0950889587402344,
        1.446413516998291,
        1.7793257236480713,
        2.0576961040496826,
        2.4451332092285156,
        2.85361647605896,
        3.2785770893096924
    ],
    "1": [
        0.20106053352355957,
        0.5006682872772217,
        0.7284235954284668,
        1.0042662620544434,
        1.3963005542755127,
        1.7022936344146729,
        2.023454427719116,
        2.3694541454315186,
        2.7882699966430664,
        3.138309955596924
    ],
    "2": [
        0.11672616004943848,
        0.2877063751220703,
        0.5127007961273193,
        0.7327480316162109,
        0.9512588977813721,
        1.2181756496429443,
        1.486065149307251,
        1.7451863288879395,
        2.014281988143921,
        2.2684531211853027
    ],
    "3": [
        0.11328339576721191,
        0.26636195182800293,
        0.4762992858886719,
        0.7106194496154785,
        0.948357105255127,
        1.1793885231018066,
        1.4141905307769775,
        1.6990256309509277,
        1.9205074310302734,
        2.1671552658081055
    ],
    "4": [
        0.13077926635742188,
        0.3218564987182617,
        0.523493766784668,
        0.7485556602478027,
        1.0011053085327148,
        1.3284006118774414,
        1.6311936378479004,
        1.8759429454803467,
        2.1264593601226807,
        2.3765735626220703
    ]
}