{
    "0": [
        0.0603632926940918,
        0.12436437606811523,
        0.21588969230651855,
        0.30528736114501953,
        0.40352797508239746,
        0.5028753280639648,
        0.6051442623138428,
        0.719036340713501,
        0.8411154747009277,
        0.9710617065429688
    ],
    "1": [
        0.07457113265991211,
        0.15426349639892578,
        0.2541370391845703,
        0.3849523067474365,
        0.48422884941101074,
        0.590167760848999,
        0.6853189468383789,
        0.7839460372924805,
        0.8931262493133545,
        1.0610368251800537
    ],
    "2": [
        0.06636333465576172,
        0.17016339302062988,
        0.26487135887145996,
        0.37703442573547363,
        0.48827600479125977,
        0.5995273590087891,
        0.707972526550293,
        0.830169677734375,
        0.9493567943572998,
        1.075838565826416
    ],
    "3": [
        0.06541562080383301,
        0.13793730735778809,
        0.21652650833129883,
        0.327329158782959,
        0.43761682510375977,
        0.5345344543457031,
        0.6275386810302734,
        0.7536041736602783,
        0.8640906810760498,
        0.9737467765808105
    ],
    "4": [
        0.05993771553039551,
        0.15363860130310059,
        0.299025297164917,
        0.39785170555114746,
        0.5273001194000244,
        0.6643428802490234,
        0.7917726039886475,
        0.9214909076690674,
        1.0453243255615234,
        1.1679730415344238
    ]
}