{
    "0": [
        0.4510829448699951,
        1.0247340202331543,
        1.510169506072998,
        2.068988800048828,
        2.727271556854248,
        3.392606019973755,
        3.8971378803253174,
        4.752400159835815,
        5.250436067581177,
        5.961798429489136
    ],
    "1": [
        0.46226072311401367,
        0.9563732147216797,
        1.552522897720337,
        2.0526633262634277,
        2.641400098800659,
        3.20676589012146,
        3.6923439502716064,
        4.236426591873169,
        4.941537141799927,
        5.7642786502838135
    ],
    "2": [
        0.10197043418884277,
        0.21349453926086426,
        0.39293670654296875,
        0.513587474822998,
        0.6987407207489014,
        0.8653910160064697,
        1.0934312343597412,
        1.2755670547485352,
        1.4371190071105957,
        1.6023821830749512
    ],
    "3": [
        0.09331369400024414,
        0.22067666053771973,
        0.44020771980285645,
        0.6872687339782715,
        0.9989831447601318,
        1.358830451965332,
        1.6562025547027588,
        1.9774575233459473,
        2.2741165161132812,
        2.791611671447754
    ],
    "4": [
        0.41840553283691406,
        0.9695227146148682,
        1.4827213287353516,
        1.939711332321167,
        2.4402287006378174,
        2.8936095237731934,
        3.5639243125915527,
        4.0750415325164795,
        4.991750717163086,
        5.661071538925171
    ]
}