{
    "0": [
        0.056783199310302734,
        0.11232757568359375,
        0.17981195449829102,
        0.2469477653503418,
        0.31571102142333984,
        0.3818035125732422,
        0.4496195316314697,
        0.5234994888305664,
        0.6135351657867432,
        0.7055630683898926
    ],
    "1": [
        0.05170321464538574,
        0.10552334785461426,
        0.1611170768737793,
        0.23038578033447266,
        0.3052561283111572,
        0.3850123882293701,
        0.46560215950012207,
        0.5477504730224609,
        0.6602323055267334,
        0.7375383377075195
    ],
    "2": [
        0.04281139373779297,
        0.09126567840576172,
        0.13963627815246582,
        0.1953141689300537,
        0.24976396560668945,
        0.3083479404449463,
        0.3698127269744873,
        0.43857455253601074,
        0.5028965473175049,
        0.5782580375671387
    ],
    "3": [
        0.051405906677246094,
        0.11326098442077637,
        0.18240928649902344,
        0.24619698524475098,
        0.3104379177093506,
        0.38310670852661133,
        0.4524531364440918,
        0.5229036808013916,
        0.5999295711517334,
        0.6828737258911133
    ],
    "4": [
        0.0451352596282959,
        0.09876394271850586,
        0.1582498550415039,
        0.22272467613220215,
        0.2941312789916992,
        0.3591766357421875,
        0.4169907569885254,
        0.5005855560302734,
        0.5874135494232178,
        0.6948847770690918
    ]
}