{
    "0": [
        0.10533452033996582,
        0.2605113983154297,
        0.42530274391174316,
        0.5800862312316895,
        0.7856583595275879,
        0.957226037979126,
        1.1826610565185547,
        1.3816108703613281,
        1.5975971221923828,
        1.8150029182434082
    ],
    "1": [
        0.10698103904724121,
        0.2098689079284668,
        0.33959507942199707,
        0.47721314430236816,
        0.6492128372192383,
        0.8250939846038818,
        0.9778938293457031,
        1.2009057998657227,
        1.4337308406829834,
        1.6195166110992432
    ],
    "2": [
        0.08548760414123535,
        0.21137213706970215,
        0.37334656715393066,
        0.5016272068023682,
        0.6455283164978027,
        0.7996153831481934,
        1.0047101974487305,
        1.1716082096099854,
        1.3360600471496582,
        1.514864444732666
    ],
    "3": [
        0.1266646385192871,
        0.3363988399505615,
        0.5335061550140381,
        0.769585371017456,
        0.9942941665649414,
        1.190075397491455,
        1.4210472106933594,
        1.6666762828826904,
        2.04508376121521,
        2.2908246517181396
    ],
    "4": [
        0.1440410614013672,
        0.36830878257751465,
        0.5862607955932617,
        0.8134610652923584,
        1.0424072742462158,
        1.3102612495422363,
        1.5940773487091064,
        1.8909428119659424,
        2.1647980213165283,
        2.5693650245666504
    ]
}