{
    "0": [
        1.957308292388916,
        3.8353474140167236,
        5.762928009033203,
        7.782969951629639,
        9.792760848999023,
        12.378236293792725,
        14.347119092941284,
        16.5152850151062,
        18.742350339889526,
        21.672938585281372
    ],
    "1": [
        2.509732961654663,
        4.931574583053589,
        7.038480758666992,
        9.40232229232788,
        11.995032787322998,
        14.939380168914795,
        18.218250513076782,
        21.147863388061523,
        24.051571369171143,
        26.947033166885376
    ],
    "2": [
        1.8980250358581543,
        3.870222330093384,
        5.966511249542236,
        8.262804985046387,
        10.205320835113525,
        12.342724084854126,
        14.665759563446045,
        16.87861704826355,
        19.521851301193237,
        22.08083939552307
    ],
    "3": [
        2.340139389038086,
        4.881122350692749,
        7.382436037063599,
        9.953229427337646,
        13.343803644180298,
        15.673262596130371,
        18.611887454986572,
        21.566208839416504,
        24.313475131988525,
        26.67426609992981
    ],
    "4": [
        2.1474251747131348,
        4.140027761459351,
        6.149225950241089,
        8.186922550201416,
        10.142826795578003,
        11.916779518127441,
        13.980978012084961,
        16.636948585510254,
        18.978989601135254,
        22.0393967628479
    ]
}