{
    "0": [
        0.058415889739990234,
        0.11640095710754395,
        0.19069600105285645,
        0.27928924560546875,
        0.38230228424072266,
        0.5208497047424316,
        0.6257944107055664,
        0.7647433280944824,
        0.8740274906158447,
        1.0084755420684814
    ],
    "1": [
        0.05114936828613281,
        0.12316131591796875,
        0.21672701835632324,
        0.3029313087463379,
        0.4225959777832031,
        0.5404601097106934,
        0.66481614112854,
        0.7507243156433105,
        0.8709554672241211,
        0.9840860366821289
    ],
    "2": [
        0.055640220642089844,
        0.11180710792541504,
        0.19631743431091309,
        0.29039692878723145,
        0.5217311382293701,
        0.652430534362793,
        0.8048336505889893,
        1.0263831615447998,
        1.185807228088379,
        1.3242261409759521
    ],
    "3": [
        0.060536861419677734,
        0.12418603897094727,
        0.2033381462097168,
        0.2823750972747803,
        0.37340688705444336,
        0.4718766212463379,
        0.5539431571960449,
        0.6792128086090088,
        0.7942190170288086,
        0.9690439701080322
    ],
    "4": [
        0.04824542999267578,
        0.1011667251586914,
        0.16770386695861816,
        0.23859524726867676,
        0.3103334903717041,
        0.38379883766174316,
        0.45462989807128906,
        0.5297811031341553,
        0.6123819351196289,
        0.6913559436798096
    ]
}