{
    "0": [
        0.07986664772033691,
        0.15935802459716797,
        0.25270605087280273,
        0.345733642578125,
        0.4469470977783203,
        0.565178394317627,
        0.6722373962402344,
        0.7999827861785889,
        0.9215235710144043,
        1.0404253005981445
    ],
    "1": [
        0.0709543228149414,
        0.14731097221374512,
        0.23696160316467285,
        0.33058810234069824,
        0.4331953525543213,
        0.5412688255310059,
        0.680088996887207,
        0.8369426727294922,
        0.9728100299835205,
        1.1011888980865479
    ],
    "2": [
        0.07988786697387695,
        0.16724228858947754,
        0.2947108745574951,
        0.40152716636657715,
        0.5352928638458252,
        0.6708230972290039,
        0.7969958782196045,
        0.9224612712860107,
        1.064131498336792,
        1.2067315578460693
    ],
    "3": [
        0.06732344627380371,
        0.1363675594329834,
        0.21254968643188477,
        0.2973203659057617,
        0.37682032585144043,
        0.4692227840423584,
        0.5747201442718506,
        0.6975550651550293,
        0.8068099021911621,
        0.9410474300384521
    ],
    "4": [
        0.0816187858581543,
        0.18161654472351074,
        0.2971792221069336,
        0.40500593185424805,
        0.5428152084350586,
        0.6720845699310303,
        0.8211956024169922,
        0.9542553424835205,
        1.1094698905944824,
        1.241992473602295
    ]
}