{
    "0": [
        0.08994436264038086,
        0.18150711059570312,
        0.28923463821411133,
        0.3992624282836914,
        0.5268290042877197,
        0.6557936668395996,
        0.8110001087188721,
        0.9664814472198486,
        1.1138861179351807,
        1.2906231880187988
    ],
    "1": [
        0.09501433372497559,
        0.19161367416381836,
        0.29866909980773926,
        0.4042189121246338,
        0.5497682094573975,
        0.7147510051727295,
        0.8618903160095215,
        1.086578130722046,
        1.3096938133239746,
        1.5300700664520264
    ],
    "2": [
        0.11864352226257324,
        0.2567002773284912,
        0.3949902057647705,
        0.5401918888092041,
        0.6950304508209229,
        0.8737282752990723,
        1.050346851348877,
        1.2196464538574219,
        1.3911104202270508,
        1.5757009983062744
    ],
    "3": [
        0.08991599082946777,
        0.19427943229675293,
        0.30022120475769043,
        0.40778541564941406,
        0.5706489086151123,
        0.7484543323516846,
        1.010237216949463,
        1.1599843502044678,
        1.3286561965942383,
        1.497753381729126
    ],
    "4": [
        0.10095524787902832,
        0.21801137924194336,
        0.3398282527923584,
        0.47118616104125977,
        0.6086835861206055,
        0.7420158386230469,
        0.881274938583374,
        1.012983798980713,
        1.1623589992523193,
        1.3151741027832031
    ]
}