{
    "0": [
        0.07719707489013672,
        0.18329596519470215,
        0.35756349563598633,
        0.5117068290710449,
        0.6529693603515625,
        0.7975094318389893,
        1.03397536277771,
        1.1920883655548096,
        1.379777431488037,
        1.6303999423980713
    ],
    "1": [
        0.0899648666381836,
        0.2006688117980957,
        0.30884289741516113,
        0.432065486907959,
        0.5702481269836426,
        0.7117981910705566,
        0.873157262802124,
        0.9953145980834961,
        1.123769760131836,
        1.266883134841919
    ],
    "2": [
        0.06335163116455078,
        0.12673377990722656,
        0.1936802864074707,
        0.2636704444885254,
        0.3475310802459717,
        0.42761731147766113,
        0.5153214931488037,
        0.6084344387054443,
        0.7017443180084229,
        0.7900252342224121
    ],
    "3": [
        0.07827472686767578,
        0.1621685028076172,
        0.2545907497406006,
        0.3791496753692627,
        0.4992687702178955,
        0.6429569721221924,
        0.795036792755127,
        1.0007648468017578,
        1.1762466430664062,
        1.3811047077178955
    ],
    "4": [
        0.06717252731323242,
        0.14429855346679688,
        0.23493647575378418,
        0.33687734603881836,
        0.43648219108581543,
        0.5284504890441895,
        0.6381793022155762,
        0.7539703845977783,
        0.87972092628479,
        1.0376827716827393
    ]
}