{
    "0": [
        0.07235288619995117,
        0.15407943725585938,
        0.24919605255126953,
        0.3505394458770752,
        0.4721035957336426,
        0.6091322898864746,
        0.7328822612762451,
        0.8893764019012451,
        1.012810468673706,
        1.1433134078979492
    ],
    "1": [
        0.08554387092590332,
        0.17438483238220215,
        0.29570555686950684,
        0.4220998287200928,
        0.5814502239227295,
        0.7365016937255859,
        0.8950250148773193,
        1.0815954208374023,
        1.275054693222046,
        1.4934241771697998
    ],
    "2": [
        0.08366751670837402,
        0.17448997497558594,
        0.29588794708251953,
        0.42443132400512695,
        0.5598230361938477,
        0.7272627353668213,
        0.8687329292297363,
        1.033566951751709,
        1.1797962188720703,
        1.355295181274414
    ],
    "3": [
        0.09525322914123535,
        0.21697235107421875,
        0.36116743087768555,
        0.566727876663208,
        0.7449722290039062,
        0.9291365146636963,
        1.1290993690490723,
        1.3015718460083008,
        1.5324115753173828,
        1.739774465560913
    ],
    "4": [
        0.08780598640441895,
        0.20143771171569824,
        0.3293039798736572,
        0.471729040145874,
        0.620905876159668,
        0.7902662754058838,
        0.934906005859375,
        1.1031239032745361,
        1.2749197483062744,
        1.497124433517456
    ]
}