{
    "0": [
        0.20195269584655762,
        0.4196891784667969,
        0.7533974647521973,
        1.0131289958953857,
        1.2934761047363281,
        1.655266523361206,
        1.949793815612793,
        2.236953020095825,
        2.6111156940460205,
        3.0136733055114746
    ],
    "1": [
        0.21569609642028809,
        0.4940207004547119,
        0.776909589767456,
        1.1560168266296387,
        1.4498615264892578,
        1.768669605255127,
        2.1895575523376465,
        2.558845043182373,
        2.9358506202697754,
        3.3770761489868164
    ],
    "2": [
        0.1825413703918457,
        0.43118882179260254,
        0.6729288101196289,
        0.9224526882171631,
        1.170569896697998,
        1.471693515777588,
        1.7824287414550781,
        2.0927698612213135,
        2.4320290088653564,
        2.7698493003845215
    ],
    "3": [
        0.22154712677001953,
        0.5240378379821777,
        0.7932577133178711,
        1.0819778442382812,
        1.422407627105713,
        1.7658705711364746,
        2.1240062713623047,
        2.487739324569702,
        2.8878626823425293,
        3.3118302822113037
    ],
    "4": [
        0.2315688133239746,
        0.5018389225006104,
        0.7671382427215576,
        1.1032655239105225,
        1.4339263439178467,
        1.760565996170044,
        2.0744669437408447,
        2.4268760681152344,
        2.772787094116211,
        3.096879243850708
    ]
}