{
    "0": [
        1.8401622772216797,
        4.054028034210205,
        6.0169219970703125,
        8.156096458435059,
        10.17084002494812,
        12.373384475708008,
        14.867844581604004,
        17.07357406616211,
        19.10682463645935,
        21.50940489768982
    ],
    "1": [
        1.4079017639160156,
        3.0636401176452637,
        4.83142352104187,
        6.665684223175049,
        8.841774940490723,
        10.836204051971436,
        12.830762147903442,
        15.142196416854858,
        18.021740674972534,
        20.71173882484436
    ],
    "2": [
        1.5324797630310059,
        3.350461959838867,
        5.490434169769287,
        7.371315240859985,
        9.221806287765503,
        11.234285831451416,
        12.793424844741821,
        15.036914110183716,
        17.553216218948364,
        20.07018232345581
    ],
    "3": [
        1.8505151271820068,
        3.974203109741211,
        6.400271654129028,
        8.712151288986206,
        11.136627435684204,
        13.54069709777832,
        16.426010608673096,
        18.888165950775146,
        21.266817569732666,
        23.86400079727173
    ],
    "4": [
        1.906919240951538,
        3.4397683143615723,
        5.40882134437561,
        7.416096210479736,
        9.647643089294434,
        12.255814790725708,
        14.753649711608887,
        17.06613254547119,
        19.618481397628784,
        22.46096110343933
    ]
}