{
    "0": [
        0.04939746856689453,
        0.10066795349121094,
        0.15648436546325684,
        0.2017068862915039,
        0.25123167037963867,
        0.30266714096069336,
        0.35529470443725586,
        0.40973520278930664,
        0.4655184745788574,
        0.5214881896972656
    ],
    "1": [
        0.04779219627380371,
        0.10506701469421387,
        0.15761327743530273,
        0.21008992195129395,
        0.26081323623657227,
        0.31372976303100586,
        0.36563658714294434,
        0.4234452247619629,
        0.4817771911621094,
        0.5382623672485352
    ],
    "2": [
        0.0470881462097168,
        0.09076189994812012,
        0.1427628993988037,
        0.19287872314453125,
        0.24446558952331543,
        0.2959744930267334,
        0.3525080680847168,
        0.4078242778778076,
        0.4699521064758301,
        0.5238103866577148
    ],
    "3": [
        0.04916548728942871,
        0.09660625457763672,
        0.1495048999786377,
        0.19672894477844238,
        0.24728035926818848,
        0.30436110496520996,
        0.35779762268066406,
        0.4145164489746094,
        0.4777042865753174,
        0.5385260581970215
    ],
    "4": [
        0.05529594421386719,
        0.10881447792053223,
        0.1662769317626953,
        0.215162992477417,
        0.26856327056884766,
        0.32825255393981934,
        0.38729262351989746,
        0.44965243339538574,
        0.5107502937316895,
        0.5710887908935547
    ]
}