{
    "0": [
        0.08205699920654297,
        0.16037511825561523,
        0.24000763893127441,
        0.32604312896728516,
        0.41901445388793945,
        0.5148758888244629,
        0.6124663352966309,
        0.7107868194580078,
        0.8113172054290771,
        0.9119653701782227
    ],
    "1": [
        0.08845305442810059,
        0.15480446815490723,
        0.220902681350708,
        0.2896904945373535,
        0.3645186424255371,
        0.45278334617614746,
        0.5471601486206055,
        0.643141508102417,
        0.741063117980957,
        0.8404955863952637
    ],
    "2": [
        0.0841679573059082,
        0.16059279441833496,
        0.2568678855895996,
        0.3299436569213867,
        0.4114494323730469,
        0.5001096725463867,
        0.5943775177001953,
        0.7196192741394043,
        0.8402690887451172,
        0.9376356601715088
    ],
    "3": [
        0.07851457595825195,
        0.15954327583312988,
        0.24109625816345215,
        0.32668590545654297,
        0.4139893054962158,
        0.5135252475738525,
        0.6100773811340332,
        0.7096929550170898,
        0.8084399700164795,
        0.9080913066864014
    ],
    "4": [
        0.08286046981811523,
        0.1607205867767334,
        0.2446882724761963,
        0.32666516304016113,
        0.40905046463012695,
        0.5009865760803223,
        0.597482442855835,
        0.6921367645263672,
        0.7905633449554443,
        0.8920791149139404
    ]
}