{
    "0": [
        0.07365822792053223,
        0.1386568546295166,
        0.21114540100097656,
        0.2944042682647705,
        0.3833796977996826,
        0.47745299339294434,
        0.5709438323974609,
        0.6676599979400635,
        0.7662830352783203,
        0.8691375255584717
    ],
    "1": [
        0.10235333442687988,
        0.18655800819396973,
        0.27239322662353516,
        0.36286067962646484,
        0.45153117179870605,
        0.5513136386871338,
        0.6463382244110107,
        0.7359180450439453,
        0.8230338096618652,
        0.9120359420776367
    ],
    "2": [
        0.07737088203430176,
        0.1476132869720459,
        0.2199993133544922,
        0.29692983627319336,
        0.3763244152069092,
        0.46495842933654785,
        0.7052102088928223,
        1.1841843128204346,
        1.5883350372314453,
        1.9758217334747314
    ],
    "3": [
        0.0890340805053711,
        0.18488144874572754,
        0.27541279792785645,
        0.36751437187194824,
        0.47176623344421387,
        0.5700111389160156,
        0.6725547313690186,
        0.779047966003418,
        0.8951268196105957,
        1.02817964553833
    ],
    "4": [
        0.10849332809448242,
        0.19373559951782227,
        0.28256845474243164,
        0.37213683128356934,
        0.46976351737976074,
        0.5738124847412109,
        0.6776528358459473,
        0.7730791568756104,
        0.8722095489501953,
        0.9765112400054932
    ]
}