{
    "0": [
        0.06413030624389648,
        0.11397242546081543,
        0.16667437553405762,
        0.22217273712158203,
        0.27945995330810547,
        0.3410055637359619,
        0.4042835235595703,
        0.47089290618896484,
        0.5408627986907959,
        0.6133160591125488
    ],
    "1": [
        0.0611119270324707,
        0.11114239692687988,
        0.16405606269836426,
        0.21869373321533203,
        0.273317813873291,
        0.33069610595703125,
        0.3913707733154297,
        0.4533507823944092,
        0.5232672691345215,
        0.5888540744781494
    ],
    "2": [
        0.06075906753540039,
        0.11128854751586914,
        0.16263484954833984,
        0.21581530570983887,
        0.28475332260131836,
        0.36954808235168457,
        0.4406697750091553,
        0.5233104228973389,
        0.6267919540405273,
        0.7318146228790283
    ],
    "3": [
        0.06551671028137207,
        0.11779332160949707,
        0.17269515991210938,
        0.23562836647033691,
        0.29837894439697266,
        0.3643672466278076,
        0.43904662132263184,
        0.5196342468261719,
        0.5994646549224854,
        0.6827735900878906
    ],
    "4": [
        0.07108235359191895,
        0.12505531311035156,
        0.18194890022277832,
        0.24062108993530273,
        0.29925990104675293,
        0.363142728805542,
        0.4293842315673828,
        0.5013036727905273,
        0.5757219791412354,
        0.6531436443328857
    ]
}