{
    "0": [
        0.23742222785949707,
        0.5025942325592041,
        0.7890160083770752,
        1.0729880332946777,
        1.3644239902496338,
        1.5948593616485596,
        1.898040533065796,
        2.210123062133789,
        2.464698553085327,
        2.7255189418792725
    ],
    "1": [
        0.2753570079803467,
        0.4943082332611084,
        0.7085492610931396,
        0.9278397560119629,
        1.1559913158416748,
        1.394780158996582,
        1.6372933387756348,
        1.8885762691497803,
        2.145238161087036,
        2.411881446838379
    ],
    "2": [
        0.2773878574371338,
        0.5207829475402832,
        0.776376485824585,
        1.0412015914916992,
        1.3132126331329346,
        1.594179391860962,
        1.8808391094207764,
        2.1742303371429443,
        2.4721267223358154,
        2.777432680130005
    ],
    "3": [
        0.24436378479003906,
        0.45083022117614746,
        0.6648550033569336,
        0.8952295780181885,
        1.123305082321167,
        1.3604578971862793,
        1.6105034351348877,
        1.8703200817108154,
        2.133967399597168,
        2.4007129669189453
    ],
    "4": [
        0.3067033290863037,
        0.5818850994110107,
        0.8645243644714355,
        1.1531651020050049,
        1.4553959369659424,
        1.7600481510162354,
        2.0701141357421875,
        2.3874313831329346,
        2.71262264251709,
        3.056859016418457
    ]
}