{
    "0": [
        0.01646280288696289,
        0.035240888595581055,
        0.060291290283203125,
        0.0957176685333252,
        0.13057804107666016,
        0.16970467567443848,
        0.22775053977966309,
        0.27807092666625977,
        0.33172059059143066,
        0.37708425521850586
    ],
    "1": [
        0.014263629913330078,
        0.03004908561706543,
        0.046974897384643555,
        0.06589984893798828,
        0.09495258331298828,
        0.12562251091003418,
        0.16508793830871582,
        0.2073380947113037,
        0.2502114772796631,
        0.3051912784576416
    ],
    "2": [
        0.01972174644470215,
        0.04832315444946289,
        0.08953046798706055,
        0.13016986846923828,
        0.17556285858154297,
        0.21848273277282715,
        0.26027798652648926,
        0.3086855411529541,
        0.3579263687133789,
        0.4189913272857666
    ],
    "3": [
        0.02049875259399414,
        0.04222559928894043,
        0.06713128089904785,
        0.09596991539001465,
        0.13541603088378906,
        0.17415523529052734,
        0.2149510383605957,
        0.25068044662475586,
        0.3052656650543213,
        0.3576979637145996
    ],
    "4": [
        0.016700029373168945,
        0.03988075256347656,
        0.07386660575866699,
        0.11310529708862305,
        0.15142226219177246,
        0.2128448486328125,
        0.28138256072998047,
        0.31311511993408203,
        0.3442544937133789,
        0.387371301651001
    ]
}