{
    "0": [
        0.25325894355773926,
        0.7998862266540527,
        1.615966558456421,
        2.357726573944092,
        3.0696442127227783,
        3.6310060024261475,
        4.4151575565338135,
        5.026067018508911,
        5.891793251037598,
        6.659751653671265
    ],
    "1": [
        0.17902779579162598,
        0.46787548065185547,
        0.7226183414459229,
        1.0079975128173828,
        1.352257251739502,
        1.6796278953552246,
        1.9991371631622314,
        2.4028220176696777,
        2.729585886001587,
        3.2321951389312744
    ],
    "2": [
        0.32398247718811035,
        0.8245794773101807,
        1.4642622470855713,
        2.277377128601074,
        2.8072118759155273,
        3.5237178802490234,
        4.253886461257935,
        4.807360410690308,
        5.236268043518066,
        5.770179748535156
    ],
    "3": [
        0.21088218688964844,
        0.6091179847717285,
        0.9537358283996582,
        1.3610610961914062,
        1.7922749519348145,
        2.2388858795166016,
        2.6711888313293457,
        3.122673749923706,
        3.744832992553711,
        4.288393497467041
    ],
    "4": [
        0.39864683151245117,
        0.7594120502471924,
        1.1535546779632568,
        1.607621669769287,
        2.0578813552856445,
        2.554790496826172,
        3.024287223815918,
        3.589010715484619,
        4.292351961135864,
        5.171117305755615
    ]
}