{
    "0": [
        0.08809542655944824,
        0.17216873168945312,
        0.3113830089569092,
        0.46402478218078613,
        0.6301517486572266,
        0.7771618366241455,
        0.9448237419128418,
        1.339094638824463,
        1.5668971538543701,
        1.8045306205749512
    ],
    "1": [
        0.09596085548400879,
        0.22089290618896484,
        0.3273642063140869,
        0.4297211170196533,
        0.584338903427124,
        0.7733404636383057,
        0.9437530040740967,
        1.0752439498901367,
        1.2129135131835938,
        1.3757247924804688
    ],
    "2": [
        0.07785177230834961,
        0.16614818572998047,
        0.31615161895751953,
        0.43164944648742676,
        0.5792224407196045,
        0.7091076374053955,
        0.8878655433654785,
        1.0566904544830322,
        1.2268340587615967,
        1.3811171054840088
    ],
    "3": [
        0.060607194900512695,
        0.14560842514038086,
        0.26798009872436523,
        0.3764612674713135,
        0.5500733852386475,
        0.8112294673919678,
        1.0059521198272705,
        1.1936397552490234,
        1.4010636806488037,
        1.6506755352020264
    ],
    "4": [
        0.09443163871765137,
        0.21707797050476074,
        0.3307156562805176,
        0.4582042694091797,
        0.6274147033691406,
        0.8093597888946533,
        0.9907169342041016,
        1.1850202083587646,
        1.3426783084869385,
        1.4670870304107666
    ]
}