{
    "0": [
        0.16283273696899414,
        0.35873842239379883,
        0.5396766662597656,
        0.7799124717712402,
        1.0254220962524414,
        1.290471076965332,
        1.5293912887573242,
        1.746241569519043,
        2.106813907623291,
        2.5463638305664062
    ],
    "1": [
        0.18946290016174316,
        0.6453690528869629,
        0.9131584167480469,
        1.2221362590789795,
        1.4255280494689941,
        1.6337499618530273,
        1.9007079601287842,
        2.260218381881714,
        2.653053045272827,
        3.090127944946289
    ],
    "2": [
        0.15623784065246582,
        0.3654031753540039,
        0.5742714405059814,
        0.7523224353790283,
        0.9785802364349365,
        1.1883399486541748,
        1.4358811378479004,
        1.6112561225891113,
        1.8308284282684326,
        2.0610029697418213
    ],
    "3": [
        0.19446396827697754,
        0.40713953971862793,
        0.7003893852233887,
        0.9528095722198486,
        1.1728596687316895,
        1.4093444347381592,
        1.7442984580993652,
        1.9626779556274414,
        2.1769680976867676,
        2.5957696437835693
    ],
    "4": [
        0.15652179718017578,
        0.40961289405822754,
        0.6395564079284668,
        0.914949893951416,
        1.1518638134002686,
        1.4552910327911377,
        1.7532684803009033,
        2.063770055770874,
        2.397644281387329,
        2.750666618347168
    ]
}