{
    "0": [
        0.08243536949157715,
        0.17125630378723145,
        0.27939867973327637,
        0.39609241485595703,
        0.5076050758361816,
        0.6346230506896973,
        0.7627239227294922,
        0.8823363780975342,
        1.0277087688446045,
        1.134742259979248
    ],
    "1": [
        0.06383395195007324,
        0.12619280815124512,
        0.19394540786743164,
        0.2662699222564697,
        0.3556699752807617,
        0.44031500816345215,
        0.5394337177276611,
        0.6342992782592773,
        0.7160687446594238,
        0.8175525665283203
    ],
    "2": [
        0.10028791427612305,
        0.24891376495361328,
        0.4150080680847168,
        0.5761153697967529,
        0.7260751724243164,
        0.8936471939086914,
        1.0997898578643799,
        1.2787466049194336,
        1.4322566986083984,
        1.587634563446045
    ],
    "3": [
        0.07554197311401367,
        0.15387415885925293,
        0.2697007656097412,
        0.41634225845336914,
        0.526437520980835,
        0.6251835823059082,
        0.7652277946472168,
        0.8523404598236084,
        0.9667432308197021,
        1.077890157699585
    ],
    "4": [
        0.0854787826538086,
        0.16377949714660645,
        0.26477956771850586,
        0.391925573348999,
        0.5392904281616211,
        0.668987512588501,
        0.8193562030792236,
        1.0096945762634277,
        1.1735668182373047,
        1.3209714889526367
    ]
}