{
    "0": [
        0.09620976448059082,
        0.22287750244140625,
        0.4075753688812256,
        0.6484136581420898,
        0.8284108638763428,
        1.0481963157653809,
        1.2601511478424072,
        1.4737374782562256,
        1.6681873798370361,
        1.8733692169189453
    ],
    "1": [
        0.1365807056427002,
        0.29830217361450195,
        0.44541501998901367,
        0.6211850643157959,
        0.8110172748565674,
        1.0143673419952393,
        1.209153413772583,
        1.4130496978759766,
        1.6657636165618896,
        1.9054028987884521
    ],
    "2": [
        0.1535048484802246,
        0.4737246036529541,
        0.6820480823516846,
        0.8573081493377686,
        1.0659468173980713,
        1.363154411315918,
        1.6727626323699951,
        1.9479246139526367,
        2.171489953994751,
        2.4276516437530518
    ],
    "3": [
        0.08510470390319824,
        0.1793990135192871,
        0.3011202812194824,
        0.4670753479003906,
        0.6088066101074219,
        0.7567660808563232,
        0.9366598129272461,
        1.1043541431427002,
        1.292372226715088,
        1.4792141914367676
    ],
    "4": [
        0.07644510269165039,
        0.18500351905822754,
        0.2997317314147949,
        0.43244266510009766,
        0.5910913944244385,
        0.7344315052032471,
        0.9077699184417725,
        1.06480073928833,
        1.309330940246582,
        1.4872803688049316
    ]
}