{
    "0": [
        0.2648773193359375,
        0.6170403957366943,
        0.9973392486572266,
        1.334815502166748,
        1.7411062717437744,
        2.1057305335998535,
        2.623106002807617,
        2.941094398498535,
        3.4836483001708984,
        4.057112455368042
    ],
    "1": [
        0.19913768768310547,
        0.5984339714050293,
        1.0148823261260986,
        1.4328007698059082,
        1.987858533859253,
        2.59616756439209,
        3.2618727684020996,
        3.8103156089782715,
        4.350560665130615,
        4.942958354949951
    ],
    "2": [
        0.2771565914154053,
        0.6524391174316406,
        1.025301218032837,
        1.4493074417114258,
        1.7083430290222168,
        2.0244603157043457,
        2.5340726375579834,
        3.010944128036499,
        3.4722321033477783,
        4.135782957077026
    ],
    "3": [
        0.7666826248168945,
        1.5471107959747314,
        2.4826948642730713,
        3.2670257091522217,
        4.23095440864563,
        5.104923963546753,
        6.069909334182739,
        6.85317063331604,
        7.765487194061279,
        8.65563416481018
    ],
    "4": [
        0.3270435333251953,
        0.9222414493560791,
        1.372243881225586,
        1.7742760181427002,
        2.389147996902466,
        3.118999719619751,
        4.025278091430664,
        4.760957717895508,
        5.634875774383545,
        6.249502658843994
    ]
}