{
    "0": [
        0.07602357864379883,
        0.16661500930786133,
        0.2563159465789795,
        0.35799503326416016,
        0.4917416572570801,
        0.6113474369049072,
        0.7117295265197754,
        0.8404507637023926,
        0.9780890941619873,
        1.205157995223999
    ],
    "1": [
        0.06734156608581543,
        0.13370013236999512,
        0.23995709419250488,
        0.3490569591522217,
        0.46871399879455566,
        0.5496838092803955,
        0.6695535182952881,
        0.8259332180023193,
        0.9551792144775391,
        1.0696325302124023
    ],
    "2": [
        0.10013103485107422,
        0.27287983894348145,
        0.3757176399230957,
        0.534538984298706,
        0.7224431037902832,
        0.8472366333007812,
        1.1087751388549805,
        1.256551742553711,
        1.5165181159973145,
        1.7246825695037842
    ],
    "3": [
        0.06878209114074707,
        0.1254425048828125,
        0.2055058479309082,
        0.2943148612976074,
        0.41991758346557617,
        0.5505404472351074,
        0.681891679763794,
        0.7821598052978516,
        0.8791770935058594,
        0.9790816307067871
    ],
    "4": [
        0.0484461784362793,
        0.09370565414428711,
        0.15767693519592285,
        0.22044873237609863,
        0.27956318855285645,
        0.3622112274169922,
        0.4519340991973877,
        0.5705299377441406,
        0.6609194278717041,
        0.7605924606323242
    ]
}