{
    "0": [
        0.03965616226196289,
        0.08448529243469238,
        0.14207696914672852,
        0.20416474342346191,
        0.2712216377258301,
        0.34336137771606445,
        0.4165773391723633,
        0.4947185516357422,
        0.5743529796600342,
        0.6602275371551514
    ],
    "1": [
        0.06480050086975098,
        0.14610552787780762,
        0.23043394088745117,
        0.3695552349090576,
        0.4830765724182129,
        0.5895671844482422,
        0.7234411239624023,
        0.8470616340637207,
        0.9590780735015869,
        1.1157927513122559
    ],
    "2": [
        0.06109619140625,
        0.16999197006225586,
        0.28577351570129395,
        0.3813352584838867,
        0.5726690292358398,
        0.735414981842041,
        0.8953824043273926,
        1.0497102737426758,
        1.214341640472412,
        1.3380241394042969
    ],
    "3": [
        0.04543948173522949,
        0.11287331581115723,
        0.1905829906463623,
        0.26769185066223145,
        0.3440248966217041,
        0.4252746105194092,
        0.5176465511322021,
        0.609539270401001,
        0.6979632377624512,
        0.7910187244415283
    ],
    "4": [
        0.06183123588562012,
        0.1616218090057373,
        0.29897189140319824,
        0.5149021148681641,
        0.7291016578674316,
        0.9909412860870361,
        1.1515100002288818,
        1.4049928188323975,
        1.7369425296783447,
        1.9589667320251465
    ]
}