{
    "0": [
        0.04218649864196777,
        0.0907447338104248,
        0.18370676040649414,
        0.27188563346862793,
        0.4024512767791748,
        0.5354115962982178,
        0.6805148124694824,
        0.8607721328735352,
        1.027069330215454,
        1.247422218322754
    ],
    "1": [
        0.050873517990112305,
        0.14026284217834473,
        0.22081947326660156,
        0.3192741870880127,
        0.4172689914703369,
        0.534883975982666,
        0.641289472579956,
        0.7610733509063721,
        0.9180738925933838,
        1.0156328678131104
    ],
    "2": [
        0.046510934829711914,
        0.09855890274047852,
        0.16823649406433105,
        0.2842371463775635,
        0.41143131256103516,
        0.5585875511169434,
        0.689171552658081,
        0.8663055896759033,
        0.9857251644134521,
        1.1149933338165283
    ],
    "3": [
        0.04438924789428711,
        0.09794425964355469,
        0.17148351669311523,
        0.2592902183532715,
        0.3438255786895752,
        0.4638330936431885,
        0.5745711326599121,
        0.7125778198242188,
        0.8310210704803467,
        0.9546782970428467
    ],
    "4": [
        0.047725677490234375,
        0.12069249153137207,
        0.19832515716552734,
        0.2740013599395752,
        0.3702554702758789,
        0.494948148727417,
        0.6348180770874023,
        0.7699251174926758,
        0.9034669399261475,
        1.0402977466583252
    ]
}