{
    "0": [
        0.058379173278808594,
        0.144012451171875,
        0.23638558387756348,
        0.34323906898498535,
        0.48607897758483887,
        0.6066200733184814,
        0.7624311447143555,
        0.9026052951812744,
        1.0801112651824951,
        1.2066802978515625
    ],
    "1": [
        0.029317617416381836,
        0.06928253173828125,
        0.11545705795288086,
        0.18107819557189941,
        0.24500250816345215,
        0.3494887351989746,
        0.4495704174041748,
        0.5253779888153076,
        0.5976991653442383,
        0.7643008232116699
    ],
    "2": [
        0.043752193450927734,
        0.10522007942199707,
        0.18524837493896484,
        0.2641003131866455,
        0.3258213996887207,
        0.39166951179504395,
        0.45604515075683594,
        0.529043436050415,
        0.63169264793396,
        0.7677147388458252
    ],
    "3": [
        0.05994749069213867,
        0.15570545196533203,
        0.25873422622680664,
        0.3314950466156006,
        0.4103422164916992,
        0.49797654151916504,
        0.5880022048950195,
        0.8102107048034668,
        0.9136853218078613,
        1.0272512435913086
    ],
    "4": [
        0.05739021301269531,
        0.1173257827758789,
        0.186903715133667,
        0.27564072608947754,
        0.36450910568237305,
        0.47501587867736816,
        0.6032092571258545,
        0.6984069347381592,
        0.8167097568511963,
        0.9378275871276855
    ]
}