{
    "0": [
        0.03888869285583496,
        0.08092236518859863,
        0.13370180130004883,
        0.19183850288391113,
        0.2537879943847656,
        0.3209209442138672,
        0.37614917755126953,
        0.4400172233581543,
        0.5029568672180176,
        0.566521406173706
    ],
    "1": [
        0.04187893867492676,
        0.08872747421264648,
        0.1454792022705078,
        0.1966264247894287,
        0.2841062545776367,
        0.3482046127319336,
        0.42000555992126465,
        0.4823637008666992,
        0.5532078742980957,
        0.6306793689727783
    ],
    "2": [
        0.05143308639526367,
        0.10393524169921875,
        0.15819096565246582,
        0.2198951244354248,
        0.3101389408111572,
        0.3972506523132324,
        0.48264527320861816,
        0.5530636310577393,
        0.6204767227172852,
        0.7346410751342773
    ],
    "3": [
        0.040624141693115234,
        0.08482789993286133,
        0.13390183448791504,
        0.18441486358642578,
        0.2530055046081543,
        0.30877065658569336,
        0.37047719955444336,
        0.44452834129333496,
        0.5483667850494385,
        0.6330037117004395
    ],
    "4": [
        0.04035472869873047,
        0.08249139785766602,
        0.13349413871765137,
        0.1844005584716797,
        0.23903203010559082,
        0.30126357078552246,
        0.37238144874572754,
        0.43633389472961426,
        0.5280272960662842,
        0.5882763862609863
    ]
}