{
    "0": [
        0.030983924865722656,
        0.06772041320800781,
        0.10244441032409668,
        0.14140772819519043,
        0.18362879753112793,
        0.22974872589111328,
        0.2757422924041748,
        0.32186031341552734,
        0.36872315406799316,
        0.4265172481536865
    ],
    "1": [
        0.03838825225830078,
        0.07938265800476074,
        0.12478184700012207,
        0.1754615306854248,
        0.2260146141052246,
        0.2922933101654053,
        0.3582630157470703,
        0.4210231304168701,
        0.49122118949890137,
        0.5508739948272705
    ],
    "2": [
        0.03860187530517578,
        0.07982182502746582,
        0.11637592315673828,
        0.15450549125671387,
        0.19390344619750977,
        0.24486875534057617,
        0.29955315589904785,
        0.3586759567260742,
        0.4175388813018799,
        0.4818873405456543
    ],
    "3": [
        0.028687238693237305,
        0.06487131118774414,
        0.12543320655822754,
        0.1675560474395752,
        0.20860767364501953,
        0.24904489517211914,
        0.2897653579711914,
        0.33794116973876953,
        0.3928372859954834,
        0.44843316078186035
    ],
    "4": [
        0.032434940338134766,
        0.06672191619873047,
        0.10337448120117188,
        0.1474149227142334,
        0.19560575485229492,
        0.2430722713470459,
        0.2906005382537842,
        0.34531497955322266,
        0.39804530143737793,
        0.4486196041107178
    ]
}