{
    "0": [
        0.5800156593322754,
        1.7616829872131348,
        2.776338815689087,
        3.5273938179016113,
        3.9959723949432373,
        4.911048173904419,
        5.860438108444214,
        6.920165538787842,
        7.892352819442749,
        9.412243366241455
    ],
    "1": [
        0.3960907459259033,
        1.078202486038208,
        1.7409453392028809,
        2.691053628921509,
        3.1852262020111084,
        4.05207633972168,
        4.714733123779297,
        5.563740968704224,
        6.411840915679932,
        7.209946393966675
    ],
    "2": [
        1.5113253593444824,
        3.0926029682159424,
        4.9411115646362305,
        6.278995990753174,
        7.544670343399048,
        9.101673126220703,
        10.503703832626343,
        12.005632877349854,
        13.836677312850952,
        15.312758445739746
    ],
    "3": [
        0.9581089019775391,
        1.9157986640930176,
        3.572610855102539,
        4.465122222900391,
        5.247511386871338,
        5.91156268119812,
        6.759085655212402,
        8.18543529510498,
        9.219731569290161,
        10.155786514282227
    ],
    "4": [
        1.9416537284851074,
        3.7376785278320312,
        5.539111375808716,
        7.918618440628052,
        9.631492137908936,
        11.89984679222107,
        13.960231065750122,
        19.76298451423645,
        21.553135871887207,
        23.528308629989624
    ]
}