{
    "0": [
        0.03925466537475586,
        0.09761452674865723,
        0.15748143196105957,
        0.20505762100219727,
        0.24364018440246582,
        0.2872650623321533,
        0.38134765625,
        0.4679679870605469,
        0.5444653034210205,
        0.603370189666748
    ],
    "1": [
        0.03390026092529297,
        0.05842018127441406,
        0.09945178031921387,
        0.13706469535827637,
        0.1902024745941162,
        0.2392258644104004,
        0.2969553470611572,
        0.3632948398590088,
        0.440462589263916,
        0.5230898857116699
    ],
    "2": [
        0.062494754791259766,
        0.14074420928955078,
        0.2138063907623291,
        0.2906227111816406,
        0.4216196537017822,
        0.5266525745391846,
        0.578223466873169,
        0.6802074909210205,
        0.7324819564819336,
        0.8351659774780273
    ],
    "3": [
        0.030118227005004883,
        0.07913923263549805,
        0.12949609756469727,
        0.18954706192016602,
        0.3153419494628906,
        "UNKNOWN"
    ],
    "4": [
        0.04468536376953125,
        0.08600783348083496,
        0.16251087188720703,
        0.23485994338989258,
        0.3054213523864746,
        0.40386176109313965,
        0.5230081081390381,
        0.6299448013305664,
        0.8283054828643799,
        1.0100183486938477
    ]
}