{
    "0": [
        0.02241039276123047,
        0.044692039489746094,
        0.07241368293762207,
        0.10157299041748047,
        0.15241718292236328,
        0.1859300136566162,
        0.22658872604370117,
        0.2626810073852539,
        0.2998628616333008,
        0.33991146087646484
    ],
    "1": [
        0.034397125244140625,
        0.06834149360656738,
        0.09855151176452637,
        0.1308140754699707,
        0.16501760482788086,
        0.20259547233581543,
        0.24406766891479492,
        0.2935299873352051,
        0.3439316749572754,
        0.39694786071777344
    ],
    "2": [
        0.021131277084350586,
        0.04256868362426758,
        0.06374478340148926,
        0.09246063232421875,
        0.12188982963562012,
        0.15240812301635742,
        0.18479442596435547,
        0.2209947109222412,
        0.25977444648742676,
        0.3010849952697754
    ],
    "3": [
        0.0246884822845459,
        0.049471378326416016,
        0.0766453742980957,
        0.10848879814147949,
        0.14904069900512695,
        0.18849992752075195,
        0.22684907913208008,
        0.2665073871612549,
        0.30652952194213867,
        0.3493523597717285
    ],
    "4": [
        0.022288799285888672,
        0.04648184776306152,
        0.07682204246520996,
        0.11778831481933594,
        0.16823577880859375,
        0.2100365161895752,
        0.2905094623565674,
        0.3507866859436035,
        0.424069881439209,
        0.47815370559692383
    ]
}