{
    "0": [
        0.01892876625061035,
        0.038995981216430664,
        0.07589530944824219,
        0.1159515380859375,
        0.16663241386413574,
        0.2223958969116211,
        0.2879345417022705,
        0.34622907638549805,
        0.4117436408996582,
        0.48797154426574707
    ],
    "1": [
        0.018440723419189453,
        0.033637046813964844,
        0.05566239356994629,
        0.0867767333984375,
        0.11607480049133301,
        0.1515367031097412,
        0.1877603530883789,
        0.21326017379760742,
        0.23991703987121582,
        0.27242088317871094
    ],
    "2": [
        0.01517176628112793,
        0.03577566146850586,
        0.061733245849609375,
        0.08515405654907227,
        0.1075444221496582,
        0.1480867862701416,
        0.1889488697052002,
        0.2363603115081787,
        0.286668062210083,
        0.3323092460632324
    ],
    "3": [
        0.015744447708129883,
        0.0382838249206543,
        0.07299423217773438,
        0.1114656925201416,
        0.15835165977478027,
        0.21465754508972168,
        0.26417064666748047,
        0.314251184463501,
        0.35515737533569336,
        0.41376733779907227
    ],
    "4": [
        0.02256941795349121,
        0.04100680351257324,
        0.06844949722290039,
        0.11124181747436523,
        0.14423465728759766,
        0.19479990005493164,
        0.2590329647064209,
        0.329420804977417,
        0.3861725330352783,
        0.4835963249206543
    ]
}