{
    "0": [
        0.041416168212890625,
        0.08357596397399902,
        0.12182760238647461,
        0.1606302261352539,
        0.20737791061401367,
        0.2556912899017334,
        0.3108479976654053,
        0.3704557418823242,
        0.4256579875946045,
        0.4834632873535156
    ],
    "1": [
        0.04206967353820801,
        0.07548809051513672,
        0.1204376220703125,
        0.15675616264343262,
        0.1944587230682373,
        0.23568201065063477,
        0.27768874168395996,
        0.32050657272338867,
        0.3644716739654541,
        0.41005611419677734
    ],
    "2": [
        0.03733468055725098,
        0.07113242149353027,
        0.10565829277038574,
        0.14513015747070312,
        0.1915123462677002,
        0.23481106758117676,
        0.28709959983825684,
        0.33738231658935547,
        0.44040489196777344,
        0.49100661277770996
    ],
    "3": [
        0.036149024963378906,
        0.06802058219909668,
        0.10307812690734863,
        0.13898181915283203,
        0.17878293991088867,
        0.22069001197814941,
        0.2629265785217285,
        0.30268025398254395,
        0.34995412826538086,
        0.40428686141967773
    ],
    "4": [
        0.034775733947753906,
        0.066680908203125,
        0.10183286666870117,
        0.13919663429260254,
        0.1781148910522461,
        0.21898269653320312,
        0.262284517288208,
        0.307236909866333,
        0.3526766300201416,
        0.401383638381958
    ]
}