{
    "0": [
        0.38100528717041016,
        0.8348841667175293,
        1.3366858959197998,
        1.9019677639007568,
        2.5240769386291504,
        3.1925742626190186,
        3.886870861053467,
        4.568134069442749,
        5.226762771606445,
        6.528163909912109
    ],
    "1": [
        0.6230182647705078,
        1.2241439819335938,
        1.878450870513916,
        2.563812255859375,
        3.9217751026153564,
        4.600393772125244,
        5.306914806365967,
        6.07209587097168,
        6.806769371032715,
        7.5517120361328125
    ],
    "2": [
        0.6627023220062256,
        1.270411491394043,
        1.9057552814483643,
        2.5881032943725586,
        3.2304930686950684,
        3.904796838760376,
        4.641205310821533,
        5.363008737564087,
        6.1243250370025635,
        6.858363151550293
    ],
    "3": [
        0.6498143672943115,
        1.3206841945648193,
        2.747603178024292,
        3.56376314163208,
        4.468096733093262,
        6.263890743255615,
        7.970828294754028,
        12.647096633911133,
        13.687480926513672,
        18.078280210494995
    ],
    "4": [
        0.6584267616271973,
        1.3543965816497803,
        2.0503580570220947,
        2.762009620666504,
        3.514458656311035,
        4.280191659927368,
        5.026577949523926,
        5.8320534229278564,
        6.6055474281311035,
        8.199379920959473
    ]
}