{
    "0": [
        1.8162109851837158,
        4.127079486846924,
        6.416685104370117,
        8.307615041732788,
        10.225230932235718,
        12.080986499786377,
        14.637014865875244,
        17.11251163482666,
        19.538448333740234,
        22.099167346954346
    ],
    "1": [
        1.9481134414672852,
        4.274975061416626,
        6.31076455116272,
        8.335248708724976,
        10.352642297744751,
        12.720286130905151,
        15.070294857025146,
        16.801491498947144,
        19.27261257171631,
        21.626293659210205
    ],
    "2": [
        1.4267213344573975,
        3.1529483795166016,
        5.164644956588745,
        7.0830018520355225,
        8.938429832458496,
        10.398852109909058,
        12.115401983261108,
        14.130080938339233,
        16.261922597885132,
        18.40444302558899
    ],
    "3": [
        1.8443753719329834,
        3.642425775527954,
        5.82016396522522,
        7.777212381362915,
        9.67929744720459,
        11.620294094085693,
        13.158451795578003,
        15.391613960266113,
        17.5735342502594,
        19.792893648147583
    ],
    "4": [
        2.3515543937683105,
        4.65107798576355,
        6.825903415679932,
        9.003748178482056,
        10.901772260665894,
        13.40660834312439,
        16.00901746749878,
        17.68340492248535,
        19.95640754699707,
        21.761696100234985
    ]
}