{
    "0": [
        4.0932488441467285,
        9.171488285064697,
        13.19983196258545,
        18.36911916732788,
        23.252119302749634,
        28.224425315856934,
        33.2588849067688,
        38.81348776817322,
        43.99668335914612,
        49.888044357299805
    ],
    "1": [
        4.125589847564697,
        8.87979769706726,
        13.256627559661865,
        17.727952241897583,
        22.651503086090088,
        28.321035385131836,
        33.53228688240051,
        38.152562618255615,
        43.49861431121826,
        48.4462354183197
    ],
    "2": [
        4.542051792144775,
        8.380297183990479,
        12.790660619735718,
        17.367077350616455,
        23.20815944671631,
        28.604127645492554,
        35.39037227630615,
        40.21494960784912,
        45.706449031829834,
        50.868446350097656
    ],
    "3": [
        6.335952520370483,
        10.474578857421875,
        15.66548466682434,
        20.278579235076904,
        24.56721544265747,
        30.505908966064453,
        36.954962968826294,
        43.26966214179993,
        49.46754503250122,
        55.821107149124146
    ],
    "4": [
        6.285763263702393,
        10.931539535522461,
        15.809154033660889,
        21.244661331176758,
        26.70197892189026,
        31.66500997543335,
        37.14666819572449,
        43.15333390235901,
        48.82384157180786,
        54.13929533958435
    ]
}