{
    "0": [
        0.02956247329711914,
        0.0602109432220459,
        0.0914757251739502,
        0.12410545349121094,
        0.1518409252166748,
        0.1793508529663086,
        0.20901966094970703,
        0.23843097686767578,
        0.267566442489624,
        0.30127549171447754
    ],
    "1": [
        0.027789831161499023,
        0.06250643730163574,
        0.10124421119689941,
        0.1422557830810547,
        0.18074560165405273,
        0.22186827659606934,
        0.2619283199310303,
        0.30487823486328125,
        0.3495521545410156,
        0.3965773582458496
    ],
    "2": [
        0.03043675422668457,
        0.06654572486877441,
        0.10501861572265625,
        0.14192676544189453,
        0.17962265014648438,
        0.21915125846862793,
        0.2591845989227295,
        0.30103588104248047,
        0.34241199493408203,
        0.3853311538696289
    ],
    "3": [
        0.035218238830566406,
        0.07138562202453613,
        0.10871052742004395,
        0.14429903030395508,
        0.18153882026672363,
        0.21691536903381348,
        0.2520864009857178,
        0.28826332092285156,
        0.3247036933898926,
        0.35838770866394043
    ],
    "4": [
        0.029468536376953125,
        0.05967831611633301,
        0.08846807479858398,
        0.11732935905456543,
        0.14583826065063477,
        0.17522478103637695,
        0.2091524600982666,
        0.2575864791870117,
        0.2980620861053467,
        0.34209609031677246
    ]
}