{
    "0": [
        0.10340166091918945,
        0.28212714195251465,
        0.41486501693725586,
        0.5689551830291748,
        0.7538564205169678,
        0.9685220718383789,
        1.1161277294158936,
        1.268050193786621,
        1.4588255882263184,
        1.5832951068878174
    ],
    "1": [
        0.5487732887268066,
        1.0822148323059082,
        1.5099709033966064,
        2.0634984970092773,
        2.6550755500793457,
        3.1442272663116455,
        3.867299795150757,
        4.967172622680664,
        5.840463638305664,
        6.572766304016113
    ],
    "2": [
        0.09365487098693848,
        0.19948124885559082,
        0.3239936828613281,
        0.5624349117279053,
        0.7592952251434326,
        1.0715751647949219,
        1.3673787117004395,
        1.77225923538208,
        2.177638292312622,
        2.5274600982666016
    ],
    "3": [
        0.2914397716522217,
        0.7142531871795654,
        1.3724241256713867,
        1.9368398189544678,
        2.683642625808716,
        3.276365280151367,
        4.0624611377716064,
        4.817188262939453,
        5.465133905410767,
        6.102530479431152
    ],
    "4": [
        0.08664274215698242,
        0.21450543403625488,
        0.4180943965911865,
        0.5614752769470215,
        0.7872679233551025,
        1.0344643592834473,
        1.1874163150787354,
        1.4322478771209717,
        1.627889633178711,
        2.0219342708587646
    ]
}