{
    "0": [
        0.038340091705322266,
        0.09027981758117676,
        0.15162301063537598,
        0.24109268188476562,
        0.3075418472290039,
        0.3778703212738037,
        0.46107006072998047,
        0.5417025089263916,
        0.634143590927124,
        0.7182958126068115
    ],
    "1": [
        0.08178162574768066,
        0.1566753387451172,
        0.22693133354187012,
        0.33603787422180176,
        0.41593384742736816,
        0.517686128616333,
        0.6270067691802979,
        0.716954231262207,
        0.815615177154541,
        0.943763017654419
    ],
    "2": [
        0.06060647964477539,
        0.12323832511901855,
        0.22785687446594238,
        0.29779744148254395,
        0.41934919357299805,
        0.5033349990844727,
        0.6537575721740723,
        0.7731361389160156,
        0.914320707321167,
        1.0704035758972168
    ],
    "3": [
        0.038283586502075195,
        0.07744073867797852,
        0.14464020729064941,
        0.21297645568847656,
        0.2825336456298828,
        0.381819486618042,
        0.4946632385253906,
        0.6265854835510254,
        0.7544667720794678,
        0.8672893047332764
    ],
    "4": [
        0.037840843200683594,
        0.0822763442993164,
        0.15175151824951172,
        0.24334406852722168,
        0.3388056755065918,
        0.41846418380737305,
        0.5336670875549316,
        0.6920881271362305,
        0.8405013084411621,
        1.0389516353607178
    ]
}