{
    "0": [
        0.09876227378845215,
        0.27721619606018066,
        0.3865480422973633,
        0.5452725887298584,
        0.7762241363525391,
        1.0671391487121582,
        1.247779130935669,
        1.457390546798706,
        1.7328402996063232,
        1.9268522262573242
    ],
    "1": [
        0.07146739959716797,
        0.15435194969177246,
        0.2273414134979248,
        0.31087303161621094,
        0.3936648368835449,
        0.512425422668457,
        0.6300263404846191,
        0.7756617069244385,
        0.9007678031921387,
        1.02409029006958
    ],
    "2": [
        0.048748016357421875,
        0.10671710968017578,
        0.1658320426940918,
        0.24614644050598145,
        0.335585355758667,
        0.4352080821990967,
        0.5239260196685791,
        0.6371397972106934,
        0.7695643901824951,
        0.8760857582092285
    ],
    "3": [
        0.08543133735656738,
        0.20932292938232422,
        0.38802027702331543,
        0.5378174781799316,
        0.7290599346160889,
        0.9068450927734375,
        1.1460652351379395,
        1.3303561210632324,
        1.5284006595611572,
        1.8261260986328125
    ],
    "4": [
        0.06522369384765625,
        0.14219093322753906,
        0.24709272384643555,
        0.3643958568572998,
        0.5086653232574463,
        0.6508169174194336,
        0.7637045383453369,
        0.8937704563140869,
        1.0349335670471191,
        1.1758852005004883
    ]
}