{
    "0": [
        0.08134865760803223,
        0.17878127098083496,
        0.27405405044555664,
        0.36415529251098633,
        0.4563162326812744,
        0.5843791961669922,
        0.7226152420043945,
        0.8663034439086914,
        0.9832661151885986,
        1.0901026725769043
    ],
    "1": [
        0.05461454391479492,
        0.12558627128601074,
        0.19255876541137695,
        0.2795875072479248,
        0.4088273048400879,
        0.5125603675842285,
        0.6292550563812256,
        0.7632336616516113,
        0.8887691497802734,
        1.0438640117645264
    ],
    "2": [
        0.05286836624145508,
        0.11479496955871582,
        0.18060302734375,
        0.26752305030822754,
        0.35687756538391113,
        0.4958016872406006,
        0.6078183650970459,
        0.7209737300872803,
        0.89304518699646,
        1.0128352642059326
    ],
    "3": [
        0.06635713577270508,
        0.13169431686401367,
        0.19905567169189453,
        0.2709643840789795,
        0.40011072158813477,
        0.5238776206970215,
        0.6556010246276855,
        0.8229875564575195,
        1.0989797115325928,
        1.314089298248291
    ],
    "4": [
        0.06457257270812988,
        0.1509852409362793,
        0.23193097114562988,
        0.3205568790435791,
        0.38907647132873535,
        0.48349905014038086,
        0.6026597023010254,
        0.7225799560546875,
        0.805433988571167,
        0.896906852722168
    ]
}