{
    "0": [
        0.8751220703125,
        1.7468576431274414,
        3.116636037826538,
        4.489302396774292,
        5.597912073135376,
        7.108200550079346,
        8.527108192443848,
        9.72336220741272,
        11.15867280960083,
        13.242119312286377
    ],
    "1": [
        2.127614736557007,
        3.6436755657196045,
        5.325544834136963,
        6.462231159210205,
        8.097078800201416,
        10.312389373779297,
        11.820502758026123,
        13.421180963516235,
        14.56511378288269,
        15.791292905807495
    ],
    "2": [
        0.876049280166626,
        2.021791934967041,
        2.8426129817962646,
        3.7439329624176025,
        5.238069772720337,
        6.109962224960327,
        7.316711664199829,
        8.638661623001099,
        9.770605087280273,
        10.776689052581787
    ],
    "3": [
        1.0566086769104004,
        1.6929988861083984,
        2.684597969055176,
        3.926560640335083,
        5.119539499282837,
        6.29490852355957,
        7.2539215087890625,
        8.284440994262695,
        9.690940380096436,
        10.856799840927124
    ],
    "4": [
        1.1890745162963867,
        2.515117645263672,
        3.5939371585845947,
        5.302279472351074,
        6.471892595291138,
        7.931226968765259,
        9.274276971817017,
        10.564740657806396,
        11.857768297195435,
        13.163339853286743
    ]
}