{
    "0": {
        "parsing": 0.032,
        "smoothing": 0.033,
        "top": 0.096,
        "total": 0.2652719020843506
    },
    "1": {
        "parsing": 0.032,
        "smoothing": 0.034,
        "top": 0.098,
        "total": 0.26547861099243164
    },
    "2": {
        "parsing": 0.032,
        "smoothing": 0.035,
        "top": 0.094,
        "total": 0.265380859375
    },
    "3": {
        "parsing": 0.033,
        "smoothing": 0.034,
        "top": 0.099,
        "total": 0.2655937671661377
    },
    "4": {
        "parsing": 0.033,
        "smoothing": 0.034,
        "top": 0.094,
        "total": 0.26531410217285156
    }
}