{
    "0": {
        "parsing": 0.017,
        "smoothing": 0.02,
        "top": 0.018,
        "total": 0.16484761238098145
    },
    "1": {
        "parsing": 0.017,
        "smoothing": 0.02,
        "top": 0.019,
        "total": 0.16503238677978516
    },
    "2": {
        "parsing": 0.017,
        "smoothing": 0.02,
        "top": 0.019,
        "total": 0.16499876976013184
    },
    "3": {
        "parsing": 0.017,
        "smoothing": 0.02,
        "top": 0.019,
        "total": 0.16506314277648926
    },
    "4": {
        "parsing": 0.017,
        "smoothing": 0.021,
        "top": 0.018,
        "total": 0.16518783569335938
    }
}