{
    "0": {
        "parsing": 0.018,
        "smoothing": 0.022,
        "top": 0.021,
        "total": 0.16503667831420898
    },
    "1": {
        "parsing": 0.019,
        "smoothing": 0.022,
        "top": 0.019,
        "total": 0.16495561599731445
    },
    "2": {
        "parsing": 0.019,
        "smoothing": 0.022,
        "top": 0.02,
        "total": 0.16512537002563477
    },
    "3": {
        "parsing": 0.02,
        "smoothing": 0.023,
        "top": 0.021,
        "total": 0.16520333290100098
    },
    "4": {
        "parsing": 0.019,
        "smoothing": 0.022,
        "top": 0.02,
        "total": 0.16521072387695312
    }
}