{
    "0": {
        "parsing": 0.014,
        "smoothing": 0.012,
        "top": 0.011,
        "total": 0.11475634574890137
    },
    "1": {
        "parsing": 0.014,
        "smoothing": 0.012,
        "top": 0.011,
        "total": 0.1149754524230957
    },
    "2": {
        "parsing": 0.013,
        "smoothing": 0.012,
        "top": 0.011,
        "total": 0.11504149436950684
    },
    "3": {
        "parsing": 0.014,
        "smoothing": 0.012,
        "top": 0.011,
        "total": 0.1148977279663086
    },
    "4": {
        "parsing": 0.013,
        "smoothing": 0.012,
        "top": 0.011,
        "total": 0.11493802070617676
    }
}