{
    "0": {
        "parsing": 0.014,
        "smoothing": 0.011,
        "top": 0.011,
        "total": 0.11486601829528809
    },
    "1": {
        "parsing": 0.014,
        "smoothing": 0.012,
        "top": 0.011,
        "total": 0.11496925354003906
    },
    "2": {
        "parsing": 0.014,
        "smoothing": 0.012,
        "top": 0.011,
        "total": 0.11488008499145508
    },
    "3": {
        "parsing": 0.014,
        "smoothing": 0.011,
        "top": 0.011,
        "total": 0.11499381065368652
    },
    "4": {
        "parsing": 0.013,
        "smoothing": 0.012,
        "top": 0.011,
        "total": 0.11478590965270996
    }
}