{
    "0": {
        "parsing": 0.012,
        "smoothing": 0.009,
        "top": 0.01,
        "total": 0.1149740219116211
    },
    "1": {
        "parsing": 0.013,
        "smoothing": 0.009,
        "top": 0.011,
        "total": 0.11484456062316895
    },
    "2": {
        "parsing": 0.012,
        "smoothing": 0.009,
        "top": 0.011,
        "total": 0.11478638648986816
    },
    "3": {
        "parsing": 0.013,
        "smoothing": 0.009,
        "top": 0.011,
        "total": 0.11510729789733887
    },
    "4": {
        "parsing": 0.012,
        "smoothing": 0.009,
        "top": 0.011,
        "total": 0.11501002311706543
    }
}