{
    "0": {
        "parsing": 0.028,
        "smoothing": 0.048,
        "top": 0.044,
        "total": 0.21507763862609863
    },
    "1": {
        "parsing": 0.028,
        "smoothing": 0.047,
        "top": 0.044,
        "total": 0.21529340744018555
    },
    "2": {
        "parsing": 0.028,
        "smoothing": 0.049,
        "top": 0.042,
        "total": 0.21544408798217773
    },
    "3": {
        "parsing": 0.028,
        "smoothing": 0.047,
        "top": 0.043,
        "total": 0.21516633033752441
    },
    "4": {
        "parsing": 0.028,
        "smoothing": 0.045,
        "top": 0.043,
        "total": 0.21524930000305176
    }
}