{
    "0": {
        "parsing": 0.02,
        "smoothing": 0.024,
        "top": 0.023,
        "total": 0.16495537757873535
    },
    "1": {
        "parsing": 0.02,
        "smoothing": 0.024,
        "top": 0.023,
        "total": 0.16512441635131836
    },
    "2": {
        "parsing": 0.021,
        "smoothing": 0.024,
        "top": 0.024,
        "total": 0.16516780853271484
    },
    "3": {
        "parsing": 0.021,
        "smoothing": 0.024,
        "top": 0.023,
        "total": 0.16516804695129395
    },
    "4": {
        "parsing": 0.021,
        "smoothing": 0.024,
        "top": 0.024,
        "total": 0.1650989055633545
    }
}