{
    "0": {
        "parsing": 0.02,
        "smoothing": 0.023,
        "top": 0.021,
        "total": 0.1650857925415039
    },
    "1": {
        "parsing": 0.02,
        "smoothing": 0.024,
        "top": 0.022,
        "total": 0.1650552749633789
    },
    "2": {
        "parsing": 0.02,
        "smoothing": 0.023,
        "top": 0.021,
        "total": 0.1650252342224121
    },
    "3": {
        "parsing": 0.019,
        "smoothing": 0.025,
        "top": 0.022,
        "total": 0.16500544548034668
    },
    "4": {
        "parsing": 0.019,
        "smoothing": 0.024,
        "top": 0.022,
        "total": 0.16505217552185059
    }
}