{
    "0": {
        "parsing": 0.07,
        "smoothing": 0.289,
        "top": 0.246,
        "total": 0.7167179584503174
    },
    "1": {
        "parsing": 0.069,
        "smoothing": 0.298,
        "top": 0.239,
        "total": 0.7165589332580566
    },
    "2": {
        "parsing": 0.069,
        "smoothing": 0.295,
        "top": 0.247,
        "total": 0.7167892456054688
    },
    "3": {
        "parsing": 0.069,
        "smoothing": 0.296,
        "top": 0.242,
        "total": 0.7167708873748779
    },
    "4": {
        "parsing": 0.069,
        "smoothing": 0.286,
        "top": 0.251,
        "total": 0.7166674137115479
    }
}