{
    "0": {
        "parsing": 0.027,
        "smoothing": 0.04,
        "top": 0.041,
        "total": 0.21535778045654297
    },
    "1": {
        "parsing": 0.026,
        "smoothing": 0.04,
        "top": 0.039,
        "total": 0.21509337425231934
    },
    "2": {
        "parsing": 0.026,
        "smoothing": 0.042,
        "top": 0.039,
        "total": 0.21518659591674805
    },
    "3": {
        "parsing": 0.026,
        "smoothing": 0.041,
        "top": 0.04,
        "total": 0.21531009674072266
    },
    "4": {
        "parsing": 0.026,
        "smoothing": 0.041,
        "top": 0.039,
        "total": 0.21515727043151855
    }
}