{
    "0": {
        "parsing": 0.023,
        "smoothing": 0.029,
        "top": 0.027,
        "total": 0.1650235652923584
    },
    "1": {
        "parsing": 0.023,
        "smoothing": 0.029,
        "top": 0.027,
        "total": 0.16499018669128418
    },
    "2": {
        "parsing": 0.023,
        "smoothing": 0.03,
        "top": 0.027,
        "total": 0.16505765914916992
    },
    "3": {
        "parsing": 0.023,
        "smoothing": 0.03,
        "top": 0.027,
        "total": 0.16530895233154297
    },
    "4": {
        "parsing": 0.023,
        "smoothing": 0.03,
        "top": 0.026,
        "total": 0.1651465892791748
    }
}