{
    "0": {
        "parsing": 0.023,
        "smoothing": 0.03,
        "top": 0.027,
        "total": 0.16515445709228516
    },
    "1": {
        "parsing": 0.024,
        "smoothing": 0.03,
        "top": 0.028,
        "total": 0.16496062278747559
    },
    "2": {
        "parsing": 0.024,
        "smoothing": 0.03,
        "top": 0.028,
        "total": 0.16532325744628906
    },
    "3": {
        "parsing": 0.023,
        "smoothing": 0.031,
        "top": 0.028,
        "total": 0.16516375541687012
    },
    "4": {
        "parsing": 0.023,
        "smoothing": 0.03,
        "top": 0.029,
        "total": 0.16523337364196777
    }
}