{
    "0": {
        "parsing": 0.046,
        "smoothing": 0.127,
        "top": 0.153,
        "total": 0.417133092880249
    },
    "1": {
        "parsing": 0.046,
        "smoothing": 0.126,
        "top": 0.138,
        "total": 0.41575098037719727
    },
    "2": {
        "parsing": 0.046,
        "smoothing": 0.125,
        "top": 0.153,
        "total": 0.41584086418151855
    },
    "3": {
        "parsing": 0.046,
        "smoothing": 0.127,
        "top": 0.144,
        "total": 0.41564202308654785
    },
    "4": {
        "parsing": 0.045,
        "smoothing": 0.126,
        "top": 0.137,
        "total": 0.4156811237335205
    }
}