{
    "0": {
        "parsing": 0.014,
        "smoothing": 0.011,
        "top": 0.011,
        "total": 0.1148076057434082
    },
    "1": {
        "parsing": 0.014,
        "smoothing": 0.011,
        "top": 0.011,
        "total": 0.1148829460144043
    },
    "2": {
        "parsing": 0.014,
        "smoothing": 0.011,
        "top": 0.011,
        "total": 0.11483454704284668
    },
    "3": {
        "parsing": 0.014,
        "smoothing": 0.011,
        "top": 0.011,
        "total": 0.11487293243408203
    },
    "4": {
        "parsing": 0.014,
        "smoothing": 0.011,
        "top": 0.011,
        "total": 0.11491680145263672
    }
}