{
    "0": {
        "parsing": 0.057,
        "smoothing": 0.249,
        "top": 0.18,
        "total": 0.6165416240692139
    },
    "1": {
        "parsing": 0.06,
        "smoothing": 0.238,
        "top": 0.176,
        "total": 0.5664453506469727
    },
    "2": {
        "parsing": 0.058,
        "smoothing": 0.242,
        "top": 0.176,
        "total": 0.5661687850952148
    },
    "3": {
        "parsing": 0.058,
        "smoothing": 0.246,
        "top": 0.186,
        "total": 0.5662627220153809
    },
    "4": {
        "parsing": 0.059,
        "smoothing": 0.239,
        "top": 0.176,
        "total": 0.56626296043396
    }
}