{
    "0": {
        "parsing": 0.018,
        "smoothing": 0.022,
        "top": 0.018,
        "total": 0.164841890335083
    },
    "1": {
        "parsing": 0.018,
        "smoothing": 0.022,
        "top": 0.018,
        "total": 0.1651744842529297
    },
    "2": {
        "parsing": 0.017,
        "smoothing": 0.022,
        "top": 0.018,
        "total": 0.16519618034362793
    },
    "3": {
        "parsing": 0.017,
        "smoothing": 0.021,
        "top": 0.019,
        "total": 0.16504573822021484
    },
    "4": {
        "parsing": 0.017,
        "smoothing": 0.021,
        "top": 0.018,
        "total": 0.16529178619384766
    }
}