{
    "0": {
        "parsing": 0.18,
        "smoothing": 1.1,
        "top": 0.943,
        "total": 2.3212971687316895
    },
    "1": {
        "parsing": 0.189,
        "smoothing": 1.141,
        "top": 0.988,
        "total": 2.4216716289520264
    },
    "2": {
        "parsing": 0.185,
        "smoothing": 1.094,
        "top": 0.975,
        "total": 2.3712730407714844
    },
    "3": {
        "parsing": 0.186,
        "smoothing": 1.082,
        "top": 0.966,
        "total": 2.372623920440674
    },
    "4": {
        "parsing": 0.189,
        "smoothing": 1.146,
        "top": 0.985,
        "total": 2.4230635166168213
    }
}