{
    "0": {
        "parsing": 0.012,
        "smoothing": 0.006,
        "top": 0.009,
        "total": 0.11472821235656738
    },
    "1": {
        "parsing": 0.013,
        "smoothing": 0.006,
        "top": 0.01,
        "total": 0.11485886573791504
    },
    "2": {
        "parsing": 0.013,
        "smoothing": 0.006,
        "top": 0.01,
        "total": 0.11485815048217773
    },
    "3": {
        "parsing": 0.013,
        "smoothing": 0.006,
        "top": 0.009,
        "total": 0.11491703987121582
    },
    "4": {
        "parsing": 0.012,
        "smoothing": 0.006,
        "top": 0.01,
        "total": 0.1149287223815918
    }
}