{
    "0": {
        "parsing": 0.027,
        "smoothing": 0.048,
        "top": 0.043,
        "total": 0.21537256240844727
    },
    "1": {
        "parsing": 0.026,
        "smoothing": 0.047,
        "top": 0.038,
        "total": 0.2151808738708496
    },
    "2": {
        "parsing": 0.026,
        "smoothing": 0.049,
        "top": 0.039,
        "total": 0.21522927284240723
    },
    "3": {
        "parsing": 0.027,
        "smoothing": 0.052,
        "top": 0.039,
        "total": 0.21542811393737793
    },
    "4": {
        "parsing": 0.026,
        "smoothing": 0.048,
        "top": 0.04,
        "total": 0.21528244018554688
    }
}