{
    "0": {
        "parsing": 0.18,
        "smoothing": 1.086,
        "top": 0.975,
        "total": 2.3714804649353027
    },
    "1": {
        "parsing": 0.19,
        "smoothing": 1.1,
        "top": 0.969,
        "total": 2.371851682662964
    },
    "2": {
        "parsing": 0.182,
        "smoothing": 1.092,
        "top": 0.992,
        "total": 2.3718860149383545
    },
    "3": {
        "parsing": 0.186,
        "smoothing": 1.082,
        "top": 0.912,
        "total": 2.3210079669952393
    },
    "4": {
        "parsing": 0.186,
        "smoothing": 1.085,
        "top": 0.971,
        "total": 2.373668909072876
    }
}