{
    "0": {
        "parsing": 0.073,
        "smoothing": 0.319,
        "top": 0.269,
        "total": 0.7667491436004639
    },
    "1": {
        "parsing": 0.073,
        "smoothing": 0.323,
        "top": 0.277,
        "total": 0.8169527053833008
    },
    "2": {
        "parsing": 0.073,
        "smoothing": 0.336,
        "top": 0.266,
        "total": 0.7667145729064941
    },
    "3": {
        "parsing": 0.074,
        "smoothing": 0.334,
        "top": 0.292,
        "total": 0.8167600631713867
    },
    "4": {
        "parsing": 0.076,
        "smoothing": 0.339,
        "top": 0.283,
        "total": 0.8177807331085205
    }
}