{
    "0": {
        "parsing": 0.072,
        "smoothing": 0.336,
        "top": 0.371,
        "total": 0.9172804355621338
    },
    "1": {
        "parsing": 0.071,
        "smoothing": 0.333,
        "top": 0.303,
        "total": 0.8171176910400391
    },
    "2": {
        "parsing": 0.072,
        "smoothing": 0.335,
        "top": 0.314,
        "total": 0.8170785903930664
    },
    "3": {
        "parsing": 0.071,
        "smoothing": 0.342,
        "top": 0.288,
        "total": 0.8170621395111084
    },
    "4": {
        "parsing": 0.071,
        "smoothing": 0.341,
        "top": 0.297,
        "total": 0.8168535232543945
    }
}