{
    "0": {
        "parsing": 0.096,
        "smoothing": 0.571,
        "top": 0.382,
        "total": 1.1676390171051025
    },
    "1": {
        "parsing": 0.096,
        "smoothing": 0.582,
        "top": 0.395,
        "total": 1.2200987339019775
    },
    "2": {
        "parsing": 0.097,
        "smoothing": 0.575,
        "top": 0.388,
        "total": 1.1690549850463867
    },
    "3": {
        "parsing": 0.097,
        "smoothing": 0.558,
        "top": 0.396,
        "total": 1.169083833694458
    },
    "4": {
        "parsing": 0.095,
        "smoothing": 0.534,
        "top": 0.408,
        "total": 1.168543815612793
    }
}