{
    "0": {
        "parsing": 0.011,
        "smoothing": 0.003,
        "top": 0.006,
        "total": 0.11504840850830078
    },
    "1": {
        "parsing": 0.01,
        "smoothing": 0.003,
        "top": 0.006,
        "total": 0.1147758960723877
    },
    "2": {
        "parsing": 0.011,
        "smoothing": 0.003,
        "top": 0.006,
        "total": 0.11489439010620117
    },
    "3": {
        "parsing": 0.011,
        "smoothing": 0.003,
        "top": 0.006,
        "total": 0.11482596397399902
    },
    "4": {
        "parsing": 0.01,
        "smoothing": 0.003,
        "top": 0.006,
        "total": 0.11478829383850098
    }
}