{
    "0": {
        "parsing": 0.018,
        "smoothing": 0.022,
        "top": 0.018,
        "total": 0.16495752334594727
    },
    "1": {
        "parsing": 0.018,
        "smoothing": 0.021,
        "top": 0.018,
        "total": 0.16498565673828125
    },
    "2": {
        "parsing": 0.018,
        "smoothing": 0.021,
        "top": 0.018,
        "total": 0.16500425338745117
    },
    "3": {
        "parsing": 0.018,
        "smoothing": 0.021,
        "top": 0.017,
        "total": 0.1649794578552246
    },
    "4": {
        "parsing": 0.018,
        "smoothing": 0.022,
        "top": 0.019,
        "total": 0.1650381088256836
    }
}