{
    "0": {
        "parsing": 0.028,
        "smoothing": 0.051,
        "top": 0.043,
        "total": 0.2151021957397461
    },
    "1": {
        "parsing": 0.028,
        "smoothing": 0.05,
        "top": 0.043,
        "total": 0.2152855396270752
    },
    "2": {
        "parsing": 0.028,
        "smoothing": 0.05,
        "top": 0.043,
        "total": 0.21535325050354004
    },
    "3": {
        "parsing": 0.028,
        "smoothing": 0.05,
        "top": 0.043,
        "total": 0.21526694297790527
    },
    "4": {
        "parsing": 0.028,
        "smoothing": 0.051,
        "top": 0.044,
        "total": 0.21529650688171387
    }
}