{
    "0": {
        "parsing": 0.057,
        "smoothing": 0.207,
        "top": 0.161,
        "total": 0.5667471885681152
    },
    "1": {
        "parsing": 0.057,
        "smoothing": 0.207,
        "top": 0.15,
        "total": 0.5162410736083984
    },
    "2": {
        "parsing": 0.058,
        "smoothing": 0.194,
        "top": 0.153,
        "total": 0.5161652565002441
    },
    "3": {
        "parsing": 0.058,
        "smoothing": 0.201,
        "top": 0.147,
        "total": 0.5163869857788086
    },
    "4": {
        "parsing": 0.057,
        "smoothing": 0.227,
        "top": 0.169,
        "total": 0.5667402744293213
    }
}