{
    "0": {
        "parsing": 0.075,
        "smoothing": 0.409,
        "top": 0.364,
        "total": 0.9674708843231201
    },
    "1": {
        "parsing": 0.075,
        "smoothing": 0.449,
        "top": 0.376,
        "total": 1.0174918174743652
    },
    "2": {
        "parsing": 0.074,
        "smoothing": 0.401,
        "top": 0.333,
        "total": 0.9171645641326904
    },
    "3": {
        "parsing": 0.075,
        "smoothing": 0.398,
        "top": 0.348,
        "total": 0.9173662662506104
    },
    "4": {
        "parsing": 0.075,
        "smoothing": 0.421,
        "top": 0.357,
        "total": 0.9674491882324219
    }
}