{
    "0": {
        "parsing": 0.067,
        "smoothing": 0.383,
        "top": 0.283,
        "total": 0.8176298141479492
    },
    "1": {
        "parsing": 0.068,
        "smoothing": 0.368,
        "top": 0.291,
        "total": 0.8669793605804443
    },
    "2": {
        "parsing": 0.067,
        "smoothing": 0.398,
        "top": 0.27,
        "total": 0.8176710605621338
    },
    "3": {
        "parsing": 0.068,
        "smoothing": 0.362,
        "top": 0.282,
        "total": 0.8186914920806885
    },
    "4": {
        "parsing": 0.066,
        "smoothing": 0.367,
        "top": 0.282,
        "total": 0.8170285224914551
    }
}