{
    "0": [
        0.187,
        0.233,
        0.272,
        0.304,
        0.347,
        0.389,
        0.417,
        0.445,
        0.475,
        0.506
    ],
    "1": [
        0.137,
        0.178,
        0.208,
        0.238,
        0.271,
        0.295,
        0.318,
        0.364,
        0.426,
        0.455
    ],
    "2": [
        0.156,
        0.207,
        0.232,
        0.259,
        0.287,
        0.315,
        0.338,
        0.37,
        0.407,
        0.437
    ],
    "3": [
        0.146,
        0.194,
        0.238,
        0.28,
        0.321,
        0.349,
        0.374,
        0.408,
        0.463,
        0.528
    ],
    "4": [
        0.134,
        0.176,
        0.207,
        0.237,
        0.269,
        0.293,
        0.317,
        0.349,
        0.385,
        0.42
    ]
}