{
    "0": [
        0.089,
        0.092,
        0.095,
        0.097,
        0.1,
        0.101,
        0.103,
        0.105,
        0.107
    ],
    "1": [
        0.075,
        0.078,
        0.082,
        0.097,
        0.106,
        0.109,
        0.112,
        0.114,
        0.117
    ],
    "2": [
        0.092,
        0.095,
        0.098,
        0.101,
        0.106,
        0.108,
        0.11,
        0.113,
        0.116
    ],
    "3": [
        0.072,
        0.074,
        0.077,
        0.079,
        0.082,
        0.084,
        0.086,
        0.088,
        0.09
    ],
    "4": [
        0.071,
        0.074,
        0.076,
        0.078,
        0.082,
        0.084,
        0.086,
        0.088,
        0.09
    ]
}