{
    "0": [
        0.192,
        0.245,
        0.291,
        0.367,
        0.412,
        0.496,
        0.603,
        0.705,
        0.853,
        1.019
    ],
    "1": [
        0.146,
        0.188,
        0.22,
        0.265,
        0.317,
        0.392,
        0.506,
        0.663,
        0.813,
        0.968
    ],
    "2": [
        0.13,
        0.155,
        0.187,
        0.213,
        0.242,
        0.283,
        0.349,
        0.441,
        0.576,
        0.736
    ],
    "3": [
        0.141,
        0.178,
        0.211,
        0.25,
        0.292,
        0.36,
        0.455,
        0.574,
        0.725,
        0.931
    ],
    "4": [
        0.129,
        0.152,
        0.175,
        0.203,
        0.229,
        0.294,
        0.388,
        0.483,
        0.693,
        0.936
    ]
}