{
    "0": [
        0.083,
        0.093,
        0.1,
        0.108,
        0.122,
        0.134,
        0.147,
        0.164,
        0.192,
        0.223
    ],
    "1": [
        0.083,
        0.092,
        0.099,
        0.107,
        0.121,
        0.134,
        0.148,
        0.164,
        0.192,
        0.225
    ],
    "2": [
        0.086,
        0.096,
        0.103,
        0.111,
        0.125,
        0.139,
        0.154,
        0.17,
        0.198,
        0.237
    ],
    "3": [
        0.085,
        0.095,
        0.102,
        0.11,
        0.126,
        0.14,
        0.154,
        0.172,
        0.199,
        0.233
    ],
    "4": [
        0.084,
        0.095,
        0.103,
        0.112,
        0.127,
        0.141,
        0.155,
        0.173,
        0.202,
        0.236
    ]
}