{
    "0": [
        0.091,
        0.094,
        0.101,
        0.109,
        0.124,
        0.138,
        0.161,
        0.202,
        0.283,
        0.427
    ],
    "1": [
        0.075,
        0.078,
        0.085,
        0.092,
        0.108,
        0.123,
        0.148,
        0.191,
        0.254,
        0.404
    ],
    "2": [
        0.076,
        0.079,
        0.085,
        0.091,
        0.106,
        0.129,
        0.161,
        0.22,
        0.283,
        0.436
    ],
    "3": [
        0.075,
        0.079,
        0.087,
        0.097,
        0.121,
        0.144,
        0.171,
        0.229,
        0.299,
        0.461
    ],
    "4": [
        0.091,
        0.094,
        0.102,
        0.109,
        0.126,
        0.141,
        0.165,
        0.208,
        0.274,
        0.434
    ]
}