{
    "0": [
        0.128,
        0.204,
        0.369,
        0.622,
        1.119,
        1.912,
        2.964,
        4.048,
        4.983,
        5.627
    ],
    "1": [
        0.115,
        0.164,
        0.286,
        0.543,
        1.055,
        1.925,
        3.013,
        4.122,
        5.12,
        5.878
    ],
    "2": [
        0.116,
        0.173,
        0.305,
        0.542,
        1.063,
        1.936,
        3.019,
        4.126,
        5.091,
        5.796
    ],
    "3": [
        0.132,
        0.19,
        0.336,
        0.586,
        1.135,
        1.95,
        3.04,
        4.135,
        5.082,
        5.775
    ],
    "4": [
        0.121,
        0.171,
        0.334,
        0.577,
        1.121,
        1.962,
        3.037,
        4.114,
        5.055,
        5.707
    ]
}