{
    "0": [
        2.573,
        20.758,
        48.044,
        73.913,
        102.547,
        127.551,
        155.711,
        180.399,
        203.572,
        225.84
    ],
    "1": [
        2.143,
        20.631,
        49.787,
        76.488,
        105.991,
        131.469,
        159.956,
        184.716,
        207.829,
        230.262
    ],
    "2": [
        2.071,
        20.711,
        50.935,
        78.322,
        109.042,
        136.047,
        164.826,
        188.848,
        211.605,
        233.703
    ],
    "3": [
        2.086,
        20.55,
        49.499,
        75.871,
        104.756,
        129.949,
        158.264,
        183.434,
        206.504,
        229.21
    ],
    "4": [
        2.054,
        21.243,
        51.761,
        79.768,
        110.91,
        138.104,
        168.121,
        194.242,
        218.372,
        241.982
    ]
}