{
    "0": [
        0.724,
        2.138,
        4.024,
        5.902,
        8.414,
        12.779,
        18.045,
        24.123,
        32.359,
        43.885
    ],
    "1": [
        0.626,
        2.011,
        3.707,
        5.566,
        7.947,
        12.276,
        17.36,
        23.35,
        31.586,
        43.84
    ],
    "2": [
        0.627,
        2.119,
        3.84,
        5.71,
        8.1,
        12.406,
        17.488,
        23.605,
        31.858,
        43.887
    ],
    "3": [
        0.659,
        2.061,
        3.797,
        5.717,
        8.156,
        12.586,
        17.807,
        24.208,
        33.057,
        45.538
    ],
    "4": [
        0.628,
        2.016,
        3.745,
        5.65,
        8.134,
        12.593,
        17.851,
        24.127,
        32.677,
        45.118
    ]
}