{
    "0": [
        0.139,
        0.163,
        0.184,
        0.21,
        0.236,
        0.265,
        0.301,
        0.341,
        0.39,
        0.459
    ],
    "1": [
        0.124,
        0.147,
        0.168,
        0.196,
        0.224,
        0.273,
        0.336,
        0.38,
        0.427,
        0.481
    ],
    "2": [
        0.125,
        0.164,
        0.197,
        0.242,
        0.286,
        0.319,
        0.355,
        0.393,
        0.442,
        0.507
    ],
    "3": [
        0.12,
        0.145,
        0.167,
        0.194,
        0.238,
        0.286,
        0.326,
        0.385,
        0.452,
        0.508
    ],
    "4": [
        0.132,
        0.163,
        0.183,
        0.209,
        0.248,
        0.286,
        0.322,
        0.364,
        0.413,
        0.485
    ]
}