{
    "0": [
        0.297,
        0.486,
        0.597,
        0.742,
        0.912,
        1.266,
        1.613,
        2.009,
        2.542,
        3.299
    ],
    "1": [
        0.228,
        0.41,
        0.528,
        0.673,
        0.821,
        1.097,
        1.374,
        1.775,
        2.35,
        3.168
    ],
    "2": [
        0.196,
        0.331,
        0.438,
        0.577,
        0.741,
        1.01,
        1.285,
        1.658,
        2.189,
        2.976
    ],
    "3": [
        0.204,
        0.336,
        0.455,
        0.624,
        0.798,
        1.086,
        1.358,
        1.747,
        2.281,
        3.044
    ],
    "4": [
        0.212,
        0.342,
        0.44,
        0.579,
        0.752,
        1.108,
        1.38,
        1.757,
        2.365,
        3.121
    ]
}