{
    "0": [
        0.11,
        0.119,
        0.122,
        0.124,
        0.13,
        0.132,
        0.133
    ],
    "1": [
        0.186,
        0.195,
        0.197,
        0.2,
        0.202,
        0.208,
        0.209
    ],
    "2": [
        0.097,
        0.101,
        0.103,
        0.105,
        0.106,
        0.108,
        0.109
    ],
    "3": [
        0.086,
        0.09,
        0.093,
        0.095,
        0.096,
        0.098,
        0.099
    ],
    "4": [
        0.093,
        0.097,
        0.1,
        0.102,
        0.104,
        0.105,
        0.107
    ]
}