{
    "0": [
        0.069,
        0.072,
        0.073,
        0.075,
        0.076,
        0.077,
        0.078
    ],
    "1": [
        0.069,
        0.072,
        0.074,
        0.075,
        0.076,
        0.077,
        0.078
    ],
    "2": [
        0.07,
        0.072,
        0.074,
        0.075,
        0.076,
        0.078,
        0.078
    ],
    "3": [
        0.069,
        0.071,
        0.073,
        0.074,
        0.076,
        0.077,
        0.078
    ],
    "4": [
        0.069,
        0.072,
        0.074,
        0.075,
        0.076,
        0.077,
        0.078
    ]
}