{
    "0": [
        1.679,
        3.813,
        5.678,
        8.148,
        10.918,
        14.26,
        19.644,
        26.938,
        38.834,
        57.909
    ],
    "1": [
        1.641,
        3.58,
        5.396,
        7.755,
        10.352,
        13.802,
        19.243,
        26.536,
        38.504,
        59.376
    ],
    "2": [
        1.851,
        3.846,
        5.724,
        8.139,
        10.813,
        14.25,
        19.823,
        27.356,
        39.659,
        59.594
    ],
    "3": [
        1.925,
        3.882,
        5.741,
        8.15,
        10.818,
        14.282,
        19.74,
        27.537,
        40.349,
        61.365
    ],
    "4": [
        1.94,
        3.961,
        5.882,
        8.384,
        11.089,
        14.74,
        20.406,
        28.388,
        40.884,
        61.322
    ]
}