{
    "0": [
        12.519,
        21.029,
        34.594,
        44.665,
        57.466,
        70.864,
        90.141,
        114.147,
        149.135,
        230.834
    ],
    "1": [
        11.417,
        20.055,
        33.828,
        43.854,
        56.886,
        70.805,
        90.81,
        115.952,
        152.828,
        235.279
    ],
    "2": [
        11.407,
        20.194,
        34.272,
        44.422,
        57.34,
        70.845,
        90.792,
        115.467,
        151.713,
        233.14
    ],
    "3": [
        11.214,
        19.956,
        33.706,
        43.815,
        56.769,
        70.898,
        90.685,
        116.028,
        153.373,
        240.859
    ],
    "4": [
        11.571,
        20.607,
        34.992,
        45.423,
        58.965,
        72.855,
        93.06,
        118.08,
        155.266,
        244.247
    ]
}