{
    "0": [
        11.621,
        20.28,
        34.173,
        44.294,
        57.21,
        70.97,
        90.5,
        114.999,
        151.887,
        237.085
    ],
    "1": [
        11.411,
        20.055,
        33.914,
        44.004,
        56.907,
        70.55,
        90.046,
        114.939,
        150.935,
        234.296
    ],
    "2": [
        11.719,
        20.66,
        34.77,
        45.009,
        58.043,
        71.794,
        91.701,
        116.406,
        152.378,
        233.086
    ],
    "3": [
        11.327,
        20.004,
        33.999,
        44.288,
        57.291,
        71.457,
        91.383,
        116.79,
        153.53,
        238.817
    ],
    "4": [
        11.606,
        20.388,
        34.341,
        44.623,
        58.024,
        71.789,
        91.731,
        116.528,
        153.106,
        235.895
    ]
}