{
    "0": [
        0.343,
        0.627,
        0.936,
        1.231,
        1.595,
        2.02,
        2.552,
        3.257,
        4.347,
        5.975
    ],
    "1": [
        0.336,
        0.611,
        0.922,
        1.221,
        1.582,
        2.005,
        2.576,
        3.276,
        4.346,
        5.947
    ],
    "2": [
        0.337,
        0.655,
        0.955,
        1.253,
        1.618,
        2.057,
        2.742,
        3.506,
        4.581,
        6.193
    ],
    "3": [
        0.344,
        0.741,
        1.025,
        1.314,
        1.674,
        2.172,
        2.701,
        3.443,
        4.52,
        6.114
    ],
    "4": [
        0.426,
        0.726,
        1.04,
        1.396,
        1.788,
        2.217,
        2.753,
        3.466,
        4.563,
        6.204
    ]
}