{
    "0": {
        "parsing": 0.019,
        "smoothing": 0.013,
        "top": 0.02,
        "total": 0.16493487358093262
    },
    "1": {
        "parsing": 0.018,
        "smoothing": 0.013,
        "top": 0.02,
        "total": 0.16512346267700195
    },
    "2": {
        "parsing": 0.018,
        "smoothing": 0.013,
        "top": 0.02,
        "total": 0.16500258445739746
    },
    "3": {
        "parsing": 0.018,
        "smoothing": 0.014,
        "top": 0.02,
        "total": 0.16503453254699707
    },
    "4": {
        "parsing": 0.018,
        "smoothing": 0.014,
        "top": 0.02,
        "total": 0.16506361961364746
    }
}