{
    "0": {
        "parsing": 0.027,
        "smoothing": 0.049,
        "top": 0.039,
        "total": 0.21532416343688965
    },
    "1": {
        "parsing": 0.027,
        "smoothing": 0.046,
        "top": 0.04,
        "total": 0.21532297134399414
    },
    "2": {
        "parsing": 0.027,
        "smoothing": 0.052,
        "top": 0.039,
        "total": 0.21543383598327637
    },
    "3": {
        "parsing": 0.026,
        "smoothing": 0.047,
        "top": 0.04,
        "total": 0.21535611152648926
    },
    "4": {
        "parsing": 0.026,
        "smoothing": 0.046,
        "top": 0.039,
        "total": 0.2153627872467041
    }
}