{
    "0": {
        "parsing": 0.019,
        "smoothing": 0.019,
        "top": 0.02,
        "total": 0.164947509765625
    },
    "1": {
        "parsing": 0.017,
        "smoothing": 0.018,
        "top": 0.019,
        "total": 0.16521430015563965
    },
    "2": {
        "parsing": 0.018,
        "smoothing": 0.018,
        "top": 0.02,
        "total": 0.1650559902191162
    },
    "3": {
        "parsing": 0.017,
        "smoothing": 0.018,
        "top": 0.019,
        "total": 0.16501474380493164
    },
    "4": {
        "parsing": 0.018,
        "smoothing": 0.018,
        "top": 0.019,
        "total": 0.16501379013061523
    }
}