{
    "0": {
        "parsing": 0.047,
        "smoothing": 0.124,
        "top": 0.132,
        "total": 0.41590452194213867
    },
    "1": {
        "parsing": 0.049,
        "smoothing": 0.118,
        "top": 0.145,
        "total": 0.41585850715637207
    },
    "2": {
        "parsing": 0.047,
        "smoothing": 0.123,
        "top": 0.142,
        "total": 0.41597867012023926
    },
    "3": {
        "parsing": 0.047,
        "smoothing": 0.124,
        "top": 0.132,
        "total": 0.4159071445465088
    },
    "4": {
        "parsing": 0.049,
        "smoothing": 0.119,
        "top": 0.139,
        "total": 0.41582775115966797
    }
}