{
    "0": {
        "parsing": 0.025,
        "smoothing": 0.031,
        "top": 0.029,
        "total": 0.21550869941711426
    },
    "1": {
        "parsing": 0.023,
        "smoothing": 0.029,
        "top": 0.027,
        "total": 0.16510415077209473
    },
    "2": {
        "parsing": 0.023,
        "smoothing": 0.03,
        "top": 0.028,
        "total": 0.16496062278747559
    },
    "3": {
        "parsing": 0.023,
        "smoothing": 0.03,
        "top": 0.027,
        "total": 0.1650240421295166
    },
    "4": {
        "parsing": 0.023,
        "smoothing": 0.03,
        "top": 0.028,
        "total": 0.16513371467590332
    }
}