{
    "0": {
        "parsing": 0.044,
        "smoothing": 0.099,
        "top": 0.129,
        "total": 0.3693807125091553
    },
    "1": {
        "parsing": 0.044,
        "smoothing": 0.1,
        "top": 0.125,
        "total": 0.36574387550354004
    },
    "2": {
        "parsing": 0.044,
        "smoothing": 0.1,
        "top": 0.132,
        "total": 0.4158444404602051
    },
    "3": {
        "parsing": 0.044,
        "smoothing": 0.1,
        "top": 0.135,
        "total": 0.36568593978881836
    },
    "4": {
        "parsing": 0.043,
        "smoothing": 0.102,
        "top": 0.128,
        "total": 0.3731696605682373
    }
}