{
    "0": {
        "parsing": 0.012,
        "smoothing": 0.006,
        "top": 0.009,
        "total": 0.11491227149963379
    },
    "1": {
        "parsing": 0.011,
        "smoothing": 0.006,
        "top": 0.009,
        "total": 0.11492705345153809
    },
    "2": {
        "parsing": 0.012,
        "smoothing": 0.006,
        "top": 0.009,
        "total": 0.11498737335205078
    },
    "3": {
        "parsing": 0.012,
        "smoothing": 0.006,
        "top": 0.009,
        "total": 0.1148381233215332
    },
    "4": {
        "parsing": 0.012,
        "smoothing": 0.006,
        "top": 0.009,
        "total": 0.11484336853027344
    }
}