{
    "0": {
        "parsing": 0.013,
        "smoothing": 0.009,
        "top": 0.011,
        "total": 0.11489152908325195
    },
    "1": {
        "parsing": 0.013,
        "smoothing": 0.009,
        "top": 0.011,
        "total": 0.11493611335754395
    },
    "2": {
        "parsing": 0.013,
        "smoothing": 0.009,
        "top": 0.01,
        "total": 0.11482954025268555
    },
    "3": {
        "parsing": 0.014,
        "smoothing": 0.01,
        "top": 0.011,
        "total": 0.11481952667236328
    },
    "4": {
        "parsing": 0.013,
        "smoothing": 0.009,
        "top": 0.011,
        "total": 0.11496853828430176
    }
}