{
    "0": {
        "parsing": 0.068,
        "smoothing": 0.284,
        "top": 0.259,
        "total": 0.717343807220459
    },
    "1": {
        "parsing": 0.07,
        "smoothing": 0.287,
        "top": 0.26,
        "total": 0.7169194221496582
    },
    "2": {
        "parsing": 0.068,
        "smoothing": 0.291,
        "top": 0.274,
        "total": 0.7671017646789551
    },
    "3": {
        "parsing": 0.069,
        "smoothing": 0.292,
        "top": 0.279,
        "total": 0.7668788433074951
    },
    "4": {
        "parsing": 0.069,
        "smoothing": 0.294,
        "top": 0.238,
        "total": 0.7168610095977783
    }
}