{
    "0": {
        "parsing": 0.072,
        "smoothing": 0.346,
        "top": 0.306,
        "total": 0.8672349452972412
    },
    "1": {
        "parsing": 0.07,
        "smoothing": 0.323,
        "top": 0.323,
        "total": 0.816857099533081
    },
    "2": {
        "parsing": 0.071,
        "smoothing": 0.332,
        "top": 0.322,
        "total": 0.8169066905975342
    },
    "3": {
        "parsing": 0.072,
        "smoothing": 0.327,
        "top": 0.313,
        "total": 0.8169620037078857
    },
    "4": {
        "parsing": 0.072,
        "smoothing": 0.349,
        "top": 0.322,
        "total": 0.8674724102020264
    }
}