{
    "0": {
        "parsing": 0.013,
        "smoothing": 0.009,
        "top": 0.012,
        "total": 0.11479496955871582
    },
    "1": {
        "parsing": 0.013,
        "smoothing": 0.009,
        "top": 0.012,
        "total": 0.11489367485046387
    },
    "2": {
        "parsing": 0.013,
        "smoothing": 0.009,
        "top": 0.012,
        "total": 0.11501884460449219
    },
    "3": {
        "parsing": 0.013,
        "smoothing": 0.009,
        "top": 0.012,
        "total": 0.11491823196411133
    },
    "4": {
        "parsing": 0.013,
        "smoothing": 0.009,
        "top": 0.012,
        "total": 0.11550450325012207
    }
}