{
    "0": {
        "parsing": 0.08,
        "smoothing": 0.421,
        "top": 0.357,
        "total": 0.9671792984008789
    },
    "1": {
        "parsing": 0.079,
        "smoothing": 0.446,
        "top": 0.357,
        "total": 0.9673290252685547
    },
    "2": {
        "parsing": 0.077,
        "smoothing": 0.421,
        "top": 0.35,
        "total": 0.9677484035491943
    },
    "3": {
        "parsing": 0.078,
        "smoothing": 0.43,
        "top": 0.342,
        "total": 0.967426061630249
    },
    "4": {
        "parsing": 0.08,
        "smoothing": 0.43,
        "top": 0.365,
        "total": 0.9674851894378662
    }
}