{
    "0": {
        "parsing": 0.112,
        "smoothing": 0.655,
        "top": 0.533,
        "total": 1.418564796447754
    },
    "1": {
        "parsing": 0.109,
        "smoothing": 0.636,
        "top": 0.562,
        "total": 1.4186577796936035
    },
    "2": {
        "parsing": 0.112,
        "smoothing": 0.663,
        "top": 0.568,
        "total": 1.4697613716125488
    },
    "3": {
        "parsing": 0.109,
        "smoothing": 0.66,
        "top": 0.529,
        "total": 1.4185540676116943
    },
    "4": {
        "parsing": 0.11,
        "smoothing": 0.661,
        "top": 0.549,
        "total": 1.4689064025878906
    }
}