{
    "0": {
        "parsing": 0.01,
        "smoothing": 0.003,
        "top": 0.005,
        "total": 0.11484003067016602
    },
    "1": {
        "parsing": 0.011,
        "smoothing": 0.003,
        "top": 0.005,
        "total": 0.1149907112121582
    },
    "2": {
        "parsing": 0.011,
        "smoothing": 0.003,
        "top": 0.006,
        "total": 0.11495327949523926
    },
    "3": {
        "parsing": 0.01,
        "smoothing": 0.003,
        "top": 0.005,
        "total": 0.11492061614990234
    },
    "4": {
        "parsing": 0.01,
        "smoothing": 0.003,
        "top": 0.005,
        "total": 0.11497187614440918
    }
}