{
    "0": {
        "parsing": 0.02,
        "smoothing": 0.023,
        "top": 0.022,
        "total": 0.16497182846069336
    },
    "1": {
        "parsing": 0.019,
        "smoothing": 0.024,
        "top": 0.022,
        "total": 0.16507315635681152
    },
    "2": {
        "parsing": 0.02,
        "smoothing": 0.023,
        "top": 0.023,
        "total": 0.16499972343444824
    },
    "3": {
        "parsing": 0.019,
        "smoothing": 0.023,
        "top": 0.021,
        "total": 0.16509342193603516
    },
    "4": {
        "parsing": 0.019,
        "smoothing": 0.022,
        "top": 0.023,
        "total": 0.1650533676147461
    }
}