{
    "0": {
        "parsing": 0.025,
        "smoothing": 0.037,
        "top": 0.031,
        "total": 0.1650099754333496
    },
    "1": {
        "parsing": 0.025,
        "smoothing": 0.037,
        "top": 0.031,
        "total": 0.16509008407592773
    },
    "2": {
        "parsing": 0.025,
        "smoothing": 0.038,
        "top": 0.032,
        "total": 0.16518545150756836
    },
    "3": {
        "parsing": 0.025,
        "smoothing": 0.037,
        "top": 0.033,
        "total": 0.16506075859069824
    },
    "4": {
        "parsing": 0.025,
        "smoothing": 0.037,
        "top": 0.031,
        "total": 0.16513490676879883
    }
}