{
    "0": {
        "parsing": 0.025,
        "smoothing": 0.028,
        "top": 0.027,
        "total": 0.21525001525878906
    },
    "1": {
        "parsing": 0.024,
        "smoothing": 0.028,
        "top": 0.026,
        "total": 0.1652228832244873
    },
    "2": {
        "parsing": 0.023,
        "smoothing": 0.026,
        "top": 0.025,
        "total": 0.16524958610534668
    },
    "3": {
        "parsing": 0.022,
        "smoothing": 0.028,
        "top": 0.025,
        "total": 0.16520905494689941
    },
    "4": {
        "parsing": 0.023,
        "smoothing": 0.027,
        "top": 0.025,
        "total": 0.1652686595916748
    }
}