{
    "0": {
        "parsing": 0.052,
        "smoothing": 0.192,
        "top": 0.139,
        "total": 0.516247034072876
    },
    "1": {
        "parsing": 0.052,
        "smoothing": 0.193,
        "top": 0.137,
        "total": 0.46686673164367676
    },
    "2": {
        "parsing": 0.051,
        "smoothing": 0.199,
        "top": 0.163,
        "total": 0.5158798694610596
    },
    "3": {
        "parsing": 0.053,
        "smoothing": 0.189,
        "top": 0.136,
        "total": 0.4659740924835205
    },
    "4": {
        "parsing": 0.051,
        "smoothing": 0.189,
        "top": 0.159,
        "total": 0.5162224769592285
    }
}