{
    "0": {
        "parsing": 0.015,
        "smoothing": 0.009,
        "top": 0.016,
        "total": 0.11495018005371094
    },
    "1": {
        "parsing": 0.014,
        "smoothing": 0.008,
        "top": 0.017,
        "total": 0.11489367485046387
    },
    "2": {
        "parsing": 0.016,
        "smoothing": 0.009,
        "top": 0.015,
        "total": 0.11512589454650879
    },
    "3": {
        "parsing": 0.016,
        "smoothing": 0.009,
        "top": 0.016,
        "total": 0.11495137214660645
    },
    "4": {
        "parsing": 0.015,
        "smoothing": 0.009,
        "top": 0.016,
        "total": 0.11501550674438477
    }
}