{
    "0": {
        "parsing": 0.022,
        "smoothing": 0.02,
        "top": 0.029,
        "total": 0.16503167152404785
    },
    "1": {
        "parsing": 0.022,
        "smoothing": 0.021,
        "top": 0.027,
        "total": 0.16536831855773926
    },
    "2": {
        "parsing": 0.023,
        "smoothing": 0.02,
        "top": 0.031,
        "total": 0.16527342796325684
    },
    "3": {
        "parsing": 0.022,
        "smoothing": 0.021,
        "top": 0.028,
        "total": 0.16519737243652344
    },
    "4": {
        "parsing": 0.022,
        "smoothing": 0.02,
        "top": 0.031,
        "total": 0.16535568237304688
    }
}