{
    "0": {
        "parsing": 0.069,
        "smoothing": 0.296,
        "top": 0.257,
        "total": 0.7166991233825684
    },
    "1": {
        "parsing": 0.067,
        "smoothing": 0.301,
        "top": 0.273,
        "total": 0.716376543045044
    },
    "2": {
        "parsing": 0.069,
        "smoothing": 0.296,
        "top": 0.261,
        "total": 0.7668089866638184
    },
    "3": {
        "parsing": 0.069,
        "smoothing": 0.289,
        "top": 0.266,
        "total": 0.7166168689727783
    },
    "4": {
        "parsing": 0.068,
        "smoothing": 0.289,
        "top": 0.256,
        "total": 0.7165634632110596
    }
}