{
    "0": {
        "parsing": 0.019,
        "smoothing": 0.022,
        "top": 0.02,
        "total": 0.16502070426940918
    },
    "1": {
        "parsing": 0.019,
        "smoothing": 0.023,
        "top": 0.021,
        "total": 0.16500544548034668
    },
    "2": {
        "parsing": 0.018,
        "smoothing": 0.022,
        "top": 0.019,
        "total": 0.16505885124206543
    },
    "3": {
        "parsing": 0.018,
        "smoothing": 0.021,
        "top": 0.019,
        "total": 0.16516518592834473
    },
    "4": {
        "parsing": 0.019,
        "smoothing": 0.022,
        "top": 0.02,
        "total": 0.16517210006713867
    }
}