{
    "0": {
        "parsing": 0.012,
        "smoothing": 0.006,
        "top": 0.008,
        "total": 0.11517596244812012
    },
    "1": {
        "parsing": 0.011,
        "smoothing": 0.006,
        "top": 0.008,
        "total": 0.11479401588439941
    },
    "2": {
        "parsing": 0.011,
        "smoothing": 0.006,
        "top": 0.008,
        "total": 0.1148533821105957
    },
    "3": {
        "parsing": 0.011,
        "smoothing": 0.006,
        "top": 0.008,
        "total": 0.11485171318054199
    },
    "4": {
        "parsing": 0.011,
        "smoothing": 0.005,
        "top": 0.008,
        "total": 0.1147162914276123
    }
}