{
    "0": {
        "parsing": 0.017,
        "smoothing": 0.02,
        "top": 0.018,
        "total": 0.1649308204650879
    },
    "1": {
        "parsing": 0.017,
        "smoothing": 0.02,
        "top": 0.019,
        "total": 0.16498732566833496
    },
    "2": {
        "parsing": 0.017,
        "smoothing": 0.021,
        "top": 0.018,
        "total": 0.16495728492736816
    },
    "3": {
        "parsing": 0.017,
        "smoothing": 0.021,
        "top": 0.018,
        "total": 0.16493606567382812
    },
    "4": {
        "parsing": 0.017,
        "smoothing": 0.02,
        "top": 0.018,
        "total": 0.1651897430419922
    }
}