{
    "0": {
        "parsing": 0.024,
        "smoothing": 0.034,
        "top": 0.036,
        "total": 0.16497135162353516
    },
    "1": {
        "parsing": 0.025,
        "smoothing": 0.034,
        "top": 0.035,
        "total": 0.1651017665863037
    },
    "2": {
        "parsing": 0.024,
        "smoothing": 0.033,
        "top": 0.036,
        "total": 0.16492247581481934
    },
    "3": {
        "parsing": 0.027,
        "smoothing": 0.034,
        "top": 0.035,
        "total": 0.21515536308288574
    },
    "4": {
        "parsing": 0.024,
        "smoothing": 0.035,
        "top": 0.037,
        "total": 0.16521692276000977
    }
}