{
    "0": {
        "parsing": 0.02,
        "smoothing": 0.023,
        "top": 0.021,
        "total": 0.16494297981262207
    },
    "1": {
        "parsing": 0.021,
        "smoothing": 0.023,
        "top": 0.021,
        "total": 0.16498613357543945
    },
    "2": {
        "parsing": 0.02,
        "smoothing": 0.024,
        "top": 0.021,
        "total": 0.1650850772857666
    },
    "3": {
        "parsing": 0.02,
        "smoothing": 0.024,
        "top": 0.021,
        "total": 0.16489315032958984
    },
    "4": {
        "parsing": 0.019,
        "smoothing": 0.023,
        "top": 0.021,
        "total": 0.16509008407592773
    }
}