{
    "0": {
        "parsing": 0.224,
        "smoothing": 1.104,
        "top": 1.132,
        "total": 2.5741055011749268
    },
    "1": {
        "parsing": 0.217,
        "smoothing": 1.07,
        "top": 1.096,
        "total": 2.521557569503784
    },
    "2": {
        "parsing": 0.23,
        "smoothing": 1.123,
        "top": 1.125,
        "total": 2.622653007507324
    },
    "3": {
        "parsing": 0.215,
        "smoothing": 1.068,
        "top": 1.16,
        "total": 2.5712785720825195
    },
    "4": {
        "parsing": 0.225,
        "smoothing": 1.012,
        "top": 1.103,
        "total": 2.4718809127807617
    }
}