{
    "0": {
        "parsing": 0.044,
        "smoothing": 0.105,
        "top": 0.122,
        "total": 0.365769624710083
    },
    "1": {
        "parsing": 0.043,
        "smoothing": 0.106,
        "top": 0.12,
        "total": 0.3669166564941406
    },
    "2": {
        "parsing": 0.042,
        "smoothing": 0.103,
        "top": 0.118,
        "total": 0.3660147190093994
    },
    "3": {
        "parsing": 0.043,
        "smoothing": 0.105,
        "top": 0.127,
        "total": 0.36570262908935547
    },
    "4": {
        "parsing": 0.043,
        "smoothing": 0.104,
        "top": 0.12,
        "total": 0.36576008796691895
    }
}