{
    "0": {
        "parsing": 0.025,
        "smoothing": 0.029,
        "top": 0.029,
        "total": 0.16486215591430664
    },
    "1": {
        "parsing": 0.024,
        "smoothing": 0.029,
        "top": 0.029,
        "total": 0.1650092601776123
    },
    "2": {
        "parsing": 0.024,
        "smoothing": 0.028,
        "top": 0.03,
        "total": 0.1650862693786621
    },
    "3": {
        "parsing": 0.024,
        "smoothing": 0.027,
        "top": 0.03,
        "total": 0.16499543190002441
    },
    "4": {
        "parsing": 0.024,
        "smoothing": 0.027,
        "top": 0.029,
        "total": 0.16500353813171387
    }
}