{
    "0": {
        "parsing": 0.01,
        "smoothing": 0.002,
        "top": 0.004,
        "total": 0.11472415924072266
    },
    "1": {
        "parsing": 0.009,
        "smoothing": 0.002,
        "top": 0.003,
        "total": 0.1148223876953125
    },
    "2": {
        "parsing": 0.01,
        "smoothing": 0.002,
        "top": 0.003,
        "total": 0.11467337608337402
    },
    "3": {
        "parsing": 0.009,
        "smoothing": 0.002,
        "top": 0.003,
        "total": 0.11473679542541504
    },
    "4": {
        "parsing": 0.009,
        "smoothing": 0.002,
        "top": 0.003,
        "total": 0.11501240730285645
    }
}