{
    "0": {
        "parsing": 0.02,
        "smoothing": 0.024,
        "top": 0.023,
        "total": 0.16491484642028809
    },
    "1": {
        "parsing": 0.019,
        "smoothing": 0.023,
        "top": 0.023,
        "total": 0.16501998901367188
    },
    "2": {
        "parsing": 0.02,
        "smoothing": 0.025,
        "top": 0.023,
        "total": 0.1649634838104248
    },
    "3": {
        "parsing": 0.019,
        "smoothing": 0.024,
        "top": 0.023,
        "total": 0.16492033004760742
    },
    "4": {
        "parsing": 0.02,
        "smoothing": 0.024,
        "top": 0.023,
        "total": 0.16510963439941406
    }
}