{
    "0": {
        "parsing": 0.028,
        "smoothing": 0.046,
        "top": 0.039,
        "total": 0.21497225761413574
    },
    "1": {
        "parsing": 0.027,
        "smoothing": 0.043,
        "top": 0.04,
        "total": 0.21499204635620117
    },
    "2": {
        "parsing": 0.027,
        "smoothing": 0.044,
        "top": 0.039,
        "total": 0.21520781517028809
    },
    "3": {
        "parsing": 0.027,
        "smoothing": 0.043,
        "top": 0.039,
        "total": 0.21513056755065918
    },
    "4": {
        "parsing": 0.027,
        "smoothing": 0.043,
        "top": 0.039,
        "total": 0.21520495414733887
    }
}