{
    "0": {
        "parsing": 0.213,
        "smoothing": 1.275,
        "top": 1.184,
        "total": 2.7755939960479736
    },
    "1": {
        "parsing": 0.212,
        "smoothing": 1.309,
        "top": 1.127,
        "total": 2.7729921340942383
    },
    "2": {
        "parsing": 0.206,
        "smoothing": 1.282,
        "top": 1.167,
        "total": 2.7738184928894043
    },
    "3": {
        "parsing": 0.206,
        "smoothing": 1.215,
        "top": 1.058,
        "total": 2.6226003170013428
    },
    "4": {
        "parsing": 0.205,
        "smoothing": 1.289,
        "top": 1.14,
        "total": 2.8224172592163086
    }
}