{
    "0": {
        "parsing": 0.012,
        "smoothing": 0.006,
        "top": 0.009,
        "total": 0.11499738693237305
    },
    "1": {
        "parsing": 0.012,
        "smoothing": 0.006,
        "top": 0.009,
        "total": 0.11487460136413574
    },
    "2": {
        "parsing": 0.012,
        "smoothing": 0.006,
        "top": 0.009,
        "total": 0.11487102508544922
    },
    "3": {
        "parsing": 0.012,
        "smoothing": 0.006,
        "top": 0.009,
        "total": 0.1149299144744873
    },
    "4": {
        "parsing": 0.012,
        "smoothing": 0.006,
        "top": 0.009,
        "total": 0.11478543281555176
    }
}