{
    "0": {
        "parsing": 0.072,
        "smoothing": 0.335,
        "top": 0.292,
        "total": 0.8191483020782471
    },
    "1": {
        "parsing": 0.07,
        "smoothing": 0.341,
        "top": 0.296,
        "total": 0.8171951770782471
    },
    "2": {
        "parsing": 0.072,
        "smoothing": 0.321,
        "top": 0.292,
        "total": 0.8175702095031738
    },
    "3": {
        "parsing": 0.072,
        "smoothing": 0.361,
        "top": 0.304,
        "total": 0.817610502243042
    },
    "4": {
        "parsing": 0.072,
        "smoothing": 0.34,
        "top": 0.297,
        "total": 0.817601203918457
    }
}