{
    "0": {
        "parsing": 0.014,
        "smoothing": 0.01,
        "top": 0.01,
        "total": 0.11478447914123535
    },
    "1": {
        "parsing": 0.013,
        "smoothing": 0.01,
        "top": 0.01,
        "total": 0.11483454704284668
    },
    "2": {
        "parsing": 0.013,
        "smoothing": 0.011,
        "top": 0.01,
        "total": 0.11487483978271484
    },
    "3": {
        "parsing": 0.013,
        "smoothing": 0.01,
        "top": 0.01,
        "total": 0.11471676826477051
    },
    "4": {
        "parsing": 0.013,
        "smoothing": 0.01,
        "top": 0.01,
        "total": 0.11486268043518066
    }
}