{
    "0": {
        "parsing": 0.338,
        "smoothing": 3.945,
        "top": 2.292,
        "total": 6.683228969573975
    },
    "1": {
        "parsing": 0.317,
        "smoothing": 3.524,
        "top": 2.168,
        "total": 6.281751394271851
    },
    "2": {
        "parsing": 0.325,
        "smoothing": 3.624,
        "top": 2.345,
        "total": 6.4329023361206055
    },
    "3": {
        "parsing": 0.326,
        "smoothing": 3.47,
        "top": 2.164,
        "total": 6.0842835903167725
    },
    "4": {
        "parsing": 0.329,
        "smoothing": 3.511,
        "top": 2.27,
        "total": 6.236022472381592
    }
}