{
    "0": {
        "parsing": 0.034,
        "smoothing": 0.072,
        "top": 0.063,
        "total": 0.265392541885376
    },
    "1": {
        "parsing": 0.034,
        "smoothing": 0.075,
        "top": 0.062,
        "total": 0.2657036781311035
    },
    "2": {
        "parsing": 0.034,
        "smoothing": 0.073,
        "top": 0.063,
        "total": 0.2656219005584717
    },
    "3": {
        "parsing": 0.034,
        "smoothing": 0.071,
        "top": 0.064,
        "total": 0.2655773162841797
    },
    "4": {
        "parsing": 0.034,
        "smoothing": 0.073,
        "top": 0.065,
        "total": 0.2653083801269531
    }
}