{
    "0": {
        "parsing": 0.02,
        "smoothing": 0.026,
        "top": 0.022,
        "total": 0.16489648818969727
    },
    "1": {
        "parsing": 0.02,
        "smoothing": 0.027,
        "top": 0.022,
        "total": 0.16498470306396484
    },
    "2": {
        "parsing": 0.02,
        "smoothing": 0.027,
        "top": 0.023,
        "total": 0.16503238677978516
    },
    "3": {
        "parsing": 0.021,
        "smoothing": 0.027,
        "top": 0.022,
        "total": 0.1649637222290039
    },
    "4": {
        "parsing": 0.02,
        "smoothing": 0.027,
        "top": 0.022,
        "total": 0.165114164352417
    }
}