{
    "0": {
        "parsing": 0.034,
        "smoothing": 0.08,
        "top": 0.067,
        "total": 0.26518678665161133
    },
    "1": {
        "parsing": 0.033,
        "smoothing": 0.08,
        "top": 0.066,
        "total": 0.26512932777404785
    },
    "2": {
        "parsing": 0.033,
        "smoothing": 0.079,
        "top": 0.066,
        "total": 0.26515865325927734
    },
    "3": {
        "parsing": 0.033,
        "smoothing": 0.079,
        "top": 0.067,
        "total": 0.26522183418273926
    },
    "4": {
        "parsing": 0.032,
        "smoothing": 0.08,
        "top": 0.066,
        "total": 0.26511335372924805
    }
}