{
    "0": {
        "parsing": 0.02,
        "smoothing": 0.024,
        "top": 0.02,
        "total": 0.1649456024169922
    },
    "1": {
        "parsing": 0.019,
        "smoothing": 0.023,
        "top": 0.02,
        "total": 0.1648702621459961
    },
    "2": {
        "parsing": 0.02,
        "smoothing": 0.023,
        "top": 0.021,
        "total": 0.16506052017211914
    },
    "3": {
        "parsing": 0.019,
        "smoothing": 0.023,
        "top": 0.02,
        "total": 0.16497516632080078
    },
    "4": {
        "parsing": 0.02,
        "smoothing": 0.023,
        "top": 0.02,
        "total": 0.16506719589233398
    }
}