{
    "0": {
        "parsing": 0.019,
        "smoothing": 0.025,
        "top": 0.02,
        "total": 0.16494417190551758
    },
    "1": {
        "parsing": 0.019,
        "smoothing": 0.023,
        "top": 0.019,
        "total": 0.1650700569152832
    },
    "2": {
        "parsing": 0.019,
        "smoothing": 0.023,
        "top": 0.018,
        "total": 0.1650545597076416
    },
    "3": {
        "parsing": 0.019,
        "smoothing": 0.022,
        "top": 0.018,
        "total": 0.1650073528289795
    },
    "4": {
        "parsing": 0.018,
        "smoothing": 0.022,
        "top": 0.019,
        "total": 0.16499996185302734
    }
}