{
    "0": {
        "parsing": 0.03,
        "smoothing": 0.046,
        "top": 0.049,
        "total": 0.2149040699005127
    },
    "1": {
        "parsing": 0.029,
        "smoothing": 0.046,
        "top": 0.048,
        "total": 0.21528220176696777
    },
    "2": {
        "parsing": 0.03,
        "smoothing": 0.048,
        "top": 0.05,
        "total": 0.21514153480529785
    },
    "3": {
        "parsing": 0.03,
        "smoothing": 0.047,
        "top": 0.048,
        "total": 0.2153172492980957
    },
    "4": {
        "parsing": 0.029,
        "smoothing": 0.046,
        "top": 0.049,
        "total": 0.2150864601135254
    }
}