{
    "0": {
        "parsing": 0.018,
        "smoothing": 0.02,
        "top": 0.024,
        "total": 0.1647336483001709
    },
    "1": {
        "parsing": 0.017,
        "smoothing": 0.02,
        "top": 0.023,
        "total": 0.16487812995910645
    },
    "2": {
        "parsing": 0.017,
        "smoothing": 0.02,
        "top": 0.023,
        "total": 0.16498327255249023
    },
    "3": {
        "parsing": 0.018,
        "smoothing": 0.02,
        "top": 0.023,
        "total": 0.16514277458190918
    },
    "4": {
        "parsing": 0.017,
        "smoothing": 0.021,
        "top": 0.023,
        "total": 0.16509318351745605
    }
}