{
    "0": {
        "parsing": 0.05,
        "smoothing": 0.067,
        "top": 0.034,
        "total": 0.2653496265411377
    },
    "1": {
        "parsing": 0.05,
        "smoothing": 0.065,
        "top": 0.032,
        "total": 0.26518964767456055
    },
    "2": {
        "parsing": 0.051,
        "smoothing": 0.068,
        "top": 0.033,
        "total": 0.2653510570526123
    },
    "3": {
        "parsing": 0.05,
        "smoothing": 0.068,
        "top": 0.033,
        "total": 0.2652580738067627
    },
    "4": {
        "parsing": 0.049,
        "smoothing": 0.066,
        "top": 0.033,
        "total": 0.2653822898864746
    }
}