{
    "0": {
        "parsing": 0.024,
        "smoothing": 0.018,
        "top": 0.012,
        "total": 0.164963960647583
    },
    "1": {
        "parsing": 0.024,
        "smoothing": 0.019,
        "top": 0.014,
        "total": 0.16501879692077637
    },
    "2": {
        "parsing": 0.023,
        "smoothing": 0.017,
        "top": 0.012,
        "total": 0.16519474983215332
    },
    "3": {
        "parsing": 0.022,
        "smoothing": 0.018,
        "top": 0.012,
        "total": 0.16490697860717773
    },
    "4": {
        "parsing": 0.022,
        "smoothing": 0.017,
        "top": 0.011,
        "total": 0.16504478454589844
    }
}