{
    "0": {
        "parsing": 0.024,
        "smoothing": 0.03,
        "top": 0.025,
        "total": 0.16493988037109375
    },
    "1": {
        "parsing": 0.023,
        "smoothing": 0.03,
        "top": 0.027,
        "total": 0.16501402854919434
    },
    "2": {
        "parsing": 0.023,
        "smoothing": 0.031,
        "top": 0.025,
        "total": 0.16515302658081055
    },
    "3": {
        "parsing": 0.023,
        "smoothing": 0.03,
        "top": 0.025,
        "total": 0.16518759727478027
    },
    "4": {
        "parsing": 0.024,
        "smoothing": 0.031,
        "top": 0.025,
        "total": 0.1652522087097168
    }
}