{
    "0": {
        "parsing": 0.042,
        "smoothing": 0.1,
        "top": 0.118,
        "total": 0.3654470443725586
    },
    "1": {
        "parsing": 0.043,
        "smoothing": 0.103,
        "top": 0.113,
        "total": 0.3656129837036133
    },
    "2": {
        "parsing": 0.042,
        "smoothing": 0.099,
        "top": 0.118,
        "total": 0.36572885513305664
    },
    "3": {
        "parsing": 0.042,
        "smoothing": 0.101,
        "top": 0.117,
        "total": 0.3655707836151123
    },
    "4": {
        "parsing": 0.042,
        "smoothing": 0.101,
        "top": 0.122,
        "total": 0.36591196060180664
    }
}