{
    "0": {
        "parsing": 0.021,
        "smoothing": 0.024,
        "top": 0.021,
        "total": 0.16486716270446777
    },
    "1": {
        "parsing": 0.021,
        "smoothing": 0.025,
        "top": 0.02,
        "total": 0.16511106491088867
    },
    "2": {
        "parsing": 0.022,
        "smoothing": 0.025,
        "top": 0.02,
        "total": 0.1650094985961914
    },
    "3": {
        "parsing": 0.021,
        "smoothing": 0.024,
        "top": 0.02,
        "total": 0.16516542434692383
    },
    "4": {
        "parsing": 0.021,
        "smoothing": 0.024,
        "top": 0.02,
        "total": 0.16521239280700684
    }
}