{
    "0": {
        "parsing": 0.025,
        "smoothing": 0.031,
        "top": 0.025,
        "total": 0.1650371551513672
    },
    "1": {
        "parsing": 0.024,
        "smoothing": 0.032,
        "top": 0.025,
        "total": 0.16529512405395508
    },
    "2": {
        "parsing": 0.024,
        "smoothing": 0.03,
        "top": 0.024,
        "total": 0.1650404930114746
    },
    "3": {
        "parsing": 0.024,
        "smoothing": 0.03,
        "top": 0.026,
        "total": 0.16506648063659668
    },
    "4": {
        "parsing": 0.023,
        "smoothing": 0.03,
        "top": 0.026,
        "total": 0.16506075859069824
    }
}