{
    "0": {
        "parsing": 0.014,
        "smoothing": 0.01,
        "top": 0.008,
        "total": 0.11474466323852539
    },
    "1": {
        "parsing": 0.013,
        "smoothing": 0.01,
        "top": 0.009,
        "total": 0.1147010326385498
    },
    "2": {
        "parsing": 0.013,
        "smoothing": 0.01,
        "top": 0.008,
        "total": 0.11483907699584961
    },
    "3": {
        "parsing": 0.013,
        "smoothing": 0.011,
        "top": 0.009,
        "total": 0.11486220359802246
    },
    "4": {
        "parsing": 0.013,
        "smoothing": 0.01,
        "top": 0.009,
        "total": 0.11479544639587402
    }
}