{
    "0": {
        "parsing": 0.226,
        "smoothing": 1.12,
        "top": 1.085,
        "total": 2.521610736846924
    },
    "1": {
        "parsing": 0.219,
        "smoothing": 1.098,
        "top": 1.038,
        "total": 2.472165822982788
    },
    "2": {
        "parsing": 0.222,
        "smoothing": 1.158,
        "top": 1.164,
        "total": 2.673149347305298
    },
    "3": {
        "parsing": 0.218,
        "smoothing": 1.145,
        "top": 1.027,
        "total": 2.522090196609497
    },
    "4": {
        "parsing": 0.218,
        "smoothing": 1.093,
        "top": 1.054,
        "total": 2.471696615219116
    }
}