{
    "0": {
        "parsing": 0.02,
        "smoothing": 0.022,
        "top": 0.017,
        "total": 0.16513419151306152
    },
    "1": {
        "parsing": 0.019,
        "smoothing": 0.022,
        "top": 0.016,
        "total": 0.16502022743225098
    },
    "2": {
        "parsing": 0.019,
        "smoothing": 0.022,
        "top": 0.017,
        "total": 0.16495609283447266
    },
    "3": {
        "parsing": 0.019,
        "smoothing": 0.022,
        "top": 0.018,
        "total": 0.16488027572631836
    },
    "4": {
        "parsing": 0.019,
        "smoothing": 0.022,
        "top": 0.017,
        "total": 0.16504812240600586
    }
}