{
    "0": {
        "parsing": 0.063,
        "smoothing": 0.213,
        "top": 0.155,
        "total": 0.5158944129943848
    },
    "1": {
        "parsing": 0.062,
        "smoothing": 0.206,
        "top": 0.145,
        "total": 0.5161721706390381
    },
    "2": {
        "parsing": 0.062,
        "smoothing": 0.214,
        "top": 0.148,
        "total": 0.5158815383911133
    },
    "3": {
        "parsing": 0.064,
        "smoothing": 0.213,
        "top": 0.145,
        "total": 0.5159523487091064
    },
    "4": {
        "parsing": 0.063,
        "smoothing": 0.206,
        "top": 0.15,
        "total": 0.5160794258117676
    }
}