{
    "0": {
        "parsing": 0.028,
        "smoothing": 0.041,
        "top": 0.042,
        "total": 0.21524643898010254
    },
    "1": {
        "parsing": 0.029,
        "smoothing": 0.042,
        "top": 0.041,
        "total": 0.21514511108398438
    },
    "2": {
        "parsing": 0.029,
        "smoothing": 0.042,
        "top": 0.046,
        "total": 0.2150120735168457
    },
    "3": {
        "parsing": 0.028,
        "smoothing": 0.042,
        "top": 0.041,
        "total": 0.2151801586151123
    },
    "4": {
        "parsing": 0.029,
        "smoothing": 0.043,
        "top": 0.042,
        "total": 0.21520543098449707
    }
}