{
    "0": {
        "parsing": 0.013,
        "smoothing": 0.009,
        "top": 0.008,
        "total": 0.11495852470397949
    },
    "1": {
        "parsing": 0.013,
        "smoothing": 0.009,
        "top": 0.008,
        "total": 0.11472558975219727
    },
    "2": {
        "parsing": 0.013,
        "smoothing": 0.009,
        "top": 0.008,
        "total": 0.1149301528930664
    },
    "3": {
        "parsing": 0.013,
        "smoothing": 0.009,
        "top": 0.008,
        "total": 0.1149454116821289
    },
    "4": {
        "parsing": 0.013,
        "smoothing": 0.009,
        "top": 0.008,
        "total": 0.11481785774230957
    }
}