{
    "0": {
        "parsing": 0.07,
        "smoothing": 0.289,
        "top": 0.23,
        "total": 0.717726469039917
    },
    "1": {
        "parsing": 0.069,
        "smoothing": 0.3,
        "top": 0.245,
        "total": 0.7165877819061279
    },
    "2": {
        "parsing": 0.072,
        "smoothing": 0.296,
        "top": 0.241,
        "total": 0.7167036533355713
    },
    "3": {
        "parsing": 0.072,
        "smoothing": 0.296,
        "top": 0.247,
        "total": 0.7669146060943604
    },
    "4": {
        "parsing": 0.072,
        "smoothing": 0.306,
        "top": 0.253,
        "total": 0.7672135829925537
    }
}