{
    "0": {
        "parsing": 0.033,
        "smoothing": 0.059,
        "top": 0.055,
        "total": 0.2653810977935791
    },
    "1": {
        "parsing": 0.031,
        "smoothing": 0.058,
        "top": 0.057,
        "total": 0.2653360366821289
    },
    "2": {
        "parsing": 0.031,
        "smoothing": 0.059,
        "top": 0.054,
        "total": 0.21519255638122559
    },
    "3": {
        "parsing": 0.031,
        "smoothing": 0.058,
        "top": 0.055,
        "total": 0.26523590087890625
    },
    "4": {
        "parsing": 0.031,
        "smoothing": 0.054,
        "top": 0.058,
        "total": 0.21523213386535645
    }
}