{
    "0": {
        "parsing": 0.03,
        "smoothing": 0.044,
        "top": 0.044,
        "total": 0.21506381034851074
    },
    "1": {
        "parsing": 0.03,
        "smoothing": 0.044,
        "top": 0.044,
        "total": 0.21517634391784668
    },
    "2": {
        "parsing": 0.03,
        "smoothing": 0.044,
        "top": 0.048,
        "total": 0.2153480052947998
    },
    "3": {
        "parsing": 0.031,
        "smoothing": 0.043,
        "top": 0.044,
        "total": 0.21533966064453125
    },
    "4": {
        "parsing": 0.03,
        "smoothing": 0.044,
        "top": 0.043,
        "total": 0.21510791778564453
    }
}