{
    "0": {
        "parsing": 0.028,
        "smoothing": 0.038,
        "top": 0.035,
        "total": 0.21526098251342773
    },
    "1": {
        "parsing": 0.028,
        "smoothing": 0.039,
        "top": 0.035,
        "total": 0.21532773971557617
    },
    "2": {
        "parsing": 0.027,
        "smoothing": 0.039,
        "top": 0.035,
        "total": 0.2151026725769043
    },
    "3": {
        "parsing": 0.028,
        "smoothing": 0.038,
        "top": 0.035,
        "total": 0.21502065658569336
    },
    "4": {
        "parsing": 0.027,
        "smoothing": 0.038,
        "top": 0.036,
        "total": 0.2152559757232666
    }
}