{
    "0": {
        "parsing": 0.014,
        "smoothing": 0.01,
        "top": 0.008,
        "total": 0.11468315124511719
    },
    "1": {
        "parsing": 0.013,
        "smoothing": 0.01,
        "top": 0.009,
        "total": 0.11477017402648926
    },
    "2": {
        "parsing": 0.013,
        "smoothing": 0.01,
        "top": 0.008,
        "total": 0.11495399475097656
    },
    "3": {
        "parsing": 0.013,
        "smoothing": 0.011,
        "top": 0.008,
        "total": 0.11488223075866699
    },
    "4": {
        "parsing": 0.013,
        "smoothing": 0.011,
        "top": 0.009,
        "total": 0.11487364768981934
    }
}