{
    "0": {
        "parsing": 0.02,
        "smoothing": 0.024,
        "top": 0.022,
        "total": 0.164900541305542
    },
    "1": {
        "parsing": 0.02,
        "smoothing": 0.024,
        "top": 0.021,
        "total": 0.16512680053710938
    },
    "2": {
        "parsing": 0.019,
        "smoothing": 0.024,
        "top": 0.021,
        "total": 0.16504812240600586
    },
    "3": {
        "parsing": 0.02,
        "smoothing": 0.024,
        "top": 0.021,
        "total": 0.16504168510437012
    },
    "4": {
        "parsing": 0.02,
        "smoothing": 0.024,
        "top": 0.021,
        "total": 0.16489386558532715
    }
}