{
    "0": {
        "parsing": 0.04,
        "smoothing": 0.085,
        "top": 0.103,
        "total": 0.31781816482543945
    },
    "1": {
        "parsing": 0.039,
        "smoothing": 0.09,
        "top": 0.097,
        "total": 0.3158879280090332
    },
    "2": {
        "parsing": 0.04,
        "smoothing": 0.086,
        "top": 0.099,
        "total": 0.3154580593109131
    },
    "3": {
        "parsing": 0.039,
        "smoothing": 0.087,
        "top": 0.106,
        "total": 0.31546998023986816
    },
    "4": {
        "parsing": 0.038,
        "smoothing": 0.086,
        "top": 0.105,
        "total": 0.3659656047821045
    }
}