{
    "0": {
        "parsing": 0.026,
        "smoothing": 0.041,
        "top": 0.035,
        "total": 0.215315580368042
    },
    "1": {
        "parsing": 0.025,
        "smoothing": 0.041,
        "top": 0.033,
        "total": 0.21507477760314941
    },
    "2": {
        "parsing": 0.026,
        "smoothing": 0.04,
        "top": 0.034,
        "total": 0.21497654914855957
    },
    "3": {
        "parsing": 0.025,
        "smoothing": 0.04,
        "top": 0.034,
        "total": 0.21521615982055664
    },
    "4": {
        "parsing": 0.025,
        "smoothing": 0.041,
        "top": 0.034,
        "total": 0.2151336669921875
    }
}