{
    "0": {
        "parsing": 0.026,
        "smoothing": 0.038,
        "top": 0.028,
        "total": 0.1649916172027588
    },
    "1": {
        "parsing": 0.025,
        "smoothing": 0.038,
        "top": 0.028,
        "total": 0.16529393196105957
    },
    "2": {
        "parsing": 0.025,
        "smoothing": 0.037,
        "top": 0.027,
        "total": 0.16500449180603027
    },
    "3": {
        "parsing": 0.025,
        "smoothing": 0.038,
        "top": 0.027,
        "total": 0.1649773120880127
    },
    "4": {
        "parsing": 0.025,
        "smoothing": 0.037,
        "top": 0.027,
        "total": 0.1651003360748291
    }
}