{
    "0": {
        "parsing": 0.04,
        "smoothing": 0.112,
        "top": 0.107,
        "total": 0.36571764945983887
    },
    "1": {
        "parsing": 0.039,
        "smoothing": 0.11,
        "top": 0.106,
        "total": 0.36559581756591797
    },
    "2": {
        "parsing": 0.039,
        "smoothing": 0.108,
        "top": 0.106,
        "total": 0.3659243583679199
    },
    "3": {
        "parsing": 0.039,
        "smoothing": 0.11,
        "top": 0.108,
        "total": 0.36553454399108887
    },
    "4": {
        "parsing": 0.039,
        "smoothing": 0.105,
        "top": 0.109,
        "total": 0.3657052516937256
    }
}