{
    "0": {
        "parsing": 0.03,
        "smoothing": 0.069,
        "top": 0.057,
        "total": 0.2652163505554199
    },
    "1": {
        "parsing": 0.03,
        "smoothing": 0.069,
        "top": 0.062,
        "total": 0.26525044441223145
    },
    "2": {
        "parsing": 0.03,
        "smoothing": 0.068,
        "top": 0.055,
        "total": 0.2651808261871338
    },
    "3": {
        "parsing": 0.03,
        "smoothing": 0.069,
        "top": 0.059,
        "total": 0.26529932022094727
    },
    "4": {
        "parsing": 0.03,
        "smoothing": 0.068,
        "top": 0.059,
        "total": 0.26520252227783203
    }
}