{
    "0": {
        "parsing": 0.096,
        "smoothing": 0.6,
        "top": 0.452,
        "total": 1.268033504486084
    },
    "1": {
        "parsing": 0.094,
        "smoothing": 0.62,
        "top": 0.493,
        "total": 1.318601131439209
    },
    "2": {
        "parsing": 0.094,
        "smoothing": 0.609,
        "top": 0.468,
        "total": 1.3182592391967773
    },
    "3": {
        "parsing": 0.094,
        "smoothing": 0.603,
        "top": 0.418,
        "total": 1.2177894115447998
    },
    "4": {
        "parsing": 0.095,
        "smoothing": 0.61,
        "top": 0.455,
        "total": 1.2690584659576416
    }
}