{
    "0": {
        "parsing": 0.017,
        "smoothing": 0.017,
        "top": 0.012,
        "total": 0.11482405662536621
    },
    "1": {
        "parsing": 0.017,
        "smoothing": 0.017,
        "top": 0.012,
        "total": 0.11487793922424316
    },
    "2": {
        "parsing": 0.018,
        "smoothing": 0.017,
        "top": 0.012,
        "total": 0.11514520645141602
    },
    "3": {
        "parsing": 0.017,
        "smoothing": 0.017,
        "top": 0.011,
        "total": 0.11481308937072754
    },
    "4": {
        "parsing": 0.018,
        "smoothing": 0.017,
        "top": 0.011,
        "total": 0.11501669883728027
    }
}