{
    "0": {
        "parsing": 0.024,
        "smoothing": 0.026,
        "top": 0.02,
        "total": 0.16510796546936035
    },
    "1": {
        "parsing": 0.023,
        "smoothing": 0.027,
        "top": 0.02,
        "total": 0.16521739959716797
    },
    "2": {
        "parsing": 0.023,
        "smoothing": 0.026,
        "top": 0.019,
        "total": 0.16495084762573242
    },
    "3": {
        "parsing": 0.023,
        "smoothing": 0.028,
        "top": 0.02,
        "total": 0.16507673263549805
    },
    "4": {
        "parsing": 0.023,
        "smoothing": 0.027,
        "top": 0.019,
        "total": 0.16500496864318848
    }
}