{
    "0": {
        "parsing": 0.052,
        "smoothing": 0.197,
        "top": 0.132,
        "total": 0.4665520191192627
    },
    "1": {
        "parsing": 0.052,
        "smoothing": 0.201,
        "top": 0.129,
        "total": 0.4665224552154541
    },
    "2": {
        "parsing": 0.052,
        "smoothing": 0.207,
        "top": 0.139,
        "total": 0.5165581703186035
    },
    "3": {
        "parsing": 0.052,
        "smoothing": 0.196,
        "top": 0.146,
        "total": 0.5178892612457275
    },
    "4": {
        "parsing": 0.052,
        "smoothing": 0.2,
        "top": 0.131,
        "total": 0.4665107727050781
    }
}