{
    "0": {
        "parsing": 0.017,
        "smoothing": 0.013,
        "top": 0.009,
        "total": 0.1146395206451416
    },
    "1": {
        "parsing": 0.015,
        "smoothing": 0.009,
        "top": 0.007,
        "total": 0.11473941802978516
    },
    "2": {
        "parsing": 0.014,
        "smoothing": 0.01,
        "top": 0.008,
        "total": 0.11479640007019043
    },
    "3": {
        "parsing": 0.015,
        "smoothing": 0.01,
        "top": 0.008,
        "total": 0.11489224433898926
    },
    "4": {
        "parsing": 0.015,
        "smoothing": 0.01,
        "top": 0.008,
        "total": 0.11480140686035156
    }
}