{
    "0": [
        0.34,
        18.047,
        23.502,
        78.224,
        89.245,
        137.091,
        209.108,
        231.159,
        232.577,
        274.236
    ],
    "1": [
        0.441,
        2.083,
        3.256,
        5.601,
        8.299,
        12.835,
        16.545,
        21.532,
        24.05,
        30.967
    ],
    "2": [
        0.48,
        5.39,
        65.517,
        70.732,
        96.623,
        102.355,
        104.225,
        139.125,
        252.445,
        296.569
    ],
    "3": [
        0.376,
        135.638,
        255.894,
        288.263,
        312.968,
        317.72,
        351.654,
        467.552,
        524.259,
        595.275
    ],
    "4": [
        0.279,
        2.007,
        6.782,
        10.972,
        37.844,
        51.945,
        73.2,
        73.723,
        80.811,
        91.281
    ]
}