{
    "0": [],
    "1": [
        7.703,
        50.66,
        120.552,
        162.626,
        163.75,
        204.93,
        285.603,
        285.605,
        345.067,
        345.07
    ],
    "2": [],
    "3": [
        1.324,
        103.218,
        135.659,
        154.984,
        263.163,
        282.641,
        286.444,
        326.817,
        419.725,
        441.315
    ],
    "4": []
}