{
    "0": [
        2.294,
        115.533,
        210.546,
        232.394,
        249.445,
        265.683,
        315.525,
        333.25,
        337.355,
        353.327
    ],
    "1": [
        4.018,
        53.428,
        115.006,
        121.055,
        165.32,
        172.341,
        252.01,
        326.492,
        354.045,
        379.998
    ],
    "2": [
        6.919,
        11.517,
        23.518,
        27.648,
        211.354,
        214.469,
        215.551,
        218.125,
        218.8,
        229.362
    ],
    "3": [
        2.697,
        24.022,
        30.62,
        51.866,
        53.615,
        74.738,
        197.552,
        207.836,
        231.353,
        242.53
    ],
    "4": [
        2.288,
        80.237,
        100.638,
        152.209,
        176.431,
        233.402,
        254.977,
        339.294,
        378.568,
        486.389
    ]
}