{
    "0": [],
    "1": [
        0.1,
        0.964,
        7.861,
        15.212,
        22.752,
        50.264,
        50.296,
        78.277,
        78.323,
        79.297
    ],
    "2": [],
    "3": [
        0.096,
        0.857,
        17.268,
        58.238,
        89.192,
        128.495,
        151.13,
        191.59,
        208.724,
        218.683
    ],
    "4": [
        0.101,
        4.908,
        24.886,
        29.684,
        68.239,
        73.646,
        80.142,
        89.416,
        112.984,
        165.706
    ]
}