{
    "0": [
        7.875,
        83.375,
        148.834,
        168.428,
        189.196,
        228.93,
        236.032,
        238.23,
        248.099,
        268.006
    ],
    "1": [],
    "2": [],
    "3": [],
    "4": []
}