{
    "0": [
        0.109,
        43.592,
        64.014,
        154.733,
        188.022,
        244.103,
        328.545,
        497.122,
        543.81,
        548.491
    ],
    "1": [],
    "2": [],
    "3": [
        0.102,
        7.449,
        23.596,
        88.852,
        179.38,
        238.955,
        291.574,
        338.669,
        393.789,
        423.303
    ],
    "4": []
}