{
    "0": [],
    "1": [
        0.118,
        0.948,
        2.964,
        5.789,
        10.268,
        29.138,
        57.927,
        74.413,
        81.353,
        98.143
    ],
    "2": [
        0.154,
        26.264,
        28.086,
        37.229,
        55.026,
        176.284,
        178.764,
        197.972,
        200.879,
        216.787
    ],
    "3": [
        0.173,
        19.168,
        34.552,
        44.824,
        44.986,
        60.612,
        119.127,
        135.316,
        166.662,
        183.734
    ],
    "4": [
        0.17,
        0.629,
        236.749,
        240.268,
        247.432,
        253.842,
        263.975,
        268.027,
        275.737,
        282.99
    ]
}