{
    "0": [],
    "1": [
        0.097,
        14.975,
        24.184,
        37.372,
        104.768,
        166.221,
        166.928,
        176.38,
        203.631,
        464.08
    ],
    "2": [
        0.115,
        1.029,
        1.136,
        3.393,
        31.217,
        53.794,
        61.773,
        107.326,
        340.575,
        452.094
    ],
    "3": [],
    "4": []
}