{
    "0": [
        0.12,
        0.853,
        7.907,
        8.219,
        11.618,
        12.25,
        12.52,
        12.583,
        13.016,
        15.278
    ],
    "1": [
        0.11,
        3.622,
        6.498,
        9.097,
        19.987,
        23.461,
        35.399,
        44.591,
        47.322,
        76.297
    ],
    "2": [
        0.082,
        0.324,
        1.162,
        1.842,
        1.929,
        2.476,
        2.861,
        5.818,
        7.124,
        7.9
    ],
    "3": [
        0.083,
        0.188,
        0.285,
        0.356,
        0.418,
        0.525,
        0.763,
        0.875,
        0.913,
        1.218
    ],
    "4": [
        0.08,
        0.23,
        0.378,
        1.916,
        2.378,
        2.888,
        3.597,
        4.155,
        4.936,
        5.75
    ]
}