{
    "0": [
        8.338,
        52.915,
        77.3,
        123.648,
        128.502,
        176.07,
        206.429,
        226.306,
        253.588,
        264.084
    ],
    "1": [],
    "2": [],
    "3": [],
    "4": [
        0.313,
        9.013,
        31.68,
        59.37,
        73.794,
        88.066,
        108.908,
        125.306,
        153.228,
        159.871
    ]
}