{
    "0": [
        0.126,
        0.17,
        0.281,
        0.291,
        0.379,
        0.391,
        0.402,
        0.432,
        0.461,
        0.468
    ],
    "1": [
        0.124,
        0.152,
        0.164,
        0.185,
        0.237,
        0.246,
        0.25,
        0.258,
        0.263,
        0.27
    ],
    "2": [
        0.106,
        0.261,
        0.336,
        0.341,
        0.493,
        0.514,
        0.52,
        0.526,
        0.613,
        0.623
    ],
    "3": [
        0.122,
        0.164,
        0.189,
        0.208,
        0.226,
        0.234,
        0.262,
        0.289,
        0.297,
        0.309
    ],
    "4": [
        0.113,
        0.189,
        0.23,
        0.255,
        0.286,
        0.293,
        0.308,
        0.322,
        0.334,
        0.345
    ]
}