{
    "0": [
        0.167,
        0.208,
        0.241,
        0.274,
        0.3,
        0.33,
        0.368,
        0.399,
        0.431,
        0.462
    ],
    "1": [
        0.225,
        0.385,
        0.456,
        0.52,
        0.574,
        0.626,
        0.681,
        0.738,
        0.788,
        0.866
    ],
    "2": [
        0.232,
        0.334,
        0.411,
        0.488,
        0.549,
        0.61,
        0.67,
        0.729,
        0.785,
        0.838
    ],
    "3": [
        0.196,
        0.246,
        0.295,
        0.36,
        0.409,
        0.455,
        0.497,
        0.54,
        0.577,
        0.614
    ],
    "4": [
        0.176,
        0.225,
        0.276,
        0.328,
        0.386,
        0.422,
        0.453,
        0.497,
        0.537,
        0.584
    ]
}