{
    "0": [
        0.068,
        0.072,
        0.075,
        0.078,
        0.08,
        0.083,
        0.086,
        0.089,
        0.092,
        0.094
    ],
    "1": [
        0.069,
        0.074,
        0.077,
        0.081,
        0.084,
        0.087,
        0.089,
        0.092,
        0.095,
        0.098
    ],
    "2": [
        0.069,
        0.073,
        0.076,
        0.079,
        0.081,
        0.084,
        0.086,
        0.088,
        0.09,
        0.093
    ],
    "3": [
        0.067,
        0.071,
        0.073,
        0.077,
        0.081,
        0.085,
        0.089,
        0.092,
        0.096,
        0.099
    ],
    "4": [
        0.067,
        0.071,
        0.073,
        0.075,
        0.078,
        0.081,
        0.083,
        0.085,
        0.089,
        0.092
    ]
}