{
    "0": [
        2.029,
        4.526,
        7.304,
        10.088,
        12.943,
        16.773,
        19.565,
        22.368,
        26.413,
        29.722
    ],
    "1": [
        0.964,
        1.702,
        2.457,
        3.469,
        5.634,
        7.764,
        9.01,
        10.274,
        12.001,
        15.154
    ],
    "2": [
        0.729,
        1.069,
        1.537,
        1.913,
        2.308,
        3.156,
        3.713,
        4.02,
        4.55,
        5.381
    ],
    "3": [
        2.062,
        8.174,
        15.088,
        21.356,
        26.671,
        34.17,
        41.596,
        48.766,
        55.212,
        62.599
    ],
    "4": [
        0.54,
        1.024,
        1.268,
        1.575,
        2.005,
        2.42,
        2.807,
        3.186,
        3.505,
        4.079
    ]
}