{
    "0": [
        5.356,
        14.692,
        24.025,
        37.108,
        49.971,
        60.873,
        75.935,
        91.069,
        102.574,
        120.181
    ],
    "1": [
        1.377,
        3.066,
        4.879,
        6.975,
        9.025,
        11.242,
        13.001,
        15.296,
        18.345,
        21.09
    ],
    "2": [
        3.602,
        7.036,
        11.273,
        15.414,
        20.114,
        24.85,
        30.134,
        34.656,
        39.64,
        44.235
    ],
    "3": [
        3.0,
        7.024,
        11.216,
        15.09,
        20.013,
        24.609,
        30.528,
        35.438,
        40.429,
        45.344
    ],
    "4": [
        10.086,
        20.856,
        35.66,
        49.484,
        62.191,
        77.837,
        92.201,
        106.547,
        120.419,
        136.626
    ]
}