{
    "0": [
        3.837,
        10.232,
        16.452,
        22.091,
        29.637,
        37.566,
        44.59,
        49.026,
        57.462,
        64.741
    ],
    "1": [
        3.242,
        7.082,
        11.484,
        15.696,
        20.351,
        25.052,
        30.01,
        34.572,
        40.646,
        45.441
    ],
    "2": [
        3.41,
        15.378,
        27.983,
        37.963,
        50.182,
        66.336,
        81.652,
        95.374,
        112.976,
        131.732
    ],
    "3": [
        5.312,
        15.665,
        26.163,
        36.732,
        46.059,
        59.529,
        70.96,
        82.998,
        94.11,
        108.198
    ],
    "4": [
        0.975,
        2.443,
        4.392,
        6.136,
        7.793,
        10.1,
        12.056,
        14.257,
        16.443,
        18.49
    ]
}