{
    "0": [
        8.26,
        18.479,
        25.73,
        35.019,
        47.032,
        56.759,
        71.123,
        81.202,
        93.339,
        105.805
    ],
    "1": [
        0.218,
        0.395,
        0.585,
        0.772,
        0.956,
        1.211,
        1.413,
        1.634,
        1.878,
        2.11
    ],
    "2": [
        2.667,
        4.347,
        7.017,
        9.864,
        13.046,
        15.93,
        18.835,
        22.467,
        25.822,
        29.641
    ],
    "3": [
        1.855,
        3.405,
        5.173,
        6.825,
        9.108,
        10.843,
        12.967,
        15.729,
        18.393,
        21.541
    ],
    "4": [
        1.495,
        4.804,
        7.769,
        11.269,
        14.024,
        16.904,
        20.116,
        23.343,
        26.744,
        29.961
    ]
}