{
    "0": [
        0.138,
        0.173,
        0.204,
        0.232,
        0.268,
        0.307,
        0.355,
        0.4,
        0.465,
        0.549
    ],
    "1": [
        0.157,
        0.185,
        0.21,
        0.242,
        0.28,
        0.344,
        0.41,
        0.456,
        0.502,
        0.532
    ],
    "2": [
        0.166,
        0.212,
        0.246,
        0.282,
        0.315,
        0.357,
        0.397,
        0.437,
        0.487,
        0.536
    ],
    "3": [
        0.138,
        0.179,
        0.222,
        0.267,
        0.308,
        0.354,
        0.392,
        0.431,
        0.466,
        0.504
    ],
    "4": [
        0.123,
        0.148,
        0.171,
        0.205,
        0.229,
        0.262,
        0.287,
        0.324,
        0.363,
        0.399
    ]
}