{
    "0": [
        0.08,
        0.086,
        0.092,
        0.096,
        0.101,
        0.105,
        0.109,
        0.114,
        0.119,
        0.125
    ],
    "1": [
        0.072,
        0.078,
        0.082,
        0.085,
        0.088,
        0.091,
        0.094,
        0.097,
        0.1,
        0.103
    ],
    "2": [
        0.077,
        0.083,
        0.088,
        0.092,
        0.096,
        0.1,
        0.104,
        0.109,
        0.113,
        0.118
    ],
    "3": [
        0.09,
        0.097,
        0.101,
        0.105,
        0.109,
        0.112,
        0.115,
        0.119,
        0.122,
        0.126
    ],
    "4": [
        0.072,
        0.078,
        0.081,
        0.085,
        0.088,
        0.091,
        0.094,
        0.098,
        0.102,
        0.106
    ]
}