{
    "0": [
        1.574,
        3.079,
        5.232,
        6.971,
        8.981,
        10.68,
        13.241,
        15.284,
        17.882,
        20.326
    ],
    "1": [
        4.705,
        13.139,
        20.338,
        27.017,
        35.875,
        46.552,
        53.648,
        63.079,
        71.829,
        81.011
    ],
    "2": [
        3.62,
        6.732,
        10.381,
        13.944,
        18.479,
        22.355,
        27.652,
        32.229,
        37.13,
        41.907
    ],
    "3": [
        10.652,
        19.775,
        28.222,
        43.42,
        57.213,
        73.474,
        87.912,
        100.606,
        114.204,
        129.564
    ],
    "4": [
        6.252,
        16.481,
        28.001,
        42.79,
        57.795,
        68.855,
        80.062,
        90.846,
        104.776,
        115.902
    ]
}