{
    "0": [
        0.075,
        0.08,
        0.084,
        0.088,
        0.091,
        0.097,
        0.102,
        0.108,
        0.114,
        0.12
    ],
    "1": [
        0.078,
        0.082,
        0.087,
        0.091,
        0.095,
        0.098,
        0.102,
        0.105,
        0.108,
        0.112
    ],
    "2": [
        0.075,
        0.08,
        0.084,
        0.089,
        0.093,
        0.096,
        0.1,
        0.103,
        0.108,
        0.113
    ],
    "3": [
        0.074,
        0.078,
        0.081,
        0.084,
        0.088,
        0.091,
        0.094,
        0.098,
        0.101,
        0.106
    ],
    "4": [
        0.075,
        0.08,
        0.083,
        0.086,
        0.09,
        0.094,
        0.098,
        0.101,
        0.104,
        0.107
    ]
}