{
    "0": [
        0.116,
        0.147,
        0.166,
        0.213,
        0.244,
        0.284,
        0.304,
        0.329,
        0.359,
        0.391
    ],
    "1": [
        0.121,
        0.143,
        0.164,
        0.18,
        0.195,
        0.234,
        0.257,
        0.275,
        0.305,
        0.335
    ],
    "2": [
        0.101,
        0.112,
        0.131,
        0.158,
        0.178,
        0.2,
        0.22,
        0.236,
        0.256,
        0.277
    ],
    "3": [
        0.11,
        0.124,
        0.144,
        0.157,
        0.188,
        0.212,
        0.236,
        0.259,
        0.282,
        0.319
    ],
    "4": [
        0.106,
        0.13,
        0.168,
        0.205,
        0.223,
        0.25,
        0.271,
        0.296,
        0.323,
        0.353
    ]
}