{
    "0": [
        0.899,
        1.992,
        2.958,
        4.053,
        5.078,
        6.197,
        7.406,
        8.461,
        9.77,
        11.12
    ],
    "1": [
        1.146,
        2.111,
        3.067,
        4.04,
        5.19,
        6.383,
        7.94,
        9.357,
        10.881,
        12.216
    ],
    "2": [
        1.072,
        2.157,
        2.991,
        4.17,
        5.271,
        6.423,
        7.586,
        8.707,
        9.991,
        11.224
    ],
    "3": [
        1.252,
        2.59,
        3.778,
        4.909,
        6.212,
        7.805,
        9.237,
        10.859,
        12.375,
        14.09
    ],
    "4": [
        1.202,
        2.551,
        3.879,
        5.203,
        6.435,
        7.753,
        9.186,
        10.83,
        12.534,
        14.292
    ]
}