{
    "0": [
        0.066,
        0.07,
        0.073,
        0.075,
        0.076,
        0.078,
        0.079,
        0.08,
        0.082,
        0.083
    ],
    "1": [
        0.067,
        0.069,
        0.07,
        0.073,
        0.076,
        0.077,
        0.078,
        0.079,
        0.08,
        0.081
    ],
    "2": [
        0.068,
        0.07,
        0.072,
        0.074,
        0.075,
        0.077,
        0.078,
        0.08,
        0.082,
        0.083
    ],
    "3": [
        0.068,
        0.07,
        0.073,
        0.075,
        0.076,
        0.078,
        0.079,
        0.08,
        0.082,
        0.083
    ],
    "4": [
        0.069,
        0.071,
        0.072,
        0.074,
        0.076,
        0.077,
        0.078,
        0.079,
        0.081,
        0.082
    ]
}