{
    "0": [
        0.139,
        0.168,
        0.202,
        0.238,
        0.271,
        0.304,
        0.342,
        0.379,
        0.427,
        0.462
    ],
    "1": [
        0.155,
        0.212,
        0.268,
        0.333,
        0.383,
        0.438,
        0.491,
        0.539,
        0.594,
        0.643
    ],
    "2": [
        0.144,
        0.195,
        0.237,
        0.281,
        0.339,
        0.395,
        0.438,
        0.488,
        0.543,
        0.594
    ],
    "3": [
        0.195,
        0.26,
        0.334,
        0.394,
        0.456,
        0.517,
        0.578,
        0.639,
        0.702,
        0.778
    ],
    "4": [
        0.152,
        0.198,
        0.245,
        0.304,
        0.357,
        0.394,
        0.437,
        0.475,
        0.523,
        0.58
    ]
}