{
    "0": [
        0.459,
        0.925,
        1.361,
        1.799,
        2.271,
        2.743,
        3.207,
        3.704,
        4.215,
        4.74
    ],
    "1": [
        0.324,
        0.523,
        0.731,
        0.963,
        1.217,
        1.439,
        1.676,
        1.938,
        2.186,
        2.42
    ],
    "2": [
        0.385,
        0.733,
        1.267,
        1.534,
        1.88,
        2.362,
        2.951,
        3.496,
        3.864,
        4.592
    ],
    "3": [
        0.54,
        0.848,
        1.103,
        1.371,
        1.664,
        1.939,
        2.279,
        2.569,
        2.934,
        3.225
    ],
    "4": [
        0.312,
        0.531,
        0.716,
        0.893,
        1.052,
        1.289,
        1.518,
        1.778,
        1.987,
        2.219
    ]
}