{
    "0": [
        0.714,
        1.352,
        2.349,
        3.377,
        4.156,
        4.963,
        5.947,
        6.89,
        7.68,
        8.552
    ],
    "1": [
        0.682,
        1.302,
        2.122,
        3.042,
        3.719,
        4.931,
        5.794,
        6.986,
        7.934,
        9.124
    ],
    "2": [
        0.552,
        0.932,
        1.292,
        1.617,
        1.953,
        2.434,
        2.822,
        3.112,
        3.591,
        4.034
    ],
    "3": [
        0.385,
        0.683,
        0.994,
        1.38,
        1.824,
        2.164,
        2.595,
        2.893,
        3.292,
        3.63
    ],
    "4": [
        0.254,
        0.451,
        0.746,
        0.969,
        1.166,
        1.362,
        1.647,
        1.867,
        2.106,
        2.348
    ]
}