{
    "0": [
        0.115,
        0.141,
        0.16,
        0.178,
        0.196,
        0.212,
        0.231,
        0.249,
        0.268,
        0.288
    ],
    "1": [
        0.131,
        0.17,
        0.209,
        0.239,
        0.267,
        0.298,
        0.326,
        0.355,
        0.389,
        0.426
    ],
    "2": [
        0.132,
        0.159,
        0.188,
        0.211,
        0.24,
        0.265,
        0.292,
        0.322,
        0.351,
        0.378
    ],
    "3": [
        0.132,
        0.16,
        0.188,
        0.217,
        0.245,
        0.273,
        0.302,
        0.333,
        0.359,
        0.384
    ],
    "4": [
        0.127,
        0.155,
        0.178,
        0.197,
        0.22,
        0.246,
        0.272,
        0.304,
        0.335,
        0.362
    ]
}