{
    "0": [
        4.007,
        8.078,
        12.022,
        15.662,
        19.78,
        24.266,
        28.303,
        33.452,
        38.129,
        43.369
    ],
    "1": [
        1.143,
        2.563,
        4.132,
        5.497,
        7.002,
        8.463,
        9.993,
        11.783,
        13.388,
        15.362
    ],
    "2": [
        1.587,
        3.444,
        5.702,
        8.321,
        10.354,
        12.361,
        14.668,
        16.703,
        20.023,
        22.803
    ],
    "3": [
        1.552,
        3.512,
        5.646,
        7.88,
        10.325,
        12.68,
        14.944,
        17.276,
        19.423,
        21.92
    ],
    "4": [
        1.684,
        3.328,
        5.054,
        6.865,
        8.758,
        10.492,
        12.236,
        13.672,
        15.591,
        17.767
    ]
}