{
    "0": [
        0.196,
        0.264,
        0.319,
        0.371,
        0.426,
        0.48,
        0.55,
        0.633,
        0.712,
        0.778
    ],
    "1": [
        0.221,
        0.314,
        0.405,
        0.481,
        0.582,
        0.678,
        0.766,
        0.845,
        0.943,
        1.028
    ],
    "2": [
        0.271,
        0.452,
        0.633,
        0.797,
        0.966,
        1.255,
        1.41,
        1.55,
        1.699,
        1.864
    ],
    "3": [
        0.329,
        0.512,
        0.685,
        0.837,
        0.999,
        1.134,
        1.262,
        1.447,
        1.634,
        1.829
    ],
    "4": [
        0.23,
        0.321,
        0.405,
        0.483,
        0.555,
        0.623,
        0.704,
        0.771,
        0.84,
        0.912
    ]
}