{
    "0": [
        0.201,
        0.204,
        0.207,
        0.21,
        0.215,
        0.217,
        0.22,
        0.223,
        0.225,
        0.229
    ],
    "1": [
        0.213,
        0.216,
        0.221,
        0.224,
        0.228,
        0.231,
        0.234,
        0.237,
        0.239,
        0.242
    ],
    "2": [
        0.21,
        0.215,
        0.22,
        0.224,
        0.229,
        0.232,
        0.236,
        0.239,
        0.242,
        0.245
    ],
    "3": [
        0.214,
        0.217,
        0.22,
        0.224,
        0.228,
        0.232,
        0.236,
        0.241,
        0.245,
        0.248
    ],
    "4": [
        0.208,
        0.211,
        0.216,
        0.22,
        0.227,
        0.23,
        0.234,
        0.237,
        0.241,
        0.244
    ]
}