{
    "0": [
        0.111,
        0.111,
        0.111,
        0.112,
        0.112,
        0.113,
        0.113,
        0.113,
        0.113,
        0.114
    ],
    "1": [
        0.109,
        0.109,
        0.11,
        0.11,
        0.111,
        0.112,
        0.112,
        0.112,
        0.113,
        0.113
    ],
    "2": [
        0.091,
        0.092,
        0.092,
        0.093,
        0.093,
        0.094,
        0.094,
        0.094,
        0.094,
        0.094
    ],
    "3": [
        0.101,
        0.102,
        0.102,
        0.102,
        0.103,
        0.104,
        0.104,
        0.104,
        0.105,
        0.105
    ],
    "4": [
        0.105,
        0.106,
        0.106,
        0.107,
        0.108,
        0.108,
        0.109,
        0.109,
        0.109,
        0.11
    ]
}