{
    "0": [
        0.133,
        0.134,
        0.135,
        0.135,
        0.136,
        0.137,
        0.137,
        0.138,
        0.138,
        0.139
    ],
    "1": [
        0.106,
        0.107,
        0.108,
        0.108,
        0.109,
        0.11,
        0.111,
        0.111,
        0.112,
        0.112
    ],
    "2": [
        0.112,
        0.112,
        0.113,
        0.114,
        0.115,
        0.115,
        0.116,
        0.116,
        0.117,
        0.117
    ],
    "3": [
        0.124,
        0.125,
        0.126,
        0.126,
        0.128,
        0.129,
        0.129,
        0.13,
        0.131,
        0.131
    ],
    "4": [
        0.112,
        0.112,
        0.113,
        0.114,
        0.114,
        0.115,
        0.115,
        0.115,
        0.116,
        0.116
    ]
}