{
    "0": [
        0.129,
        0.129,
        0.13,
        0.131,
        0.132,
        0.132,
        0.133,
        0.133,
        0.133,
        0.134
    ],
    "1": [
        0.115,
        0.115,
        0.116,
        0.117,
        0.118,
        0.119,
        0.12,
        0.12,
        0.121,
        0.122
    ],
    "2": [
        0.133,
        0.134,
        0.135,
        0.136,
        0.137,
        0.137,
        0.138,
        0.139,
        0.139,
        0.141
    ],
    "3": [
        0.118,
        0.118,
        0.119,
        0.12,
        0.121,
        0.121,
        0.122,
        0.122,
        0.123,
        0.123
    ],
    "4": [
        0.136,
        0.136,
        0.137,
        0.139,
        0.14,
        0.141,
        0.142,
        0.142,
        0.143,
        0.143
    ]
}