{
    "0": [
        0.086,
        0.086,
        0.087,
        0.087,
        0.088,
        0.088,
        0.089,
        0.089,
        0.089,
        0.09
    ],
    "1": [
        0.098,
        0.098,
        0.099,
        0.1,
        0.1,
        0.101,
        0.101,
        0.101,
        0.102,
        0.102
    ],
    "2": [
        0.108,
        0.108,
        0.109,
        0.11,
        0.11,
        0.11,
        0.111,
        0.111,
        0.111,
        0.112
    ],
    "3": [
        0.079,
        0.08,
        0.08,
        0.081,
        0.081,
        0.082,
        0.082,
        0.082,
        0.083,
        0.083
    ],
    "4": [
        0.089,
        0.089,
        0.09,
        0.09,
        0.09,
        0.091,
        0.091,
        0.091,
        0.092,
        0.092
    ]
}