{
    "0": [
        0.119,
        0.12,
        0.122,
        0.123,
        0.123,
        0.123,
        0.124,
        0.124,
        0.125,
        0.125
    ],
    "1": [
        0.114,
        0.115,
        0.116,
        0.117,
        0.117,
        0.118,
        0.118,
        0.118,
        0.119,
        0.119
    ],
    "2": [
        0.116,
        0.117,
        0.118,
        0.118,
        0.119,
        0.119,
        0.119,
        0.12,
        0.121,
        0.121
    ],
    "3": [
        0.131,
        0.132,
        0.133,
        0.133,
        0.134,
        0.135,
        0.135,
        0.136,
        0.137,
        0.137
    ],
    "4": [
        0.114,
        0.114,
        0.116,
        0.116,
        0.117,
        0.117,
        0.117,
        0.118,
        0.119,
        0.119
    ]
}