{
    "0": [
        0.121,
        0.122,
        0.123,
        0.125,
        0.126,
        0.127,
        0.127,
        0.128,
        0.129,
        0.129
    ],
    "1": [
        0.138,
        0.139,
        0.14,
        0.141,
        0.142,
        0.143,
        0.144,
        0.144,
        0.145,
        0.145
    ],
    "2": [
        0.131,
        0.132,
        0.133,
        0.134,
        0.135,
        0.136,
        0.137,
        0.138,
        0.138,
        0.139
    ],
    "3": [
        0.126,
        0.126,
        0.127,
        0.128,
        0.128,
        0.129,
        0.129,
        0.13,
        0.13,
        0.131
    ],
    "4": [
        0.118,
        0.118,
        0.119,
        0.12,
        0.121,
        0.122,
        0.123,
        0.123,
        0.124,
        0.124
    ]
}