{
    "0": [
        0.132,
        0.133,
        0.135,
        0.136,
        0.137,
        0.138,
        0.139,
        0.14,
        0.142,
        0.142
    ],
    "1": [
        0.117,
        0.118,
        0.12,
        0.121,
        0.122,
        0.123,
        0.124,
        0.124,
        0.126,
        0.127
    ],
    "2": [
        0.118,
        0.119,
        0.121,
        0.122,
        0.123,
        0.124,
        0.125,
        0.126,
        0.127,
        0.128
    ],
    "3": [
        0.117,
        0.118,
        0.12,
        0.121,
        0.122,
        0.122,
        0.123,
        0.124,
        0.124,
        0.125
    ],
    "4": [
        0.145,
        0.146,
        0.148,
        0.148,
        0.149,
        0.15,
        0.15,
        0.151,
        0.152,
        0.152
    ]
}