{
    "0": [
        0.154,
        0.155,
        0.156,
        0.157,
        0.158,
        0.159,
        0.16,
        0.161,
        0.162,
        0.162
    ],
    "1": [
        0.146,
        0.148,
        0.149,
        0.15,
        0.152,
        0.153,
        0.154,
        0.155,
        0.156,
        0.157
    ],
    "2": [
        0.129,
        0.13,
        0.131,
        0.132,
        0.133,
        0.135,
        0.135,
        0.136,
        0.137,
        0.138
    ],
    "3": [
        0.134,
        0.135,
        0.135,
        0.136,
        0.138,
        0.139,
        0.14,
        0.141,
        0.142,
        0.143
    ],
    "4": [
        0.141,
        0.142,
        0.143,
        0.143,
        0.145,
        0.148,
        0.149,
        0.149,
        0.15,
        0.151
    ]
}