{
    "0": {
        "parsing": 0.046,
        "smoothing": 0.116,
        "top": 0.129,
        "total": 0.41597509384155273
    },
    "1": {
        "parsing": 0.046,
        "smoothing": 0.11,
        "top": 0.13,
        "total": 0.4158608913421631
    },
    "2": {
        "parsing": 0.045,
        "smoothing": 0.112,
        "top": 0.121,
        "total": 0.36574673652648926
    },
    "3": {
        "parsing": 0.046,
        "smoothing": 0.114,
        "top": 0.123,
        "total": 0.3656175136566162
    },
    "4": {
        "parsing": 0.045,
        "smoothing": 0.11,
        "top": 0.127,
        "total": 0.36579465866088867
    }
}