{
    "0": {
        "parsing": 0.045,
        "smoothing": 0.122,
        "top": 0.116,
        "total": 0.4156174659729004
    },
    "1": {
        "parsing": 0.045,
        "smoothing": 0.117,
        "top": 0.124,
        "total": 0.41606593132019043
    },
    "2": {
        "parsing": 0.045,
        "smoothing": 0.117,
        "top": 0.118,
        "total": 0.3654780387878418
    },
    "3": {
        "parsing": 0.045,
        "smoothing": 0.116,
        "top": 0.135,
        "total": 0.41568660736083984
    },
    "4": {
        "parsing": 0.045,
        "smoothing": 0.115,
        "top": 0.12,
        "total": 0.4157533645629883
    }
}