{
    "0": {
        "parsing": 0.021,
        "smoothing": 0.028,
        "top": 0.026,
        "total": 0.1649022102355957
    },
    "1": {
        "parsing": 0.021,
        "smoothing": 0.027,
        "top": 0.026,
        "total": 0.16505932807922363
    },
    "2": {
        "parsing": 0.022,
        "smoothing": 0.027,
        "top": 0.025,
        "total": 0.16530060768127441
    },
    "3": {
        "parsing": 0.022,
        "smoothing": 0.027,
        "top": 0.026,
        "total": 0.16506242752075195
    },
    "4": {
        "parsing": 0.022,
        "smoothing": 0.027,
        "top": 0.026,
        "total": 0.16518616676330566
    }
}