{
    "0": {
        "parsing": 0.017,
        "smoothing": 0.02,
        "top": 0.017,
        "total": 0.16533684730529785
    },
    "1": {
        "parsing": 0.017,
        "smoothing": 0.02,
        "top": 0.017,
        "total": 0.1649799346923828
    },
    "2": {
        "parsing": 0.017,
        "smoothing": 0.02,
        "top": 0.017,
        "total": 0.16510391235351562
    },
    "3": {
        "parsing": 0.017,
        "smoothing": 0.02,
        "top": 0.016,
        "total": 0.16509270668029785
    },
    "4": {
        "parsing": 0.018,
        "smoothing": 0.02,
        "top": 0.016,
        "total": 0.16505694389343262
    }
}