{
    "0": {
        "parsing": 0.02,
        "smoothing": 0.023,
        "top": 0.018,
        "total": 0.16524147987365723
    },
    "1": {
        "parsing": 0.02,
        "smoothing": 0.023,
        "top": 0.019,
        "total": 0.16501927375793457
    },
    "2": {
        "parsing": 0.02,
        "smoothing": 0.024,
        "top": 0.019,
        "total": 0.16510486602783203
    },
    "3": {
        "parsing": 0.02,
        "smoothing": 0.024,
        "top": 0.018,
        "total": 0.1651020050048828
    },
    "4": {
        "parsing": 0.02,
        "smoothing": 0.024,
        "top": 0.018,
        "total": 0.16525936126708984
    }
}