{
    "0": {
        "parsing": 0.023,
        "smoothing": 0.029,
        "top": 0.024,
        "total": 0.16514229774475098
    },
    "1": {
        "parsing": 0.023,
        "smoothing": 0.03,
        "top": 0.024,
        "total": 0.16527915000915527
    },
    "2": {
        "parsing": 0.023,
        "smoothing": 0.03,
        "top": 0.024,
        "total": 0.16500282287597656
    },
    "3": {
        "parsing": 0.023,
        "smoothing": 0.03,
        "top": 0.024,
        "total": 0.16525769233703613
    },
    "4": {
        "parsing": 0.023,
        "smoothing": 0.031,
        "top": 0.024,
        "total": 0.16537141799926758
    }
}