{
    "0": {
        "parsing": 0.026,
        "smoothing": 0.035,
        "top": 0.029,
        "total": 0.1649494171142578
    },
    "1": {
        "parsing": 0.026,
        "smoothing": 0.034,
        "top": 0.03,
        "total": 0.16522002220153809
    },
    "2": {
        "parsing": 0.026,
        "smoothing": 0.035,
        "top": 0.029,
        "total": 0.16510820388793945
    },
    "3": {
        "parsing": 0.026,
        "smoothing": 0.034,
        "top": 0.029,
        "total": 0.16505861282348633
    },
    "4": {
        "parsing": 0.026,
        "smoothing": 0.036,
        "top": 0.03,
        "total": 0.16528987884521484
    }
}