{
    "0": {
        "parsing": 0.027,
        "smoothing": 0.048,
        "top": 0.035,
        "total": 0.21519708633422852
    },
    "1": {
        "parsing": 0.026,
        "smoothing": 0.044,
        "top": 0.035,
        "total": 0.2152876853942871
    },
    "2": {
        "parsing": 0.026,
        "smoothing": 0.045,
        "top": 0.035,
        "total": 0.21549320220947266
    },
    "3": {
        "parsing": 0.027,
        "smoothing": 0.048,
        "top": 0.035,
        "total": 0.2152259349822998
    },
    "4": {
        "parsing": 0.026,
        "smoothing": 0.048,
        "top": 0.034,
        "total": 0.21516847610473633
    }
}