{
    "0": {
        "parsing": 0.182,
        "smoothing": 1.096,
        "top": 0.904,
        "total": 2.2712061405181885
    },
    "1": {
        "parsing": 0.186,
        "smoothing": 1.058,
        "top": 0.904,
        "total": 2.271301507949829
    },
    "2": {
        "parsing": 0.184,
        "smoothing": 1.083,
        "top": 0.937,
        "total": 2.3229565620422363
    },
    "3": {
        "parsing": 0.193,
        "smoothing": 1.144,
        "top": 1.028,
        "total": 2.477896213531494
    },
    "4": {
        "parsing": 0.202,
        "smoothing": 1.12,
        "top": 0.938,
        "total": 2.374506711959839
    }
}