{
    "0": {
        "parsing": 0.016,
        "smoothing": 0.017,
        "top": 0.014,
        "total": 0.11494255065917969
    },
    "1": {
        "parsing": 0.016,
        "smoothing": 0.017,
        "top": 0.014,
        "total": 0.11495852470397949
    },
    "2": {
        "parsing": 0.016,
        "smoothing": 0.017,
        "top": 0.014,
        "total": 0.11505889892578125
    },
    "3": {
        "parsing": 0.016,
        "smoothing": 0.018,
        "top": 0.014,
        "total": 0.11494016647338867
    },
    "4": {
        "parsing": 0.016,
        "smoothing": 0.017,
        "top": 0.013,
        "total": 0.11491608619689941
    }
}