{
    "0": {
        "parsing": 0.013,
        "smoothing": 0.01,
        "top": 0.008,
        "total": 0.11493110656738281
    },
    "1": {
        "parsing": 0.013,
        "smoothing": 0.011,
        "top": 0.009,
        "total": 0.11495232582092285
    },
    "2": {
        "parsing": 0.013,
        "smoothing": 0.01,
        "top": 0.009,
        "total": 0.11487340927124023
    },
    "3": {
        "parsing": 0.014,
        "smoothing": 0.011,
        "top": 0.009,
        "total": 0.11489558219909668
    },
    "4": {
        "parsing": 0.013,
        "smoothing": 0.01,
        "top": 0.009,
        "total": 0.11484503746032715
    }
}