{
    "0": {
        "parsing": 0.062,
        "smoothing": 0.252,
        "top": 0.203,
        "total": 0.6165256500244141
    },
    "1": {
        "parsing": 0.059,
        "smoothing": 0.248,
        "top": 0.2,
        "total": 0.6165401935577393
    },
    "2": {
        "parsing": 0.063,
        "smoothing": 0.243,
        "top": 0.207,
        "total": 0.6164946556091309
    },
    "3": {
        "parsing": 0.061,
        "smoothing": 0.257,
        "top": 0.207,
        "total": 0.6169712543487549
    },
    "4": {
        "parsing": 0.061,
        "smoothing": 0.252,
        "top": 0.174,
        "total": 0.6165039539337158
    }
}