{
    "0": {
        "parsing": 0.072,
        "smoothing": 0.333,
        "top": 0.308,
        "total": 0.817704439163208
    },
    "1": {
        "parsing": 0.072,
        "smoothing": 0.34,
        "top": 0.29,
        "total": 0.817284107208252
    },
    "2": {
        "parsing": 0.071,
        "smoothing": 0.33,
        "top": 0.305,
        "total": 0.8173296451568604
    },
    "3": {
        "parsing": 0.071,
        "smoothing": 0.339,
        "top": 0.309,
        "total": 0.8173549175262451
    },
    "4": {
        "parsing": 0.072,
        "smoothing": 0.338,
        "top": 0.33,
        "total": 0.8176147937774658
    }
}