{
    "0": {
        "parsing": 0.018,
        "smoothing": 0.016,
        "top": 0.017,
        "total": 0.16520452499389648
    },
    "1": {
        "parsing": 0.018,
        "smoothing": 0.016,
        "top": 0.017,
        "total": 0.16515159606933594
    },
    "2": {
        "parsing": 0.017,
        "smoothing": 0.015,
        "top": 0.017,
        "total": 0.16514205932617188
    },
    "3": {
        "parsing": 0.017,
        "smoothing": 0.016,
        "top": 0.017,
        "total": 0.16505813598632812
    },
    "4": {
        "parsing": 0.017,
        "smoothing": 0.016,
        "top": 0.018,
        "total": 0.1651442050933838
    }
}