{
    "0": {
        "parsing": 0.01,
        "smoothing": 0.003,
        "top": 0.004,
        "total": 0.1147146224975586
    },
    "1": {
        "parsing": 0.01,
        "smoothing": 0.003,
        "top": 0.004,
        "total": 0.1149752140045166
    },
    "2": {
        "parsing": 0.01,
        "smoothing": 0.003,
        "top": 0.004,
        "total": 0.11485958099365234
    },
    "3": {
        "parsing": 0.01,
        "smoothing": 0.003,
        "top": 0.004,
        "total": 0.1146998405456543
    },
    "4": {
        "parsing": 0.01,
        "smoothing": 0.003,
        "top": 0.004,
        "total": 0.11500096321105957
    }
}