{
    "0": {
        "parsing": 0.021,
        "smoothing": 0.026,
        "top": 0.021,
        "total": 0.1649796962738037
    },
    "1": {
        "parsing": 0.021,
        "smoothing": 0.027,
        "top": 0.021,
        "total": 0.16521072387695312
    },
    "2": {
        "parsing": 0.021,
        "smoothing": 0.026,
        "top": 0.021,
        "total": 0.16518568992614746
    },
    "3": {
        "parsing": 0.021,
        "smoothing": 0.026,
        "top": 0.021,
        "total": 0.1650831699371338
    },
    "4": {
        "parsing": 0.021,
        "smoothing": 0.026,
        "top": 0.021,
        "total": 0.16514182090759277
    }
}