{
    "0": {
        "parsing": 0.021,
        "smoothing": 0.024,
        "top": 0.019,
        "total": 0.16508841514587402
    },
    "1": {
        "parsing": 0.021,
        "smoothing": 0.024,
        "top": 0.02,
        "total": 0.16510248184204102
    },
    "2": {
        "parsing": 0.02,
        "smoothing": 0.024,
        "top": 0.019,
        "total": 0.16504621505737305
    },
    "3": {
        "parsing": 0.02,
        "smoothing": 0.024,
        "top": 0.02,
        "total": 0.1651749610900879
    },
    "4": {
        "parsing": 0.02,
        "smoothing": 0.024,
        "top": 0.02,
        "total": 0.1652677059173584
    }
}