{
    "0": {
        "parsing": 0.028,
        "smoothing": 0.057,
        "top": 0.046,
        "total": 0.21521210670471191
    },
    "1": {
        "parsing": 0.029,
        "smoothing": 0.061,
        "top": 0.049,
        "total": 0.21535158157348633
    },
    "2": {
        "parsing": 0.028,
        "smoothing": 0.062,
        "top": 0.046,
        "total": 0.21546173095703125
    },
    "3": {
        "parsing": 0.032,
        "smoothing": 0.059,
        "top": 0.044,
        "total": 0.2153761386871338
    },
    "4": {
        "parsing": 0.028,
        "smoothing": 0.06,
        "top": 0.047,
        "total": 0.21524286270141602
    }
}