{
    "0": {
        "parsing": 0.093,
        "smoothing": 0.638,
        "top": 0.428,
        "total": 1.2682929039001465
    },
    "1": {
        "parsing": 0.099,
        "smoothing": 0.57,
        "top": 0.409,
        "total": 1.167970895767212
    },
    "2": {
        "parsing": 0.094,
        "smoothing": 0.625,
        "top": 0.435,
        "total": 1.2682547569274902
    },
    "3": {
        "parsing": 0.095,
        "smoothing": 0.589,
        "top": 0.394,
        "total": 1.168332815170288
    },
    "4": {
        "parsing": 0.095,
        "smoothing": 0.597,
        "top": 0.449,
        "total": 1.268747329711914
    }
}