{
    "0": {
        "parsing": 0.166,
        "smoothing": 1.03,
        "top": 0.739,
        "total": 2.0202417373657227
    },
    "1": {
        "parsing": 0.163,
        "smoothing": 1.063,
        "top": 0.738,
        "total": 2.0726094245910645
    },
    "2": {
        "parsing": 0.167,
        "smoothing": 1.013,
        "top": 0.741,
        "total": 2.0206170082092285
    },
    "3": {
        "parsing": 0.168,
        "smoothing": 1.044,
        "top": 0.75,
        "total": 2.0704565048217773
    },
    "4": {
        "parsing": 0.162,
        "smoothing": 1.058,
        "top": 0.761,
        "total": 2.071078062057495
    }
}