{
    "0": {
        "parsing": 0.028,
        "smoothing": 0.043,
        "top": 0.039,
        "total": 0.2152693271636963
    },
    "1": {
        "parsing": 0.029,
        "smoothing": 0.043,
        "top": 0.038,
        "total": 0.2150862216949463
    },
    "2": {
        "parsing": 0.028,
        "smoothing": 0.042,
        "top": 0.039,
        "total": 0.21506381034851074
    },
    "3": {
        "parsing": 0.028,
        "smoothing": 0.041,
        "top": 0.038,
        "total": 0.21517133712768555
    },
    "4": {
        "parsing": 0.028,
        "smoothing": 0.041,
        "top": 0.038,
        "total": 0.21525883674621582
    }
}