{
    "0": {
        "parsing": 0.018,
        "smoothing": 0.02,
        "top": 0.02,
        "total": 0.16494512557983398
    },
    "1": {
        "parsing": 0.017,
        "smoothing": 0.02,
        "top": 0.02,
        "total": 0.1652083396911621
    },
    "2": {
        "parsing": 0.018,
        "smoothing": 0.02,
        "top": 0.021,
        "total": 0.1650373935699463
    },
    "3": {
        "parsing": 0.017,
        "smoothing": 0.02,
        "top": 0.02,
        "total": 0.16510701179504395
    },
    "4": {
        "parsing": 0.017,
        "smoothing": 0.02,
        "top": 0.02,
        "total": 0.16501665115356445
    }
}