{
    "0": [
        0.022456884384155273,
        "TimeOut"
    ],
    "1": [
        0.024370670318603516,
        "TimeOut"
    ],
    "2": [
        0.019070148468017578,
        "TimeOut"
    ],
    "3": [
        0.02317643165588379,
        "TimeOut"
    ],
    "4": [
        0.0213320255279541,
        "UNKNOWN"
    ]
}