{
    "0": [
        0.019880294799804688,
        "UNKNOWN"
    ],
    "1": [
        0.0177915096282959,
        "UNKNOWN"
    ],
    "2": [
        0.01562047004699707,
        "UNKNOWN"
    ],
    "3": [
        0.01777958869934082,
        "TimeOut"
    ],
    "4": [
        0.019137859344482422,
        "TimeOut"
    ]
}