{
    "0": [
        0.025100231170654297,
        "UNKNOWN"
    ],
    "1": [
        0.025393247604370117,
        "TimeOut"
    ],
    "2": [
        0.027045011520385742,
        "TimeOut"
    ],
    "3": [
        0.028950214385986328,
        "UNKNOWN"
    ],
    "4": [
        0.029346704483032227,
        "TimeOut"
    ]
}