{
    "0": [
        0.040666818618774414,
        "UNKNOWN"
    ],
    "1": [
        0.027869462966918945,
        "TimeOut"
    ],
    "2": [
        0.026991844177246094,
        "UNKNOWN"
    ],
    "3": [
        0.03301048278808594,
        "UNKNOWN"
    ],
    "4": [
        0.03351736068725586,
        "TimeOut"
    ]
}