{
    "0": [
        0.013562917709350586,
        "TimeOut"
    ],
    "1": [
        0.01967000961303711,
        "TimeOut"
    ],
    "2": [
        0.01932358741760254,
        "UNKNOWN"
    ],
    "3": [
        0.016179561614990234,
        "UNKNOWN"
    ],
    "4": [
        0.01891303062438965,
        "TimeOut"
    ]
}