{
    "0": [
        0.01735663414001465,
        "UNKNOWN"
    ],
    "1": [
        0.015846729278564453,
        "TimeOut"
    ],
    "2": [
        0.01912856101989746,
        "UNKNOWN"
    ],
    "3": [
        0.01850414276123047,
        "TimeOut"
    ],
    "4": [
        0.019125938415527344,
        "TimeOut"
    ]
}