{
    "0": [
        0.010546684265136719,
        5.282597541809082,
        "UNSAT"
    ],
    "1": [
        0.017661094665527344,
        7.443022966384888,
        "UNSAT"
    ],
    "2": [
        0.025021791458129883,
        8.925209045410156,
        "UNSAT"
    ],
    "3": [
        0.02778029441833496,
        10.021829843521118,
        "UNSAT"
    ],
    "4": [
        0.03783416748046875,
        11.161598920822144,
        "UNSAT"
    ]
}