{
    "0": [
        0.04256081581115723,
        "TimeOut"
    ],
    "1": [
        0.04386782646179199,
        "TimeOut"
    ],
    "2": [
        0.0431218147277832,
        "TimeOut"
    ],
    "3": [
        0.04322934150695801,
        "UNKNOWN"
    ],
    "4": [
        0.04126095771789551,
        "TimeOut"
    ]
}