{
    "0": [
        0.12182450294494629,
        "TimeOut"
    ],
    "1": [
        0.0177764892578125,
        "UNKNOWN"
    ],
    "2": [
        0.016874074935913086,
        "UNKNOWN"
    ],
    "3": [
        0.025300979614257812,
        "UNKNOWN"
    ],
    "4": [
        0.016739845275878906,
        "TimeOut"
    ]
}