{
    "0": [
        0.04094266891479492,
        "UNKNOWN"
    ],
    "1": [
        0.013307571411132812,
        "UNKNOWN"
    ],
    "2": [
        0.013187885284423828,
        "TimeOut"
    ],
    "3": [
        0.012559652328491211,
        "UNKNOWN"
    ],
    "4": [
        0.014794111251831055,
        "UNKNOWN"
    ]
}