{
    "0": [
        0.03686046600341797,
        "UNKNOWN"
    ],
    "1": [
        0.030384302139282227,
        "TimeOut"
    ],
    "2": [
        0.025795698165893555,
        "TimeOut"
    ],
    "3": [
        0.030150413513183594,
        "UNKNOWN"
    ],
    "4": [
        0.02933502197265625,
        "UNKNOWN"
    ]
}