{
    "0": [
        26.350953102111816,
        "UNKNOWN"
    ],
    "1": [
        0.05536007881164551,
        "TimeOut"
    ],
    "2": [
        0.020192384719848633,
        "TimeOut"
    ],
    "3": [
        0.029793262481689453,
        "UNKNOWN"
    ],
    "4": [
        0.024961471557617188,
        "TimeOut"
    ]
}