{
    "0": [
        0.010484457015991211,
        "UNKNOWN"
    ],
    "1": [
        0.016821861267089844,
        "TimeOut"
    ],
    "2": [
        0.016933441162109375,
        "TimeOut"
    ],
    "3": [
        0.01731562614440918,
        "TimeOut"
    ],
    "4": [
        0.017085790634155273,
        "TimeOut"
    ]
}