{
    "0": [
        0.03845620155334473,
        "UNKNOWN"
    ],
    "1": [
        0.020723819732666016,
        "TimeOut"
    ],
    "2": [
        0.018181800842285156,
        "UNKNOWN"
    ],
    "3": [
        0.01644301414489746,
        "TimeOut"
    ],
    "4": [
        0.019298791885375977,
        "TimeOut"
    ]
}