{
    "0": [
        0.021345853805541992,
        "TimeOut"
    ],
    "1": [
        0.016763687133789062,
        "TimeOut"
    ],
    "2": [
        0.020537137985229492,
        "UNKNOWN"
    ],
    "3": [
        0.01946854591369629,
        "UNKNOWN"
    ],
    "4": [
        0.020723342895507812,
        "UNKNOWN"
    ]
}