{
    "0": [
        0.035643577575683594,
        "UNKNOWN"
    ],
    "1": [
        0.019255876541137695,
        "UNKNOWN"
    ],
    "2": [
        0.021282672882080078,
        "UNKNOWN"
    ],
    "3": [
        0.020876646041870117,
        "TimeOut"
    ],
    "4": [
        0.01896953582763672,
        "UNKNOWN"
    ]
}