{
    "0": [
        0.020684242248535156,
        "TimeOut"
    ],
    "1": [
        0.02301192283630371,
        "UNKNOWN"
    ],
    "2": [
        0.02439713478088379,
        "UNKNOWN"
    ],
    "3": [
        0.024379730224609375,
        "UNKNOWN"
    ],
    "4": [
        0.023360490798950195,
        "TimeOut"
    ]
}