{
    "0": [
        0.013024330139160156,
        "TimeOut"
    ],
    "1": [
        0.021370649337768555,
        "TimeOut"
    ],
    "2": [
        0.016565322875976562,
        "TimeOut"
    ],
    "3": [
        0.015619516372680664,
        "TimeOut"
    ],
    "4": [
        0.022946596145629883,
        "UNKNOWN"
    ]
}