{
    "0": [
        0.019180774688720703,
        "TimeOut"
    ],
    "1": [
        0.02080059051513672,
        "UNKNOWN"
    ],
    "2": [
        0.019498825073242188,
        "TimeOut"
    ],
    "3": [
        0.020008087158203125,
        "UNKNOWN"
    ],
    "4": [
        0.017357349395751953,
        "UNKNOWN"
    ]
}