{
    "0": [
        0.03792309761047363,
        "UNKNOWN"
    ],
    "1": [
        0.024380207061767578,
        "UNKNOWN"
    ],
    "2": [
        0.024229049682617188,
        "UNKNOWN"
    ],
    "3": [
        0.02145528793334961,
        "UNKNOWN"
    ],
    "4": [
        0.023691654205322266,
        "UNKNOWN"
    ]
}