{
    "0": {
        "parsing": 0.018,
        "smoothing": 0.013,
        "top": 0.021,
        "total": 0.16493964195251465
    },
    "1": {
        "parsing": 0.018,
        "smoothing": 0.014,
        "top": 0.02,
        "total": 0.1652984619140625
    },
    "2": {
        "parsing": 0.018,
        "smoothing": 0.014,
        "top": 0.021,
        "total": 0.1651601791381836
    },
    "3": {
        "parsing": 0.017,
        "smoothing": 0.014,
        "top": 0.021,
        "total": 0.1652219295501709
    },
    "4": {
        "parsing": 0.018,
        "smoothing": 0.013,
        "top": 0.02,
        "total": 0.16525983810424805
    }
}