{
    "0": {
        "parsing": 0.013,
        "smoothing": 0.012,
        "top": 0.011,
        "total": 0.11487174034118652
    },
    "1": {
        "parsing": 0.013,
        "smoothing": 0.012,
        "top": 0.011,
        "total": 0.11510276794433594
    },
    "2": {
        "parsing": 0.013,
        "smoothing": 0.012,
        "top": 0.011,
        "total": 0.11512041091918945
    },
    "3": {
        "parsing": 0.013,
        "smoothing": 0.012,
        "top": 0.011,
        "total": 0.11500859260559082
    },
    "4": {
        "parsing": 0.013,
        "smoothing": 0.011,
        "top": 0.011,
        "total": 0.11474108695983887
    }
}