{
    "0": {
        "parsing": 0.072,
        "smoothing": 0.339,
        "top": 0.323,
        "total": 0.8164896965026855
    },
    "1": {
        "parsing": 0.071,
        "smoothing": 0.346,
        "top": 0.316,
        "total": 0.8166160583496094
    },
    "2": {
        "parsing": 0.071,
        "smoothing": 0.329,
        "top": 0.316,
        "total": 0.816868782043457
    },
    "3": {
        "parsing": 0.073,
        "smoothing": 0.342,
        "top": 0.32,
        "total": 0.8669986724853516
    },
    "4": {
        "parsing": 0.071,
        "smoothing": 0.343,
        "top": 0.313,
        "total": 0.867002010345459
    }
}