{
    "0": {
        "parsing": 0.027,
        "smoothing": 0.038,
        "top": 0.039,
        "total": 0.21521806716918945
    },
    "1": {
        "parsing": 0.027,
        "smoothing": 0.038,
        "top": 0.039,
        "total": 0.21548056602478027
    },
    "2": {
        "parsing": 0.027,
        "smoothing": 0.039,
        "top": 0.039,
        "total": 0.21548748016357422
    },
    "3": {
        "parsing": 0.027,
        "smoothing": 0.039,
        "top": 0.04,
        "total": 0.21526670455932617
    },
    "4": {
        "parsing": 0.027,
        "smoothing": 0.039,
        "top": 0.04,
        "total": 0.2154252529144287
    }
}