{
    "0": {
        "parsing": 0.017,
        "smoothing": 0.02,
        "top": 0.02,
        "total": 0.16512703895568848
    },
    "1": {
        "parsing": 0.017,
        "smoothing": 0.021,
        "top": 0.019,
        "total": 0.1648240089416504
    },
    "2": {
        "parsing": 0.017,
        "smoothing": 0.021,
        "top": 0.019,
        "total": 0.16485810279846191
    },
    "3": {
        "parsing": 0.017,
        "smoothing": 0.02,
        "top": 0.02,
        "total": 0.1649308204650879
    },
    "4": {
        "parsing": 0.018,
        "smoothing": 0.021,
        "top": 0.02,
        "total": 0.1649775505065918
    }
}