{
    "0": {
        "parsing": 0.064,
        "smoothing": 0.257,
        "top": 0.227,
        "total": 0.6697468757629395
    },
    "1": {
        "parsing": 0.062,
        "smoothing": 0.242,
        "top": 0.209,
        "total": 0.6169912815093994
    },
    "2": {
        "parsing": 0.063,
        "smoothing": 0.248,
        "top": 0.217,
        "total": 0.667151689529419
    },
    "3": {
        "parsing": 0.063,
        "smoothing": 0.251,
        "top": 0.216,
        "total": 0.6170165538787842
    },
    "4": {
        "parsing": 0.063,
        "smoothing": 0.251,
        "top": 0.204,
        "total": 0.6170303821563721
    }
}