{
    "0": {
        "parsing": 0.224,
        "smoothing": 1.163,
        "top": 1.062,
        "total": 2.571592092514038
    },
    "1": {
        "parsing": 0.217,
        "smoothing": 1.128,
        "top": 1.238,
        "total": 2.721639394760132
    },
    "2": {
        "parsing": 0.221,
        "smoothing": 1.125,
        "top": 1.174,
        "total": 2.623394250869751
    },
    "3": {
        "parsing": 0.217,
        "smoothing": 1.128,
        "top": 1.11,
        "total": 2.5725042819976807
    },
    "4": {
        "parsing": 0.211,
        "smoothing": 1.11,
        "top": 1.102,
        "total": 2.5225284099578857
    }
}