{
    "0": {
        "parsing": 0.047,
        "smoothing": 0.119,
        "top": 0.125,
        "total": 0.4161233901977539
    },
    "1": {
        "parsing": 0.045,
        "smoothing": 0.115,
        "top": 0.128,
        "total": 0.41611647605895996
    },
    "2": {
        "parsing": 0.045,
        "smoothing": 0.116,
        "top": 0.135,
        "total": 0.4161713123321533
    },
    "3": {
        "parsing": 0.045,
        "smoothing": 0.119,
        "top": 0.131,
        "total": 0.36598825454711914
    },
    "4": {
        "parsing": 0.045,
        "smoothing": 0.117,
        "top": 0.125,
        "total": 0.3658618927001953
    }
}