{
    "0": {
        "parsing": 0.013,
        "smoothing": 0.012,
        "top": 0.011,
        "total": 0.11464619636535645
    },
    "1": {
        "parsing": 0.013,
        "smoothing": 0.012,
        "top": 0.011,
        "total": 0.11484241485595703
    },
    "2": {
        "parsing": 0.013,
        "smoothing": 0.011,
        "top": 0.011,
        "total": 0.11483144760131836
    },
    "3": {
        "parsing": 0.013,
        "smoothing": 0.011,
        "top": 0.011,
        "total": 0.11481952667236328
    },
    "4": {
        "parsing": 0.013,
        "smoothing": 0.012,
        "top": 0.011,
        "total": 0.11485099792480469
    }
}