{
    "0": {
        "parsing": 0.024,
        "smoothing": 0.031,
        "top": 0.028,
        "total": 0.16483402252197266
    },
    "1": {
        "parsing": 0.023,
        "smoothing": 0.03,
        "top": 0.03,
        "total": 0.1649942398071289
    },
    "2": {
        "parsing": 0.023,
        "smoothing": 0.031,
        "top": 0.029,
        "total": 0.16490674018859863
    },
    "3": {
        "parsing": 0.023,
        "smoothing": 0.03,
        "top": 0.028,
        "total": 0.1651146411895752
    },
    "4": {
        "parsing": 0.024,
        "smoothing": 0.031,
        "top": 0.029,
        "total": 0.1649324893951416
    }
}