{
    "0": {
        "parsing": 0.014,
        "smoothing": 0.013,
        "top": 0.012,
        "total": 0.11507105827331543
    },
    "1": {
        "parsing": 0.014,
        "smoothing": 0.013,
        "top": 0.011,
        "total": 0.1147005558013916
    },
    "2": {
        "parsing": 0.014,
        "smoothing": 0.013,
        "top": 0.012,
        "total": 0.1149756908416748
    },
    "3": {
        "parsing": 0.014,
        "smoothing": 0.012,
        "top": 0.011,
        "total": 0.11483883857727051
    },
    "4": {
        "parsing": 0.014,
        "smoothing": 0.013,
        "top": 0.011,
        "total": 0.11491203308105469
    }
}