{
    "0": {
        "parsing": 0.013,
        "smoothing": 0.009,
        "top": 0.011,
        "total": 0.1146707534790039
    },
    "1": {
        "parsing": 0.012,
        "smoothing": 0.009,
        "top": 0.011,
        "total": 0.11484766006469727
    },
    "2": {
        "parsing": 0.013,
        "smoothing": 0.009,
        "top": 0.011,
        "total": 0.11471915245056152
    },
    "3": {
        "parsing": 0.013,
        "smoothing": 0.009,
        "top": 0.011,
        "total": 0.11484313011169434
    },
    "4": {
        "parsing": 0.015,
        "smoothing": 0.011,
        "top": 0.011,
        "total": 0.11489081382751465
    }
}