{
    "0": {
        "parsing": 0.019,
        "smoothing": 0.022,
        "top": 0.019,
        "total": 0.16514039039611816
    },
    "1": {
        "parsing": 0.018,
        "smoothing": 0.022,
        "top": 0.02,
        "total": 0.16496801376342773
    },
    "2": {
        "parsing": 0.018,
        "smoothing": 0.022,
        "top": 0.021,
        "total": 0.1650862693786621
    },
    "3": {
        "parsing": 0.018,
        "smoothing": 0.022,
        "top": 0.02,
        "total": 0.16496849060058594
    },
    "4": {
        "parsing": 0.018,
        "smoothing": 0.021,
        "top": 0.02,
        "total": 0.16498112678527832
    }
}