{
    "0": {
        "parsing": 0.01,
        "smoothing": 0.002,
        "top": 0.004,
        "total": 0.11489748954772949
    },
    "1": {
        "parsing": 0.01,
        "smoothing": 0.002,
        "top": 0.004,
        "total": 0.11507701873779297
    },
    "2": {
        "parsing": 0.01,
        "smoothing": 0.002,
        "top": 0.004,
        "total": 0.11515402793884277
    },
    "3": {
        "parsing": 0.01,
        "smoothing": 0.002,
        "top": 0.005,
        "total": 0.11499333381652832
    },
    "4": {
        "parsing": 0.01,
        "smoothing": 0.002,
        "top": 0.004,
        "total": 0.11488509178161621
    }
}