{
    "0": {
        "parsing": 0.01,
        "smoothing": 0.002,
        "top": 0.004,
        "total": 0.11497044563293457
    },
    "1": {
        "parsing": 0.01,
        "smoothing": 0.002,
        "top": 0.004,
        "total": 0.1150808334350586
    },
    "2": {
        "parsing": 0.01,
        "smoothing": 0.002,
        "top": 0.004,
        "total": 0.11497664451599121
    },
    "3": {
        "parsing": 0.01,
        "smoothing": 0.002,
        "top": 0.005,
        "total": 0.11511969566345215
    },
    "4": {
        "parsing": 0.01,
        "smoothing": 0.002,
        "top": 0.005,
        "total": 0.11489725112915039
    }
}