{
    "0": {
        "parsing": 0.018,
        "smoothing": 0.022,
        "top": 0.018,
        "total": 0.1650083065032959
    },
    "1": {
        "parsing": 0.018,
        "smoothing": 0.022,
        "top": 0.018,
        "total": 0.16506528854370117
    },
    "2": {
        "parsing": 0.018,
        "smoothing": 0.022,
        "top": 0.019,
        "total": 0.1649930477142334
    },
    "3": {
        "parsing": 0.018,
        "smoothing": 0.022,
        "top": 0.018,
        "total": 0.16496801376342773
    },
    "4": {
        "parsing": 0.018,
        "smoothing": 0.022,
        "top": 0.017,
        "total": 0.1649777889251709
    }
}