{
    "0": {
        "parsing": 0.019,
        "smoothing": 0.022,
        "top": 0.022,
        "total": 0.1651475429534912
    },
    "1": {
        "parsing": 0.02,
        "smoothing": 0.023,
        "top": 0.021,
        "total": 0.1651592254638672
    },
    "2": {
        "parsing": 0.019,
        "smoothing": 0.023,
        "top": 0.021,
        "total": 0.16536617279052734
    },
    "3": {
        "parsing": 0.02,
        "smoothing": 0.022,
        "top": 0.022,
        "total": 0.16523981094360352
    },
    "4": {
        "parsing": 0.019,
        "smoothing": 0.024,
        "top": 0.022,
        "total": 0.16517305374145508
    }
}