{
    "0": {
        "parsing": 0.045,
        "smoothing": 0.044,
        "top": 0.029,
        "total": 0.21514439582824707
    },
    "1": {
        "parsing": 0.046,
        "smoothing": 0.046,
        "top": 0.029,
        "total": 0.21543216705322266
    },
    "2": {
        "parsing": 0.048,
        "smoothing": 0.05,
        "top": 0.031,
        "total": 0.21531057357788086
    },
    "3": {
        "parsing": 0.046,
        "smoothing": 0.045,
        "top": 0.029,
        "total": 0.21532845497131348
    },
    "4": {
        "parsing": 0.045,
        "smoothing": 0.045,
        "top": 0.031,
        "total": 0.21545100212097168
    }
}