{
    "0": {
        "parsing": 0.189,
        "smoothing": 1.118,
        "top": 0.985,
        "total": 2.372135877609253
    },
    "1": {
        "parsing": 0.184,
        "smoothing": 1.094,
        "top": 0.978,
        "total": 2.371532440185547
    },
    "2": {
        "parsing": 0.187,
        "smoothing": 1.146,
        "top": 0.94,
        "total": 2.3714425563812256
    },
    "3": {
        "parsing": 0.187,
        "smoothing": 1.092,
        "top": 0.951,
        "total": 2.371516466140747
    },
    "4": {
        "parsing": 0.185,
        "smoothing": 1.062,
        "top": 0.956,
        "total": 2.320955753326416
    }
}