{
    "0": {
        "parsing": 0.017,
        "smoothing": 0.018,
        "top": 0.016,
        "total": 0.1649799346923828
    },
    "1": {
        "parsing": 0.016,
        "smoothing": 0.018,
        "top": 0.015,
        "total": 0.16515755653381348
    },
    "2": {
        "parsing": 0.016,
        "smoothing": 0.018,
        "top": 0.015,
        "total": 0.1652054786682129
    },
    "3": {
        "parsing": 0.016,
        "smoothing": 0.018,
        "top": 0.015,
        "total": 0.16518640518188477
    },
    "4": {
        "parsing": 0.017,
        "smoothing": 0.018,
        "top": 0.017,
        "total": 0.16523504257202148
    }
}