{
    "0": {
        "parsing": 0.018,
        "smoothing": 0.018,
        "top": 0.016,
        "total": 0.1650681495666504
    },
    "1": {
        "parsing": 0.018,
        "smoothing": 0.018,
        "top": 0.016,
        "total": 0.16508269309997559
    },
    "2": {
        "parsing": 0.018,
        "smoothing": 0.018,
        "top": 0.016,
        "total": 0.16514325141906738
    },
    "3": {
        "parsing": 0.018,
        "smoothing": 0.018,
        "top": 0.016,
        "total": 0.16503334045410156
    },
    "4": {
        "parsing": 0.017,
        "smoothing": 0.018,
        "top": 0.015,
        "total": 0.16520309448242188
    }
}