{
    "0": {
        "parsing": 0.019,
        "smoothing": 0.023,
        "top": 0.019,
        "total": 0.16505718231201172
    },
    "1": {
        "parsing": 0.021,
        "smoothing": 0.024,
        "top": 0.019,
        "total": 0.16520261764526367
    },
    "2": {
        "parsing": 0.02,
        "smoothing": 0.024,
        "top": 0.019,
        "total": 0.16518688201904297
    },
    "3": {
        "parsing": 0.019,
        "smoothing": 0.024,
        "top": 0.019,
        "total": 0.1652829647064209
    },
    "4": {
        "parsing": 0.02,
        "smoothing": 0.024,
        "top": 0.019,
        "total": 0.16522765159606934
    }
}