{
    "0": {
        "parsing": 0.189,
        "smoothing": 1.117,
        "top": 0.952,
        "total": 2.3724558353424072
    },
    "1": {
        "parsing": 0.184,
        "smoothing": 1.137,
        "top": 1.028,
        "total": 2.472071886062622
    },
    "2": {
        "parsing": 0.185,
        "smoothing": 1.1,
        "top": 1.017,
        "total": 2.4212512969970703
    },
    "3": {
        "parsing": 0.185,
        "smoothing": 1.121,
        "top": 0.985,
        "total": 2.4214489459991455
    },
    "4": {
        "parsing": 0.182,
        "smoothing": 1.115,
        "top": 0.92,
        "total": 2.3720734119415283
    }
}