{
    "0": {
        "parsing": 0.06,
        "smoothing": 0.261,
        "top": 0.185,
        "total": 0.6166508197784424
    },
    "1": {
        "parsing": 0.057,
        "smoothing": 0.257,
        "top": 0.166,
        "total": 0.5661952495574951
    },
    "2": {
        "parsing": 0.057,
        "smoothing": 0.256,
        "top": 0.19,
        "total": 0.6165480613708496
    },
    "3": {
        "parsing": 0.059,
        "smoothing": 0.255,
        "top": 0.191,
        "total": 0.616732120513916
    },
    "4": {
        "parsing": 0.059,
        "smoothing": 0.262,
        "top": 0.176,
        "total": 0.6165103912353516
    }
}