{
    "0": {
        "parsing": 0.013,
        "smoothing": 0.009,
        "top": 0.008,
        "total": 0.11497616767883301
    },
    "1": {
        "parsing": 0.013,
        "smoothing": 0.009,
        "top": 0.008,
        "total": 0.11487030982971191
    },
    "2": {
        "parsing": 0.013,
        "smoothing": 0.009,
        "top": 0.008,
        "total": 0.11508011817932129
    },
    "3": {
        "parsing": 0.013,
        "smoothing": 0.009,
        "top": 0.008,
        "total": 0.11508893966674805
    },
    "4": {
        "parsing": 0.013,
        "smoothing": 0.009,
        "top": 0.008,
        "total": 0.11506986618041992
    }
}