{
    "0": {
        "parsing": 0.023,
        "smoothing": 0.029,
        "top": 0.024,
        "total": 0.16511321067810059
    },
    "1": {
        "parsing": 0.023,
        "smoothing": 0.03,
        "top": 0.026,
        "total": 0.16510510444641113
    },
    "2": {
        "parsing": 0.023,
        "smoothing": 0.029,
        "top": 0.025,
        "total": 0.1653594970703125
    },
    "3": {
        "parsing": 0.023,
        "smoothing": 0.03,
        "top": 0.024,
        "total": 0.16507649421691895
    },
    "4": {
        "parsing": 0.024,
        "smoothing": 0.03,
        "top": 0.025,
        "total": 0.1651904582977295
    }
}