{
    "0": {
        "parsing": 0.037,
        "smoothing": 0.085,
        "top": 0.122,
        "total": 0.36554551124572754
    },
    "1": {
        "parsing": 0.037,
        "smoothing": 0.083,
        "top": 0.106,
        "total": 0.3658266067504883
    },
    "2": {
        "parsing": 0.037,
        "smoothing": 0.079,
        "top": 0.12,
        "total": 0.31570911407470703
    },
    "3": {
        "parsing": 0.037,
        "smoothing": 0.083,
        "top": 0.131,
        "total": 0.3661067485809326
    },
    "4": {
        "parsing": 0.037,
        "smoothing": 0.081,
        "top": 0.111,
        "total": 0.36597681045532227
    }
}