{
    "0": {
        "parsing": 0.017,
        "smoothing": 0.017,
        "top": 0.015,
        "total": 0.16488361358642578
    },
    "1": {
        "parsing": 0.016,
        "smoothing": 0.017,
        "top": 0.015,
        "total": 0.16506743431091309
    },
    "2": {
        "parsing": 0.017,
        "smoothing": 0.017,
        "top": 0.015,
        "total": 0.11508703231811523
    },
    "3": {
        "parsing": 0.016,
        "smoothing": 0.017,
        "top": 0.015,
        "total": 0.11530828475952148
    },
    "4": {
        "parsing": 0.017,
        "smoothing": 0.018,
        "top": 0.015,
        "total": 0.1649634838104248
    }
}