{
    "0": {
        "parsing": 0.01,
        "smoothing": 0.002,
        "top": 0.003,
        "total": 0.11501193046569824
    },
    "1": {
        "parsing": 0.01,
        "smoothing": 0.002,
        "top": 0.003,
        "total": 0.11502790451049805
    },
    "2": {
        "parsing": 0.009,
        "smoothing": 0.002,
        "top": 0.003,
        "total": 0.11504936218261719
    },
    "3": {
        "parsing": 0.01,
        "smoothing": 0.002,
        "top": 0.003,
        "total": 0.11504006385803223
    },
    "4": {
        "parsing": 0.01,
        "smoothing": 0.002,
        "top": 0.003,
        "total": 0.1148374080657959
    }
}