{
    "0": {
        "parsing": 0.022,
        "smoothing": 0.027,
        "top": 0.024,
        "total": 0.16516566276550293
    },
    "1": {
        "parsing": 0.022,
        "smoothing": 0.028,
        "top": 0.023,
        "total": 0.16539287567138672
    },
    "2": {
        "parsing": 0.021,
        "smoothing": 0.027,
        "top": 0.023,
        "total": 0.165205717086792
    },
    "3": {
        "parsing": 0.022,
        "smoothing": 0.027,
        "top": 0.023,
        "total": 0.16529202461242676
    },
    "4": {
        "parsing": 0.022,
        "smoothing": 0.028,
        "top": 0.023,
        "total": 0.16517353057861328
    }
}