{
    "0": {
        "parsing": 0.021,
        "smoothing": 0.027,
        "top": 0.021,
        "total": 0.1649928092956543
    },
    "1": {
        "parsing": 0.021,
        "smoothing": 0.026,
        "top": 0.021,
        "total": 0.16531705856323242
    },
    "2": {
        "parsing": 0.021,
        "smoothing": 0.026,
        "top": 0.022,
        "total": 0.1653285026550293
    },
    "3": {
        "parsing": 0.022,
        "smoothing": 0.026,
        "top": 0.022,
        "total": 0.16522979736328125
    },
    "4": {
        "parsing": 0.022,
        "smoothing": 0.026,
        "top": 0.022,
        "total": 0.16514992713928223
    }
}