{
    "0": {
        "parsing": 0.025,
        "smoothing": 0.037,
        "top": 0.028,
        "total": 0.1652376651763916
    },
    "1": {
        "parsing": 0.025,
        "smoothing": 0.037,
        "top": 0.028,
        "total": 0.16542625427246094
    },
    "2": {
        "parsing": 0.026,
        "smoothing": 0.038,
        "top": 0.029,
        "total": 0.16546154022216797
    },
    "3": {
        "parsing": 0.024,
        "smoothing": 0.037,
        "top": 0.028,
        "total": 0.16542482376098633
    },
    "4": {
        "parsing": 0.025,
        "smoothing": 0.038,
        "top": 0.027,
        "total": 0.16531062126159668
    }
}