{
    "0": {
        "parsing": 0.04,
        "smoothing": 0.117,
        "top": 0.103,
        "total": 0.4158742427825928
    },
    "1": {
        "parsing": 0.039,
        "smoothing": 0.11,
        "top": 0.104,
        "total": 0.3658008575439453
    },
    "2": {
        "parsing": 0.039,
        "smoothing": 0.111,
        "top": 0.108,
        "total": 0.36620140075683594
    },
    "3": {
        "parsing": 0.039,
        "smoothing": 0.112,
        "top": 0.11,
        "total": 0.3657853603363037
    },
    "4": {
        "parsing": 0.039,
        "smoothing": 0.103,
        "top": 0.107,
        "total": 0.36574625968933105
    }
}