{
    "0": {
        "parsing": 0.162,
        "smoothing": 0.959,
        "top": 0.704,
        "total": 1.9201064109802246
    },
    "1": {
        "parsing": 0.161,
        "smoothing": 0.955,
        "top": 0.808,
        "total": 2.021092414855957
    },
    "2": {
        "parsing": 0.164,
        "smoothing": 1.006,
        "top": 0.729,
        "total": 2.020840644836426
    },
    "3": {
        "parsing": 0.163,
        "smoothing": 1.055,
        "top": 0.719,
        "total": 2.0713162422180176
    },
    "4": {
        "parsing": 0.158,
        "smoothing": 0.921,
        "top": 0.728,
        "total": 1.9205374717712402
    }
}