{
    "0": {
        "parsing": 0.02,
        "smoothing": 0.023,
        "top": 0.016,
        "total": 0.16512799263000488
    },
    "1": {
        "parsing": 0.02,
        "smoothing": 0.023,
        "top": 0.015,
        "total": 0.16522622108459473
    },
    "2": {
        "parsing": 0.02,
        "smoothing": 0.022,
        "top": 0.015,
        "total": 0.165358304977417
    },
    "3": {
        "parsing": 0.02,
        "smoothing": 0.022,
        "top": 0.015,
        "total": 0.16542816162109375
    },
    "4": {
        "parsing": 0.02,
        "smoothing": 0.022,
        "top": 0.015,
        "total": 0.1651461124420166
    }
}