{
    "0": {
        "parsing": 0.015,
        "smoothing": 0.01,
        "top": 0.008,
        "total": 0.11484098434448242
    },
    "1": {
        "parsing": 0.015,
        "smoothing": 0.01,
        "top": 0.007,
        "total": 0.11511826515197754
    },
    "2": {
        "parsing": 0.015,
        "smoothing": 0.01,
        "top": 0.007,
        "total": 0.11484622955322266
    },
    "3": {
        "parsing": 0.015,
        "smoothing": 0.01,
        "top": 0.007,
        "total": 0.11489343643188477
    },
    "4": {
        "parsing": 0.015,
        "smoothing": 0.01,
        "top": 0.008,
        "total": 0.1147773265838623
    }
}