{
    "0": {
        "parsing": 0.017,
        "preparation": 0.015,
        "sampling": 0.035,
        "total": 0.12130331993103027
    },
    "1": {
        "parsing": 0.017,
        "preparation": 0.015,
        "sampling": 0.032,
        "total": 0.11898970603942871
    },
    "2": {
        "parsing": 0.017,
        "preparation": 0.015,
        "sampling": 0.034,
        "total": 0.12282729148864746
    },
    "3": {
        "parsing": 0.018,
        "preparation": 0.015,
        "sampling": 0.032,
        "total": 0.11911582946777344
    },
    "4": {
        "parsing": 0.017,
        "preparation": 0.015,
        "sampling": 0.034,
        "total": 0.12023305892944336
    }
}