{
    "0": {
        "parsing": 0.036,
        "preparation": 0.045,
        "sampling": 0.261,
        "total": 0.39156174659729004
    },
    "1": {
        "parsing": 0.036,
        "preparation": 0.044,
        "sampling": 0.254,
        "total": 0.3828999996185303
    },
    "2": {
        "parsing": 0.036,
        "preparation": 0.044,
        "sampling": 0.255,
        "total": 0.3822062015533447
    },
    "3": {
        "parsing": 0.036,
        "preparation": 0.046,
        "sampling": 0.265,
        "total": 0.3926553726196289
    },
    "4": {
        "parsing": 0.036,
        "preparation": 0.045,
        "sampling": 0.258,
        "total": 0.38521599769592285
    }
}