{
    "0": {
        "parsing": 0.026,
        "preparation": 0.032,
        "sampling": 0.008,
        "total": 0.12167978286743164
    },
    "1": {
        "parsing": 0.026,
        "preparation": 0.031,
        "sampling": 0.008,
        "total": 0.1206965446472168
    },
    "2": {
        "parsing": 0.026,
        "preparation": 0.031,
        "sampling": 0.008,
        "total": 0.1205298900604248
    },
    "3": {
        "parsing": 0.026,
        "preparation": 0.031,
        "sampling": 0.008,
        "total": 0.12091946601867676
    },
    "4": {
        "parsing": 0.026,
        "preparation": 0.031,
        "sampling": 0.008,
        "total": 0.11943340301513672
    }
}