{
    "0": {
        "parsing": 0.017,
        "preparation": 0.018,
        "sampling": 0.008,
        "total": 0.09738039970397949
    },
    "1": {
        "parsing": 0.017,
        "preparation": 0.018,
        "sampling": 0.009,
        "total": 0.09886884689331055
    },
    "2": {
        "parsing": 0.017,
        "preparation": 0.018,
        "sampling": 0.008,
        "total": 0.09771156311035156
    },
    "3": {
        "parsing": 0.017,
        "preparation": 0.018,
        "sampling": 0.008,
        "total": 0.0981605052947998
    },
    "4": {
        "parsing": 0.017,
        "preparation": 0.018,
        "sampling": 0.008,
        "total": 0.09774637222290039
    }
}