{
    "0": {
        "parsing": 0.071,
        "preparation": 0.302,
        "sampling": 0.013,
        "total": 0.44432568550109863
    },
    "1": {
        "parsing": 0.071,
        "preparation": 0.303,
        "sampling": 0.012,
        "total": 0.4449653625488281
    },
    "2": {
        "parsing": 0.071,
        "preparation": 0.293,
        "sampling": 0.012,
        "total": 0.4337806701660156
    },
    "3": {
        "parsing": 0.072,
        "preparation": 0.287,
        "sampling": 0.012,
        "total": 0.4293498992919922
    },
    "4": {
        "parsing": 0.07,
        "preparation": 0.285,
        "sampling": 0.013,
        "total": 0.42654848098754883
    }
}