{
    "0": {
        "parsing": 0.187,
        "preparation": 0.825,
        "sampling": 0.024,
        "total": 1.097090244293213
    },
    "1": {
        "parsing": 0.19,
        "preparation": 0.849,
        "sampling": 0.021,
        "total": 1.1421844959259033
    },
    "2": {
        "parsing": 0.187,
        "preparation": 0.836,
        "sampling": 0.025,
        "total": 1.126807451248169
    },
    "3": {
        "parsing": 0.182,
        "preparation": 1.026,
        "sampling": 0.026,
        "total": 1.293321132659912
    },
    "4": {
        "parsing": 0.187,
        "preparation": 1.019,
        "sampling": 0.025,
        "total": 1.3064730167388916
    }
}