{
    "0": {
        "parsing": 0.014,
        "preparation": 0.008,
        "sampling": 0.008,
        "total": 0.08540821075439453
    },
    "1": {
        "parsing": 0.015,
        "preparation": 0.009,
        "sampling": 0.006,
        "total": 0.08362030982971191
    },
    "2": {
        "parsing": 0.014,
        "preparation": 0.009,
        "sampling": 0.006,
        "total": 0.08295249938964844
    },
    "3": {
        "parsing": 0.014,
        "preparation": 0.008,
        "sampling": 0.007,
        "total": 0.08286762237548828
    },
    "4": {
        "parsing": 0.014,
        "preparation": 0.008,
        "sampling": 0.006,
        "total": 0.08214378356933594
    }
}