{
    "0": {
        "parsing": 0.065,
        "preparation": 0.252,
        "sampling": 0.027,
        "total": 0.40158748626708984
    },
    "1": {
        "parsing": 0.061,
        "preparation": 0.211,
        "sampling": 0.023,
        "total": 0.35495424270629883
    },
    "2": {
        "parsing": 0.061,
        "preparation": 0.218,
        "sampling": 0.028,
        "total": 0.3688328266143799
    },
    "3": {
        "parsing": 0.062,
        "preparation": 0.211,
        "sampling": 0.028,
        "total": 0.36037349700927734
    },
    "4": {
        "parsing": 0.061,
        "preparation": 0.215,
        "sampling": 0.024,
        "total": 0.3573172092437744
    }
}