{
    "0": {
        "parsing": 0.014,
        "preparation": 0.008,
        "sampling": 0.006,
        "total": 0.0816652774810791
    },
    "1": {
        "parsing": 0.014,
        "preparation": 0.008,
        "sampling": 0.006,
        "total": 0.08138418197631836
    },
    "2": {
        "parsing": 0.014,
        "preparation": 0.008,
        "sampling": 0.006,
        "total": 0.08141303062438965
    },
    "3": {
        "parsing": 0.014,
        "preparation": 0.008,
        "sampling": 0.006,
        "total": 0.08060574531555176
    },
    "4": {
        "parsing": 0.014,
        "preparation": 0.008,
        "sampling": 0.006,
        "total": 0.08098268508911133
    }
}