{
    "0": {
        "parsing": 0.021,
        "preparation": 0.023,
        "sampling": 0.007,
        "total": 0.10481119155883789
    },
    "1": {
        "parsing": 0.021,
        "preparation": 0.023,
        "sampling": 0.006,
        "total": 0.10234737396240234
    },
    "2": {
        "parsing": 0.021,
        "preparation": 0.024,
        "sampling": 0.008,
        "total": 0.10593056678771973
    },
    "3": {
        "parsing": 0.021,
        "preparation": 0.024,
        "sampling": 0.006,
        "total": 0.10689020156860352
    },
    "4": {
        "parsing": 0.021,
        "preparation": 0.024,
        "sampling": 0.007,
        "total": 0.10640311241149902
    }
}