{
    "0": {
        "parsing": 0.018,
        "preparation": 0.018,
        "sampling": 0.007,
        "total": 0.11908507347106934
    },
    "1": {
        "parsing": 0.018,
        "preparation": 0.018,
        "sampling": 0.007,
        "total": 0.10006403923034668
    },
    "2": {
        "parsing": 0.018,
        "preparation": 0.018,
        "sampling": 0.007,
        "total": 0.09861993789672852
    },
    "3": {
        "parsing": 0.018,
        "preparation": 0.018,
        "sampling": 0.007,
        "total": 0.09813356399536133
    },
    "4": {
        "parsing": 0.019,
        "preparation": 0.018,
        "sampling": 0.007,
        "total": 0.09819817543029785
    }
}