{
    "0": {
        "parsing": 0.022,
        "preparation": 0.027,
        "sampling": 0.01,
        "total": 0.13062024116516113
    },
    "1": {
        "parsing": 0.021,
        "preparation": 0.027,
        "sampling": 0.011,
        "total": 0.11484074592590332
    },
    "2": {
        "parsing": 0.022,
        "preparation": 0.027,
        "sampling": 0.01,
        "total": 0.11324691772460938
    },
    "3": {
        "parsing": 0.022,
        "preparation": 0.027,
        "sampling": 0.01,
        "total": 0.11537575721740723
    },
    "4": {
        "parsing": 0.022,
        "preparation": 0.027,
        "sampling": 0.011,
        "total": 0.11277079582214355
    }
}