{
    "0": {
        "parsing": 0.021,
        "preparation": 0.026,
        "sampling": 0.015,
        "total": 0.11542034149169922
    },
    "1": {
        "parsing": 0.021,
        "preparation": 0.027,
        "sampling": 0.015,
        "total": 0.1165158748626709
    },
    "2": {
        "parsing": 0.021,
        "preparation": 0.026,
        "sampling": 0.014,
        "total": 0.11509418487548828
    },
    "3": {
        "parsing": 0.021,
        "preparation": 0.026,
        "sampling": 0.015,
        "total": 0.11571168899536133
    },
    "4": {
        "parsing": 0.021,
        "preparation": 0.026,
        "sampling": 0.015,
        "total": 0.12126684188842773
    }
}