{
    "0": {
        "parsing": 0.107,
        "preparation": 0.353,
        "sampling": 0.367,
        "total": 0.8793680667877197
    },
    "1": {
        "parsing": 0.106,
        "preparation": 0.35,
        "sampling": 0.397,
        "total": 0.9109361171722412
    },
    "2": {
        "parsing": 0.105,
        "preparation": 0.344,
        "sampling": 0.399,
        "total": 0.9008030891418457
    },
    "3": {
        "parsing": 0.108,
        "preparation": 0.347,
        "sampling": 0.387,
        "total": 0.8922131061553955
    },
    "4": {
        "parsing": 0.105,
        "preparation": 0.334,
        "sampling": 0.405,
        "total": 0.899430513381958
    }
}