{
    "0": {
        "parsing": 0.014,
        "preparation": 0.009,
        "sampling": 0.009,
        "total": 0.08576250076293945
    },
    "1": {
        "parsing": 0.014,
        "preparation": 0.009,
        "sampling": 0.009,
        "total": 0.08630204200744629
    },
    "2": {
        "parsing": 0.014,
        "preparation": 0.009,
        "sampling": 0.009,
        "total": 0.08710765838623047
    },
    "3": {
        "parsing": 0.014,
        "preparation": 0.009,
        "sampling": 0.009,
        "total": 0.08505725860595703
    },
    "4": {
        "parsing": 0.014,
        "preparation": 0.009,
        "sampling": 0.009,
        "total": 0.0862579345703125
    }
}