{
    "0": {
        "parsing": 0.093,
        "preparation": 0.448,
        "sampling": 0.021,
        "total": 0.6215999126434326
    },
    "1": {
        "parsing": 0.091,
        "preparation": 0.431,
        "sampling": 0.019,
        "total": 0.6011466979980469
    },
    "2": {
        "parsing": 0.093,
        "preparation": 0.441,
        "sampling": 0.02,
        "total": 0.6147515773773193
    },
    "3": {
        "parsing": 0.093,
        "preparation": 0.419,
        "sampling": 0.02,
        "total": 0.5928955078125
    },
    "4": {
        "parsing": 0.093,
        "preparation": 0.43,
        "sampling": 0.02,
        "total": 0.6025958061218262
    }
}