{
    "0": {
        "parsing": 0.09,
        "preparation": 0.415,
        "sampling": 0.019,
        "total": 0.5819997787475586
    },
    "1": {
        "parsing": 0.092,
        "preparation": 0.413,
        "sampling": 0.019,
        "total": 0.5848197937011719
    },
    "2": {
        "parsing": 0.088,
        "preparation": 0.399,
        "sampling": 0.019,
        "total": 0.5659730434417725
    },
    "3": {
        "parsing": 0.094,
        "preparation": 0.407,
        "sampling": 0.019,
        "total": 0.581186056137085
    },
    "4": {
        "parsing": 0.091,
        "preparation": 0.415,
        "sampling": 0.02,
        "total": 0.5884668827056885
    }
}