{
    "0": {
        "parsing": 0.032,
        "preparation": 0.056,
        "sampling": 0.012,
        "total": 0.15413999557495117
    },
    "1": {
        "parsing": 0.032,
        "preparation": 0.059,
        "sampling": 0.017,
        "total": 0.16363000869750977
    },
    "2": {
        "parsing": 0.032,
        "preparation": 0.058,
        "sampling": 0.013,
        "total": 0.16190838813781738
    },
    "3": {
        "parsing": 0.032,
        "preparation": 0.058,
        "sampling": 0.013,
        "total": 0.15825605392456055
    },
    "4": {
        "parsing": 0.032,
        "preparation": 0.056,
        "sampling": 0.012,
        "total": 0.15523052215576172
    }
}