{
    "0": {
        "parsing": 0.032,
        "preparation": 0.056,
        "sampling": 0.013,
        "total": 0.15333962440490723
    },
    "1": {
        "parsing": 0.032,
        "preparation": 0.057,
        "sampling": 0.013,
        "total": 0.1565556526184082
    },
    "2": {
        "parsing": 0.032,
        "preparation": 0.058,
        "sampling": 0.013,
        "total": 0.1595597267150879
    },
    "3": {
        "parsing": 0.031,
        "preparation": 0.058,
        "sampling": 0.012,
        "total": 0.15791058540344238
    },
    "4": {
        "parsing": 0.032,
        "preparation": 0.056,
        "sampling": 0.013,
        "total": 0.1555318832397461
    }
}