{
    "0": {
        "parsing": 0.03,
        "preparation": 0.059,
        "sampling": 0.013,
        "total": 0.1793498992919922
    },
    "1": {
        "parsing": 0.03,
        "preparation": 0.058,
        "sampling": 0.013,
        "total": 0.15553545951843262
    },
    "2": {
        "parsing": 0.03,
        "preparation": 0.058,
        "sampling": 0.012,
        "total": 0.15541815757751465
    },
    "3": {
        "parsing": 0.03,
        "preparation": 0.058,
        "sampling": 0.013,
        "total": 0.15606212615966797
    },
    "4": {
        "parsing": 0.03,
        "preparation": 0.058,
        "sampling": 0.013,
        "total": 0.15635228157043457
    }
}