{
    "0": {
        "parsing": 0.029,
        "preparation": 0.055,
        "sampling": 0.014,
        "total": 0.1525731086730957
    },
    "1": {
        "parsing": 0.028,
        "preparation": 0.051,
        "sampling": 0.014,
        "total": 0.1481468677520752
    },
    "2": {
        "parsing": 0.029,
        "preparation": 0.052,
        "sampling": 0.014,
        "total": 0.1486830711364746
    },
    "3": {
        "parsing": 0.028,
        "preparation": 0.052,
        "sampling": 0.013,
        "total": 0.1488044261932373
    },
    "4": {
        "parsing": 0.028,
        "preparation": 0.053,
        "sampling": 0.013,
        "total": 0.1486985683441162
    }
}