{
    "0": {
        "parsing": 0.093,
        "preparation": 0.483,
        "sampling": 0.015,
        "total": 0.6497328281402588
    },
    "1": {
        "parsing": 0.092,
        "preparation": 0.479,
        "sampling": 0.015,
        "total": 0.6444156169891357
    },
    "2": {
        "parsing": 0.093,
        "preparation": 0.489,
        "sampling": 0.016,
        "total": 0.6552252769470215
    },
    "3": {
        "parsing": 0.092,
        "preparation": 0.469,
        "sampling": 0.018,
        "total": 0.6351900100708008
    },
    "4": {
        "parsing": 0.093,
        "preparation": 0.466,
        "sampling": 0.016,
        "total": 0.6337454319000244
    }
}