{
    "0": {
        "parsing": 0.017,
        "preparation": 0.014,
        "sampling": 0.013,
        "total": 0.0972130298614502
    },
    "1": {
        "parsing": 0.017,
        "preparation": 0.014,
        "sampling": 0.013,
        "total": 0.09778785705566406
    },
    "2": {
        "parsing": 0.017,
        "preparation": 0.015,
        "sampling": 0.013,
        "total": 0.09889030456542969
    },
    "3": {
        "parsing": 0.016,
        "preparation": 0.015,
        "sampling": 0.014,
        "total": 0.10060954093933105
    },
    "4": {
        "parsing": 0.017,
        "preparation": 0.015,
        "sampling": 0.013,
        "total": 0.09958696365356445
    }
}