{
    "0": {
        "parsing": 0.018,
        "preparation": 0.02,
        "sampling": 0.012,
        "total": 0.10357069969177246
    },
    "1": {
        "parsing": 0.019,
        "preparation": 0.019,
        "sampling": 0.012,
        "total": 0.10315608978271484
    },
    "2": {
        "parsing": 0.019,
        "preparation": 0.019,
        "sampling": 0.012,
        "total": 0.10382342338562012
    },
    "3": {
        "parsing": 0.019,
        "preparation": 0.02,
        "sampling": 0.013,
        "total": 0.10577178001403809
    },
    "4": {
        "parsing": 0.018,
        "preparation": 0.019,
        "sampling": 0.013,
        "total": 0.10457253456115723
    }
}