{
    "0": {
        "parsing": 0.031,
        "preparation": 0.05,
        "sampling": 0.016,
        "total": 0.15024876594543457
    },
    "1": {
        "parsing": 0.031,
        "preparation": 0.05,
        "sampling": 0.017,
        "total": 0.15198111534118652
    },
    "2": {
        "parsing": 0.03,
        "preparation": 0.051,
        "sampling": 0.017,
        "total": 0.15347909927368164
    },
    "3": {
        "parsing": 0.03,
        "preparation": 0.049,
        "sampling": 0.016,
        "total": 0.15070366859436035
    },
    "4": {
        "parsing": 0.03,
        "preparation": 0.051,
        "sampling": 0.017,
        "total": 0.15370631217956543
    }
}