{
    "0": {
        "parsing": 0.052,
        "preparation": 0.145,
        "sampling": 0.015,
        "total": 0.2692298889160156
    },
    "1": {
        "parsing": 0.052,
        "preparation": 0.15,
        "sampling": 0.016,
        "total": 0.27467775344848633
    },
    "2": {
        "parsing": 0.053,
        "preparation": 0.147,
        "sampling": 0.016,
        "total": 0.2748246192932129
    },
    "3": {
        "parsing": 0.053,
        "preparation": 0.148,
        "sampling": 0.015,
        "total": 0.27317118644714355
    },
    "4": {
        "parsing": 0.056,
        "preparation": 0.149,
        "sampling": 0.015,
        "total": 0.2786390781402588
    }
}