{
    "#models": "742759553124918775665329628504417889926989602807885990207278522802979351205289270304510774507880471741541565632225230771161079554475294720000000000",
    "parsing": 0.017,
    "count": 0.015,
    "total": 0.08672451972961426
}