{
    "0": {
        "0": 0.009043455123901367,
        "1": 0.0170745849609375,
        "2": 0.022210121154785156,
        "3": 0.032502174377441406,
        "4": 0.04253697395324707,
        "5": 0.05303812026977539,
        "6": 0.05863380432128906,
        "7": 0.06791305541992188,
        "8": 0.07396078109741211,
        "9": 0.08484458923339844
    },
    "1": {
        "0": 0.007379055023193359,
        "1": 0.015651226043701172,
        "2": 0.02404022216796875,
        "3": 0.03306102752685547,
        "4": 0.04080319404602051,
        "5": 0.04801344871520996,
        "6": 0.055350542068481445,
        "7": 0.06579017639160156,
        "8": 0.07214999198913574,
        "9": 0.07823586463928223
    },
    "2": {
        "0": 0.007178306579589844,
        "1": 0.013980388641357422,
        "2": 0.01908564567565918,
        "3": 0.02534794807434082,
        "4": 0.032038211822509766,
        "5": 0.03876781463623047,
        "6": 0.04592323303222656,
        "7": 0.05376863479614258,
        "8": 0.061727046966552734,
        "9": 0.06704545021057129
    },
    "3": {
        "0": 0.010028600692749023,
        "1": 0.017656803131103516,
        "2": 0.024260282516479492,
        "3": 0.03134012222290039,
        "4": 0.037815093994140625,
        "5": 0.0560762882232666,
        "6": 0.06738924980163574,
        "7": 0.07807207107543945,
        "8": 0.08408737182617188,
        "9": 0.0924232006072998
    },
    "4": {
        "0": 0.009160041809082031,
        "1": 0.020145893096923828,
        "2": 0.026987075805664062,
        "3": 0.033757686614990234,
        "4": 0.0405116081237793,
        "5": 0.04703164100646973,
        "6": 0.05467700958251953,
        "7": 0.06181216239929199,
        "8": 0.06780123710632324,
        "9": 0.07594561576843262
    }
}