{
    "0": {
        "0": 0.007193803787231445,
        "1": 0.0199587345123291,
        "2": 0.030159473419189453,
        "3": 0.04006600379943848,
        "4": 0.04983997344970703,
        "5": 0.05919384956359863,
        "6": 0.07040929794311523,
        "7": 0.08034038543701172,
        "8": 0.09130215644836426,
        "9": 0.10161375999450684
    },
    "1": {
        "0": 0.01134800910949707,
        "1": 0.017580747604370117,
        "2": 0.027462005615234375,
        "3": 0.03745841979980469,
        "4": 0.04767751693725586,
        "5": 0.05896568298339844,
        "6": 0.06914877891540527,
        "7": 0.07956981658935547,
        "8": 0.09066128730773926,
        "9": 0.10150384902954102
    },
    "2": {
        "0": 0.011161565780639648,
        "1": 0.021242141723632812,
        "2": 0.03201150894165039,
        "3": 0.040245771408081055,
        "4": 0.05028176307678223,
        "5": 0.06080222129821777,
        "6": 0.0720663070678711,
        "7": 0.08454155921936035,
        "8": 0.09485578536987305,
        "9": 0.10049557685852051
    },
    "3": {
        "0": 0.008324384689331055,
        "1": 0.018734455108642578,
        "2": 0.030854225158691406,
        "3": 0.041324615478515625,
        "4": 0.05266165733337402,
        "5": 0.058036088943481445,
        "6": 0.08398962020874023,
        "7": 0.09407782554626465,
        "8": 0.1039438247680664,
        "9": 0.1186056137084961
    },
    "4": {
        "0": 0.011406183242797852,
        "1": 0.022406816482543945,
        "2": 0.030255794525146484,
        "3": 0.040793418884277344,
        "4": 0.0474696159362793,
        "5": 0.05731344223022461,
        "6": 0.06833648681640625,
        "7": 0.07837605476379395,
        "8": 0.09006738662719727,
        "9": 0.10060334205627441
    }
}