{
    "0": {
        "0": 0.0063762664794921875,
        "1": 0.011876344680786133,
        "2": 0.021303892135620117,
        "3": 0.028719425201416016,
        "4": 0.03407645225524902,
        "5": 0.03964352607727051,
        "6": 0.04631829261779785,
        "7": 0.05287909507751465,
        "8": 0.058938026428222656,
        "9": 0.06859016418457031
    },
    "1": {
        "0": 0.006233692169189453,
        "1": 0.01174020767211914,
        "2": 0.017611265182495117,
        "3": 0.022716283798217773,
        "4": 0.030345678329467773,
        "5": 0.0382685661315918,
        "6": 0.04446911811828613,
        "7": 0.05014324188232422,
        "8": 0.05954623222351074,
        "9": 0.06498503684997559
    },
    "2": {
        "0": 0.0075283050537109375,
        "1": 0.014217138290405273,
        "2": 0.02361440658569336,
        "3": 0.031516313552856445,
        "4": 0.038451433181762695,
        "5": 0.04431772232055664,
        "6": 0.05484175682067871,
        "7": 0.060697317123413086,
        "8": 0.0809638500213623,
        "9": 0.08955788612365723
    },
    "3": {
        "0": 0.008771657943725586,
        "1": 0.01392507553100586,
        "2": 0.01920151710510254,
        "3": 0.025109052658081055,
        "4": 0.030565500259399414,
        "5": 0.037911176681518555,
        "6": 0.04756808280944824,
        "7": 0.05698561668395996,
        "8": 0.06701350212097168,
        "9": 0.07596993446350098
    },
    "4": {
        "0": 0.005867719650268555,
        "1": 0.016795635223388672,
        "2": 0.023738384246826172,
        "3": 0.033339500427246094,
        "4": 0.03867602348327637,
        "5": 0.04465985298156738,
        "6": 0.05122184753417969,
        "7": 0.05787348747253418,
        "8": 0.06390070915222168,
        "9": 0.06899523735046387
    }
}