{
    "0": {
        "0": 0.0061337947845458984,
        "1": 0.011348247528076172,
        "2": 0.01639389991760254,
        "3": 0.02597355842590332,
        "4": 0.0314021110534668,
        "5": 0.0379488468170166,
        "6": 0.0473175048828125,
        "7": 0.05290675163269043,
        "8": 0.06183481216430664,
        "9": 0.06684279441833496
    },
    "1": {
        "0": 0.00621485710144043,
        "1": 0.011629819869995117,
        "2": 0.017342329025268555,
        "3": 0.02253580093383789,
        "4": 0.027763843536376953,
        "5": 0.033342599868774414,
        "6": 0.03811383247375488,
        "7": 0.04311656951904297,
        "8": 0.04850172996520996,
        "9": 0.05437922477722168
    },
    "2": {
        "0": 0.005583763122558594,
        "1": 0.010514259338378906,
        "2": 0.0158843994140625,
        "3": 0.025328636169433594,
        "4": 0.030576467514038086,
        "5": 0.03580451011657715,
        "6": 0.04064822196960449,
        "7": 0.045614004135131836,
        "8": 0.050458669662475586,
        "9": 0.05548262596130371
    },
    "3": {
        "0": 0.005226612091064453,
        "1": 0.009973526000976562,
        "2": 0.014778614044189453,
        "3": 0.019783496856689453,
        "4": 0.024822711944580078,
        "5": 0.029781818389892578,
        "6": 0.035184621810913086,
        "7": 0.04021739959716797,
        "8": 0.045276641845703125,
        "9": 0.05015730857849121
    },
    "4": {
        "0": 0.005192995071411133,
        "1": 0.010430335998535156,
        "2": 0.019430160522460938,
        "3": 0.028553485870361328,
        "4": 0.041606903076171875,
        "5": 0.04691314697265625,
        "6": 0.05620980262756348,
        "7": 0.06106686592102051,
        "8": 0.0658717155456543,
        "9": 0.07064676284790039
    }
}