{
    "0": {
        "0": 0.010686874389648438,
        "1": 0.02005910873413086,
        "2": 0.031145334243774414,
        "3": 0.04120445251464844,
        "4": 0.05154085159301758,
        "5": 0.06282663345336914,
        "6": 0.07343435287475586,
        "7": 0.08462071418762207,
        "8": 0.09424901008605957,
        "9": 0.10483884811401367
    },
    "1": {
        "0": 0.011213541030883789,
        "1": 0.01844954490661621,
        "2": 0.028600454330444336,
        "3": 0.03858375549316406,
        "4": 0.048493146896362305,
        "5": 0.058243751525878906,
        "6": 0.06957483291625977,
        "7": 0.07924270629882812,
        "8": 0.08946394920349121,
        "9": 0.09947729110717773
    },
    "2": {
        "0": 0.010683774948120117,
        "1": 0.020836591720581055,
        "2": 0.026598691940307617,
        "3": 0.03656792640686035,
        "4": 0.04805636405944824,
        "5": 0.05834054946899414,
        "6": 0.06914043426513672,
        "7": 0.08147287368774414,
        "8": 0.09380817413330078,
        "9": 0.10403060913085938
    },
    "3": {
        "0": 0.013173580169677734,
        "1": 0.023076534271240234,
        "2": 0.034882545471191406,
        "3": 0.04526209831237793,
        "4": 0.05506181716918945,
        "5": 0.0653526782989502,
        "6": 0.09020137786865234,
        "7": 0.09977340698242188,
        "8": 0.10928893089294434,
        "9": 0.12352442741394043
    },
    "4": {
        "0": 0.01209568977355957,
        "1": 0.02292633056640625,
        "2": 0.030585527420043945,
        "3": 0.04180622100830078,
        "4": 0.05254673957824707,
        "5": 0.06287527084350586,
        "6": 0.07297539710998535,
        "7": 0.08378052711486816,
        "8": 0.09375381469726562,
        "9": 0.10363030433654785
    }
}