{
    "0": {
        "0": 0.013083696365356445,
        "1": 0.023333072662353516,
        "2": 0.03571462631225586,
        "3": 0.046479225158691406,
        "4": 0.05753016471862793,
        "5": 0.06926655769348145,
        "6": 0.0793466567993164,
        "7": 0.08906435966491699,
        "8": 0.10164070129394531,
        "9": 0.11406946182250977
    },
    "1": {
        "0": 0.01389312744140625,
        "1": 0.02852010726928711,
        "2": 0.04080986976623535,
        "3": 0.05120229721069336,
        "4": 0.061882734298706055,
        "5": 0.0728144645690918,
        "6": 0.08363175392150879,
        "7": 0.09469175338745117,
        "8": 0.10622310638427734,
        "9": 0.11740779876708984
    },
    "2": {
        "0": 0.01165008544921875,
        "1": 0.023253202438354492,
        "2": 0.034696102142333984,
        "3": 0.04643082618713379,
        "4": 0.06827712059020996,
        "5": 0.0797271728515625,
        "6": 0.0901331901550293,
        "7": 0.10132884979248047,
        "8": 0.11504292488098145,
        "9": 0.12726402282714844
    },
    "3": {
        "0": 0.011498689651489258,
        "1": 0.022930383682250977,
        "2": 0.03410005569458008,
        "3": 0.04553055763244629,
        "4": 0.05630159378051758,
        "5": 0.06894493103027344,
        "6": 0.07893538475036621,
        "7": 0.08853936195373535,
        "8": 0.09914565086364746,
        "9": 0.10932421684265137
    },
    "4": {
        "0": 0.013113021850585938,
        "1": 0.024572372436523438,
        "2": 0.03497004508972168,
        "3": 0.0468745231628418,
        "4": 0.057355403900146484,
        "5": 0.06943917274475098,
        "6": 0.07983565330505371,
        "7": 0.09055662155151367,
        "8": 0.10065579414367676,
        "9": 0.11150693893432617
    }
}