{
    "0": {
        "0": 0.011689901351928711,
        "1": 0.024028778076171875,
        "2": 0.03383994102478027,
        "3": 0.03944802284240723,
        "4": 0.050333261489868164,
        "5": 0.0601191520690918,
        "6": 0.07014775276184082,
        "7": 0.07588386535644531,
        "8": 0.08934617042541504,
        "9": 0.0993797779083252
    },
    "1": {
        "0": 0.007553815841674805,
        "1": 0.017616987228393555,
        "2": 0.024842500686645508,
        "3": 0.03560471534729004,
        "4": 0.04152989387512207,
        "5": 0.05220913887023926,
        "6": 0.05890464782714844,
        "7": 0.06940507888793945,
        "8": 0.07975125312805176,
        "9": 0.08947515487670898
    },
    "2": {
        "0": 0.006948709487915039,
        "1": 0.014976739883422852,
        "2": 0.02110123634338379,
        "3": 0.03187108039855957,
        "4": 0.03853774070739746,
        "5": 0.049198150634765625,
        "6": 0.05913591384887695,
        "7": 0.06892514228820801,
        "8": 0.0745389461517334,
        "9": 0.08431673049926758
    },
    "3": {
        "0": 0.010503530502319336,
        "1": 0.020629405975341797,
        "2": 0.027039766311645508,
        "3": 0.03676939010620117,
        "4": 0.04245162010192871,
        "5": 0.05266451835632324,
        "6": 0.058632612228393555,
        "7": 0.0689849853515625,
        "8": 0.0954127311706543,
        "9": 0.1055910587310791
    },
    "4": {
        "0": 0.006535053253173828,
        "1": 0.016351938247680664,
        "2": 0.027004480361938477,
        "3": 0.034287214279174805,
        "4": 0.03989863395690918,
        "5": 0.04988741874694824,
        "6": 0.05712103843688965,
        "7": 0.06259560585021973,
        "8": 0.06839871406555176,
        "9": 0.07856512069702148
    }
}