{
    "0": {
        "0": 0.013445138931274414,
        "1": 0.02454066276550293,
        "2": 0.036055564880371094,
        "3": 0.047037363052368164,
        "4": 0.05720233917236328,
        "5": 0.06812000274658203,
        "6": 0.07869195938110352,
        "7": 0.0902411937713623,
        "8": 0.10083913803100586,
        "9": 0.11205601692199707
    },
    "1": {
        "0": 0.012140512466430664,
        "1": 0.02341437339782715,
        "2": 0.03403472900390625,
        "3": 0.04506540298461914,
        "4": 0.055722951889038086,
        "5": 0.06654691696166992,
        "6": 0.0771186351776123,
        "7": 0.08756875991821289,
        "8": 0.09942436218261719,
        "9": 0.11004304885864258
    },
    "2": {
        "0": 0.011281490325927734,
        "1": 0.0391998291015625,
        "2": 0.0491330623626709,
        "3": 0.05950021743774414,
        "4": 0.06967353820800781,
        "5": 0.08022284507751465,
        "6": 0.09171271324157715,
        "7": 0.10214400291442871,
        "8": 0.11333918571472168,
        "9": 0.1239323616027832
    },
    "3": {
        "0": 0.011118650436401367,
        "1": 0.02094292640686035,
        "2": 0.02706003189086914,
        "3": 0.03667497634887695,
        "4": 0.048381805419921875,
        "5": 0.05855226516723633,
        "6": 0.06826567649841309,
        "7": 0.07822322845458984,
        "8": 0.0878593921661377,
        "9": 0.09744119644165039
    },
    "4": {
        "0": 0.012507200241088867,
        "1": 0.018529653549194336,
        "2": 0.02467799186706543,
        "3": 0.036599159240722656,
        "4": 0.04628777503967285,
        "5": 0.05619502067565918,
        "6": 0.06609654426574707,
        "7": 0.07599258422851562,
        "8": 0.08642697334289551,
        "9": 0.09638524055480957
    }
}