{
    "0": {
        "0": 0.005854606628417969,
        "1": 0.010668754577636719,
        "2": 0.01627039909362793,
        "3": 0.021147966384887695,
        "4": 0.027550220489501953,
        "5": "UNSATISFIABLE"
    },
    "1": {
        "0": 0.005319118499755859,
        "1": 0.010622978210449219,
        "2": 0.015396356582641602,
        "3": 0.020279884338378906,
        "4": 0.024924278259277344,
        "5": "UNSATISFIABLE"
    },
    "2": {
        "0": 0.005091667175292969,
        "1": 0.010016679763793945,
        "2": 0.014708280563354492,
        "3": 0.019344806671142578,
        "4": 0.024125099182128906,
        "5": "UNSATISFIABLE"
    },
    "3": {
        "0": 0.00562739372253418,
        "1": 0.010772943496704102,
        "2": 0.019887685775756836,
        "3": 0.02477240562438965,
        "4": 0.029444217681884766,
        "5": "UNSATISFIABLE"
    },
    "4": {
        "0": 0.004830598831176758,
        "1": 0.009722471237182617,
        "2": 0.015061616897583008,
        "3": 0.02012491226196289,
        "4": 0.025109291076660156,
        "5": "UNSATISFIABLE"
    }
}