{
    "0": {
        "0": 0.013756036758422852,
        "1": 0.024424314498901367,
        "2": 0.03430771827697754,
        "3": 0.04421710968017578,
        "4": 0.054790496826171875,
        "5": 0.06600809097290039,
        "6": 0.07303166389465332,
        "7": 0.08279705047607422,
        "8": 0.09313607215881348,
        "9": 0.10419130325317383
    },
    "1": {
        "0": 0.013420343399047852,
        "1": 0.0235748291015625,
        "2": 0.03462481498718262,
        "3": 0.04505610466003418,
        "4": 0.0509951114654541,
        "5": 0.06220698356628418,
        "6": 0.07324743270874023,
        "7": 0.08318257331848145,
        "8": 0.09348487854003906,
        "9": 0.10422062873840332
    },
    "2": {
        "0": 0.012509822845458984,
        "1": 0.01902318000793457,
        "2": 0.029221296310424805,
        "3": 0.035419464111328125,
        "4": 0.04555034637451172,
        "5": 0.0559849739074707,
        "6": 0.06566929817199707,
        "7": 0.07621550559997559,
        "8": 0.09667015075683594,
        "9": 0.11450958251953125
    },
    "3": {
        "0": 0.011923551559448242,
        "1": 0.018274784088134766,
        "2": 0.024386167526245117,
        "3": 0.03505206108093262,
        "4": 0.040695905685424805,
        "5": 0.05004620552062988,
        "6": 0.05983161926269531,
        "7": 0.07071185111999512,
        "8": 0.08099246025085449,
        "9": 0.09078812599182129
    },
    "4": {
        "0": 0.012351036071777344,
        "1": 0.022751569747924805,
        "2": 0.032444000244140625,
        "3": 0.042345285415649414,
        "4": 0.05249476432800293,
        "5": 0.06275534629821777,
        "6": 0.07291030883789062,
        "7": 0.08467745780944824,
        "8": 0.09510588645935059,
        "9": 0.1051785945892334
    }
}