{
    "0": {
        "0": 0.015067100524902344,
        "1": 0.02758646011352539,
        "2": 0.038607120513916016,
        "3": 0.05094647407531738,
        "4": 0.061949729919433594,
        "5": 0.07302522659301758,
        "6": 0.08403968811035156,
        "7": 0.09560966491699219,
        "8": 0.10951972007751465,
        "9": 0.12327742576599121
    },
    "1": {
        "0": 0.015470504760742188,
        "1": 0.02779698371887207,
        "2": 0.03758502006530762,
        "3": 0.04803895950317383,
        "4": 0.05936169624328613,
        "5": 0.07017302513122559,
        "6": 0.08039498329162598,
        "7": 0.09225058555603027,
        "8": 0.10524129867553711,
        "9": 0.11731696128845215
    },
    "2": {
        "0": 0.011630058288574219,
        "1": 0.025575876235961914,
        "2": 0.0477452278137207,
        "3": 0.057753801345825195,
        "4": 0.06892704963684082,
        "5": 0.0805668830871582,
        "6": 0.09421277046203613,
        "7": 0.10669565200805664,
        "8": 0.11899471282958984,
        "9": 0.13102126121520996
    },
    "3": {
        "0": 0.014414548873901367,
        "1": 0.02577829360961914,
        "2": 0.035681962966918945,
        "3": 0.047304630279541016,
        "4": 0.05799698829650879,
        "5": 0.0700998306274414,
        "6": 0.08113527297973633,
        "7": 0.09299159049987793,
        "8": 0.10331368446350098,
        "9": 0.1157376766204834
    },
    "4": {
        "0": 0.012155532836914062,
        "1": 0.022521018981933594,
        "2": 0.0326237678527832,
        "3": 0.04348397254943848,
        "4": 0.055542945861816406,
        "5": 0.06744122505187988,
        "6": 0.07799434661865234,
        "7": 0.08814454078674316,
        "8": 0.10012316703796387,
        "9": 0.1108560562133789
    }
}