{
    "0": {
        "0": 0.011810064315795898,
        "1": 0.0224916934967041,
        "2": 0.03499960899353027,
        "3": 0.04067659378051758,
        "4": 0.05002617835998535,
        "5": 0.060873985290527344,
        "6": 0.07064676284790039,
        "7": 0.08084821701049805,
        "8": 0.09252357482910156,
        "9": 0.10217881202697754
    },
    "1": {
        "0": 0.010850191116333008,
        "1": 0.022062301635742188,
        "2": 0.031829118728637695,
        "3": 0.04125785827636719,
        "4": 0.053127288818359375,
        "5": 0.06266999244689941,
        "6": 0.07387328147888184,
        "7": 0.08396649360656738,
        "8": 0.09451556205749512,
        "9": 0.10446739196777344
    },
    "2": {
        "0": 0.007077455520629883,
        "1": 0.012583732604980469,
        "2": 0.023264646530151367,
        "3": 0.03337383270263672,
        "4": 0.039041757583618164,
        "5": 0.049574851989746094,
        "6": 0.06039142608642578,
        "7": 0.0706937313079834,
        "8": 0.0806422233581543,
        "9": 0.09081292152404785
    },
    "3": {
        "0": 0.007116794586181641,
        "1": 0.017696380615234375,
        "2": 0.02336740493774414,
        "3": 0.0364072322845459,
        "4": 0.062169790267944336,
        "5": 0.07199668884277344,
        "6": 0.0830223560333252,
        "7": 0.09317803382873535,
        "8": 0.10280799865722656,
        "9": 0.11287975311279297
    },
    "4": {
        "0": 0.010451078414916992,
        "1": 0.020950794219970703,
        "2": 0.02661609649658203,
        "3": 0.03393983840942383,
        "4": 0.0438077449798584,
        "5": 0.05492258071899414,
        "6": 0.06493473052978516,
        "7": 0.0747523307800293,
        "8": 0.08534049987792969,
        "9": 0.0955963134765625
    }
}