{
    "0": {
        "0": 0.013196468353271484,
        "1": 0.02239370346069336,
        "2": 0.029012680053710938,
        "3": 0.038271188735961914,
        "4": 0.044602155685424805,
        "5": 0.05521535873413086,
        "6": 0.06631970405578613,
        "7": 0.0758371353149414,
        "8": 0.08636212348937988,
        "9": 0.09549498558044434
    },
    "1": {
        "0": 0.012872457504272461,
        "1": 0.01793360710144043,
        "2": 0.026327133178710938,
        "3": 0.040683746337890625,
        "4": 0.04954075813293457,
        "5": 0.06034040451049805,
        "6": 0.07121062278747559,
        "7": 0.08076310157775879,
        "8": 0.09183096885681152,
        "9": 0.09841251373291016
    },
    "2": {
        "0": 0.011278390884399414,
        "1": 0.022504091262817383,
        "2": 0.028839111328125,
        "3": 0.0405120849609375,
        "4": 0.0504000186920166,
        "5": 0.05683732032775879,
        "6": 0.06846189498901367,
        "7": 0.0780799388885498,
        "8": 0.08427000045776367,
        "9": 0.10600042343139648
    },
    "3": {
        "0": 0.011310577392578125,
        "1": 0.017967700958251953,
        "2": 0.02498769760131836,
        "3": 0.033190250396728516,
        "4": 0.04265904426574707,
        "5": 0.05432415008544922,
        "6": 0.062383413314819336,
        "7": 0.07208633422851562,
        "8": 0.08172202110290527,
        "9": 0.09341549873352051
    },
    "4": {
        "0": 0.012162446975708008,
        "1": 0.02091670036315918,
        "2": 0.03239846229553223,
        "3": 0.04228949546813965,
        "4": 0.05338597297668457,
        "5": 0.06377887725830078,
        "6": 0.0735788345336914,
        "7": 0.08487367630004883,
        "8": 0.096435546875,
        "9": 0.106689453125
    }
}