{
    "0": {
        "0": 0.008133172988891602,
        "1": 0.021336793899536133,
        "2": 0.033707618713378906,
        "3": 0.04411029815673828,
        "4": 0.05586695671081543,
        "5": 0.06700563430786133,
        "6": 0.07666516304016113,
        "7": 0.08720278739929199,
        "8": 0.09605836868286133,
        "9": 0.10335707664489746
    },
    "1": {
        "0": 0.01004934310913086,
        "1": 0.02318859100341797,
        "2": 0.035986900329589844,
        "3": 0.04781961441040039,
        "4": 0.05837535858154297,
        "5": 0.06839203834533691,
        "6": 0.07949662208557129,
        "7": 0.08998322486877441,
        "8": 0.10089921951293945,
        "9": 0.10737371444702148
    },
    "2": {
        "0": 0.012280702590942383,
        "1": 0.022133350372314453,
        "2": 0.033475637435913086,
        "3": 0.046668291091918945,
        "4": 0.05272054672241211,
        "5": 0.0625004768371582,
        "6": 0.0686037540435791,
        "7": 0.08695220947265625,
        "8": 0.0978081226348877,
        "9": 0.1085824966430664
    },
    "3": {
        "0": 0.007631063461303711,
        "1": 0.020273923873901367,
        "2": 0.03235745429992676,
        "3": 0.04203462600708008,
        "4": 0.05323982238769531,
        "5": 0.06439828872680664,
        "6": 0.07735800743103027,
        "7": 0.08829545974731445,
        "8": 0.10080838203430176,
        "9": 0.11187052726745605
    },
    "4": {
        "0": 0.012576580047607422,
        "1": 0.022652149200439453,
        "2": 0.02915215492248535,
        "3": 0.03850412368774414,
        "4": 0.04729580879211426,
        "5": 0.05507206916809082,
        "6": 0.06535577774047852,
        "7": 0.07511758804321289,
        "8": 0.08602142333984375,
        "9": 0.0957193374633789
    }
}