{
    "0": {
        "0": 0.011487960815429688,
        "1": 0.016924619674682617,
        "2": 0.027346372604370117,
        "3": 0.0371096134185791,
        "4": 0.04871559143066406,
        "5": 0.05895376205444336,
        "6": 0.06902337074279785,
        "7": 0.07950067520141602,
        "8": 0.09037590026855469,
        "9": 0.10067439079284668
    },
    "1": {
        "0": 0.010905027389526367,
        "1": 0.016758441925048828,
        "2": 0.02267742156982422,
        "3": 0.02868795394897461,
        "4": 0.039734840393066406,
        "5": 0.05004549026489258,
        "6": 0.06114959716796875,
        "7": 0.07258415222167969,
        "8": 0.07824015617370605,
        "9": 0.08779644966125488
    },
    "2": {
        "0": 0.00760340690612793,
        "1": 0.015341043472290039,
        "2": 0.02503657341003418,
        "3": 0.03534412384033203,
        "4": 0.04536700248718262,
        "5": 0.05560898780822754,
        "6": 0.06674051284790039,
        "7": 0.07640767097473145,
        "8": 0.08738160133361816,
        "9": 0.09758377075195312
    },
    "3": {
        "0": 0.007626533508300781,
        "1": 0.013171911239624023,
        "2": 0.01990532875061035,
        "3": 0.026304244995117188,
        "4": 0.0323030948638916,
        "5": 0.03759574890136719,
        "6": 0.04848337173461914,
        "7": 0.058370113372802734,
        "8": 0.0685110092163086,
        "9": 0.07412195205688477
    },
    "4": {
        "0": 0.00705265998840332,
        "1": 0.012276887893676758,
        "2": 0.020238876342773438,
        "3": 0.044317007064819336,
        "4": 0.05332374572753906,
        "5": 0.058609962463378906,
        "6": 0.06895017623901367,
        "7": 0.07948040962219238,
        "8": 0.08542394638061523,
        "9": 0.09529399871826172
    }
}