{
    "0": {
        "0": 0.008658409118652344,
        "1": 0.018012046813964844,
        "2": 0.02860116958618164,
        "3": 0.03863668441772461,
        "4": 0.04879307746887207,
        "5": 0.05903935432434082,
        "6": 0.06970810890197754,
        "7": 0.07935023307800293,
        "8": 0.08992171287536621,
        "9": 0.1018373966217041
    },
    "1": {
        "0": 0.01242518424987793,
        "1": 0.019084692001342773,
        "2": 0.03077840805053711,
        "3": 0.041028499603271484,
        "4": 0.05164170265197754,
        "5": 0.058032989501953125,
        "6": 0.06921935081481934,
        "7": 0.07990550994873047,
        "8": 0.08992934226989746,
        "9": 0.09680676460266113
    },
    "2": {
        "0": 0.006541013717651367,
        "1": 0.014133691787719727,
        "2": 0.024268627166748047,
        "3": 0.04865312576293945,
        "4": 0.05852055549621582,
        "5": 0.0689537525177002,
        "6": 0.08008813858032227,
        "7": 0.0911250114440918,
        "8": 0.10234785079956055,
        "9": 0.11375832557678223
    },
    "3": {
        "0": 0.014954090118408203,
        "1": 0.020541906356811523,
        "2": 0.03177499771118164,
        "3": 0.04369616508483887,
        "4": 0.0559077262878418,
        "5": 0.06223106384277344,
        "6": 0.07265901565551758,
        "7": 0.08369231224060059,
        "8": 0.09447813034057617,
        "9": 0.10523629188537598
    },
    "4": {
        "0": 0.011148691177368164,
        "1": 0.016669034957885742,
        "2": 0.02329421043395996,
        "3": 0.032640695571899414,
        "4": 0.046649932861328125,
        "5": 0.05711960792541504,
        "6": 0.062477827072143555,
        "7": 0.0726613998413086,
        "8": 0.07846689224243164,
        "9": 0.08789825439453125
    }
}