{
    "0": {
        "0": 0.01404571533203125,
        "1": 0.02722930908203125,
        "2": 0.03809523582458496,
        "3": 0.048613786697387695,
        "4": 0.05924725532531738,
        "5": 0.07012677192687988,
        "6": 0.08215904235839844,
        "7": 0.09384894371032715,
        "8": 0.10561966896057129,
        "9": 0.11773347854614258
    },
    "1": {
        "0": 0.01094675064086914,
        "1": 0.018828392028808594,
        "2": 0.03044891357421875,
        "3": 0.0407559871673584,
        "4": 0.05090522766113281,
        "5": 0.06216907501220703,
        "6": 0.0731358528137207,
        "7": 0.08512353897094727,
        "8": 0.09649324417114258,
        "9": 0.10821223258972168
    },
    "2": {
        "0": 0.011760473251342773,
        "1": 0.018747568130493164,
        "2": 0.026947975158691406,
        "3": 0.03809309005737305,
        "4": 0.04801440238952637,
        "5": 0.07131600379943848,
        "6": 0.07993745803833008,
        "7": 0.09059882164001465,
        "8": 0.10140252113342285,
        "9": 0.11484909057617188
    },
    "3": {
        "0": 0.012781381607055664,
        "1": 0.02254343032836914,
        "2": 0.034564971923828125,
        "3": 0.04587125778198242,
        "4": 0.05708050727844238,
        "5": 0.07031965255737305,
        "6": 0.08155560493469238,
        "7": 0.09155726432800293,
        "8": 0.10253572463989258,
        "9": 0.11306452751159668
    },
    "4": {
        "0": 0.011996746063232422,
        "1": 0.02269768714904785,
        "2": 0.03400421142578125,
        "3": 0.04420351982116699,
        "4": 0.05555462837219238,
        "5": 0.06546282768249512,
        "6": 0.07696270942687988,
        "7": 0.08696222305297852,
        "8": 0.09866118431091309,
        "9": 0.1098947525024414
    }
}