{
    "0": {
        "0": 0.011191368103027344,
        "1": 0.01719188690185547,
        "2": 0.027321815490722656,
        "3": 0.03734445571899414,
        "4": 0.049451589584350586,
        "5": 0.05990958213806152,
        "6": 0.07055878639221191,
        "7": 0.08107209205627441,
        "8": 0.09190750122070312,
        "9": 0.10273241996765137
    },
    "1": {
        "0": 0.007162570953369141,
        "1": 0.01725935935974121,
        "2": 0.028980016708374023,
        "3": 0.03930187225341797,
        "4": 0.04591941833496094,
        "5": 0.05631089210510254,
        "6": 0.06390595436096191,
        "7": 0.07380485534667969,
        "8": 0.0840301513671875,
        "9": 0.0960538387298584
    },
    "2": {
        "0": 0.011242151260375977,
        "1": 0.021303176879882812,
        "2": 0.03190350532531738,
        "3": 0.04167032241821289,
        "4": 0.05198931694030762,
        "5": 0.07729959487915039,
        "6": 0.08698058128356934,
        "7": 0.09672784805297852,
        "8": 0.11161661148071289,
        "9": 0.12133526802062988
    },
    "3": {
        "0": 0.012513875961303711,
        "1": 0.025136709213256836,
        "2": 0.035175323486328125,
        "3": 0.04494023323059082,
        "4": 0.05621170997619629,
        "5": 0.06627678871154785,
        "6": 0.07821345329284668,
        "7": 0.08856558799743652,
        "8": 0.0987246036529541,
        "9": 0.10968160629272461
    },
    "4": {
        "0": 0.013117313385009766,
        "1": 0.02397894859313965,
        "2": 0.03448653221130371,
        "3": 0.044295310974121094,
        "4": 0.05561542510986328,
        "5": 0.06593656539916992,
        "6": 0.07555699348449707,
        "7": 0.08696293830871582,
        "8": 0.09763479232788086,
        "9": 0.10825800895690918
    }
}