{
    "0": [
        0.06794214248657227,
        0.13077569007873535,
        0.19824504852294922,
        0.2649831771850586,
        0.33066773414611816,
        0.3997654914855957,
        0.5699300765991211,
        0.6680104732513428,
        0.9170188903808594,
        1.4383978843688965
    ],
    "1": [
        0.0704801082611084,
        0.13580751419067383,
        0.2037186622619629,
        0.28269529342651367,
        0.359372615814209,
        0.43740081787109375,
        0.5190486907958984,
        0.7905716896057129,
        0.9130804538726807,
        1.2858035564422607
    ],
    "2": [
        0.0785832405090332,
        0.15752339363098145,
        0.315415620803833,
        0.5320661067962646,
        0.8694226741790771,
        1.0336267948150635,
        1.9223363399505615,
        2.2612452507019043,
        4.43961763381958,
        8.500388860702515
    ],
    "3": [
        0.06731724739074707,
        0.1357259750366211,
        0.2021946907043457,
        0.2709493637084961,
        0.323378324508667,
        0.4237194061279297,
        0.7147829532623291,
        1.4691529273986816,
        2.9194257259368896,
        5.325565338134766
    ],
    "4": [
        0.057527780532836914,
        0.12604975700378418,
        0.20082354545593262,
        0.26976585388183594,
        0.37692809104919434,
        0.7197449207305908,
        0.8860328197479248,
        1.0562615394592285,
        1.9663739204406738,
        3.0211400985717773
    ]
}