{
    "0": [
        0.08428454399108887,
        0.14577507972717285,
        0.20796918869018555,
        0.27274584770202637,
        0.48114705085754395,
        0.7164242267608643,
        1.000117540359497,
        1.5137617588043213,
        1.9365434646606445,
        2.5175302028656006
    ],
    "1": [
        0.05629920959472656,
        0.15187478065490723,
        0.37105655670166016,
        0.6320061683654785,
        1.0813181400299072,
        1.627408742904663,
        2.298163414001465,
        3.353386878967285,
        4.250164985656738,
        5.406078100204468
    ],
    "2": [
        0.059825897216796875,
        0.11006760597229004,
        0.1592249870300293,
        0.21242785453796387,
        0.3590526580810547,
        0.4312102794647217,
        0.6394693851470947,
        0.8198728561401367,
        0.938546895980835,
        1.2350833415985107
    ],
    "3": [
        0.06001925468444824,
        0.10927128791809082,
        0.2835805416107178,
        0.36954665184020996,
        0.6898980140686035,
        1.2256648540496826,
        1.9073097705841064,
        3.3691561222076416,
        4.870143413543701,
        7.804473161697388
    ],
    "4": [
        0.05814862251281738,
        0.10966944694519043,
        0.15887212753295898,
        0.21025323867797852,
        0.26944637298583984,
        0.4729573726654053,
        0.5605242252349854,
        0.650066614151001,
        0.9559173583984375,
        1.3202006816864014
    ]
}