{
    "0": [
        0.23740935325622559,
        0.38535261154174805,
        0.6817591190338135,
        1.1548230648040771,
        2.652682065963745,
        5.309135437011719,
        9.68080997467041,
        20.48259472846985,
        38.25290489196777,
        69.61251735687256
    ],
    "1": [
        0.18609404563903809,
        0.3274717330932617,
        0.6243019104003906,
        1.1142232418060303,
        1.8736815452575684,
        3.675558567047119,
        7.027475357055664,
        14.887622833251953,
        29.685698986053467,
        68.57951951026917
    ],
    "2": [
        0.18556785583496094,
        0.3283360004425049,
        0.47492527961730957,
        0.6255066394805908,
        0.9590222835540771,
        1.1384882926940918,
        1.316392421722412,
        1.6943697929382324,
        2.088838577270508,
        2.94513201713562
    ],
    "3": [
        0.18541169166564941,
        0.4737403392791748,
        1.4658362865447998,
        3.080411911010742,
        5.52315616607666,
        9.175506114959717,
        15.079160451889038,
        30.766009092330933,
        71.16763544082642,
        156.9576301574707
    ],
    "4": [
        0.19503211975097656,
        0.34383654594421387,
        0.8335576057434082,
        1.3987760543823242,
        1.5866034030914307,
        1.7844831943511963,
        2.4186198711395264,
        3.3190598487854004,
        4.273047685623169,
        5.0380542278289795
    ]
}