{
    "0": [
        0.0677633285522461,
        0.11196374893188477,
        0.19156098365783691,
        0.2748868465423584,
        0.37737226486206055,
        0.6659955978393555,
        0.9157330989837646,
        1.3404531478881836,
        1.5773675441741943,
        1.7454955577850342
    ],
    "1": [
        0.06560993194580078,
        0.11825060844421387,
        0.23905682563781738,
        0.357454776763916,
        0.6222085952758789,
        0.9840991497039795,
        1.1303462982177734,
        1.2788317203521729,
        1.8805925846099854,
        2.1517601013183594
    ],
    "2": [
        0.09271478652954102,
        0.17234516143798828,
        0.5718801021575928,
        0.8060500621795654,
        0.9323511123657227,
        2.0106663703918457,
        3.501901865005493,
        4.64480185508728,
        6.186340570449829,
        9.317749738693237
    ],
    "3": [
        0.052030324935913086,
        0.10612154006958008,
        0.21641206741333008,
        0.32610011100769043,
        0.48292064666748047,
        0.646486759185791,
        0.8897311687469482,
        1.0728678703308105,
        1.2861363887786865,
        1.6702852249145508
    ],
    "4": [
        0.06710076332092285,
        0.17551112174987793,
        0.2874748706817627,
        0.437786340713501,
        0.8540990352630615,
        1.2004718780517578,
        1.5191872119903564,
        1.8005709648132324,
        2.889760971069336,
        4.12799859046936
    ]
}