{
    "0": [
        0.9655735492706299,
        1.8573002815246582,
        2.7547717094421387,
        3.6819658279418945,
        4.4921488761901855,
        5.1876044273376465,
        6.059957027435303,
        7.013111352920532,
        7.818102836608887,
        8.765103816986084
    ],
    "1": [
        2.3936400413513184,
        4.583032846450806,
        6.165276288986206,
        8.65685486793518,
        10.643799304962158,
        12.910609245300293,
        15.067127466201782,
        17.376505374908447,
        19.874796628952026,
        21.606775283813477
    ],
    "2": [
        0.8244004249572754,
        1.6657068729400635,
        2.644254446029663,
        3.719139575958252,
        4.684114933013916,
        5.7431230545043945,
        6.808657169342041,
        7.843212604522705,
        8.86534571647644,
        10.16884183883667
    ],
    "3": [
        0.5242085456848145,
        1.1682724952697754,
        2.003904342651367,
        2.91549015045166,
        4.151402950286865,
        4.876362085342407,
        5.690072536468506,
        8.12856912612915,
        9.221356630325317,
        10.037506818771362
    ],
    "4": [
        1.1894340515136719,
        2.6665637493133545,
        3.955873727798462,
        5.608306646347046,
        7.038426160812378,
        10.124534606933594,
        11.97774887084961,
        15.315449476242065,
        16.899402379989624,
        18.963709831237793
    ]
}