{
    "0": [
        1.16007399559021,
        1.9461393356323242,
        2.7730610370635986,
        4.719098091125488,
        6.757172346115112,
        7.633132696151733,
        8.647720336914062,
        9.686195135116577,
        12.676245212554932,
        13.876537561416626
    ],
    "1": [
        2.257387399673462,
        3.882495880126953,
        5.991532325744629,
        8.193150520324707,
        11.126957178115845,
        13.385063886642456,
        15.922624826431274,
        18.461586236953735,
        21.361015796661377,
        27.17023015022278
    ],
    "2": [
        1.3446409702301025,
        2.4586126804351807,
        3.6680474281311035,
        4.544957160949707,
        5.5260748863220215,
        6.925189733505249,
        7.916674852371216,
        9.432961463928223,
        11.007995367050171,
        14.080930709838867
    ],
    "3": [
        2.671738862991333,
        4.749302864074707,
        11.06184196472168,
        13.553617000579834,
        20.297988891601562,
        21.876205921173096,
        24.857377529144287,
        27.01968789100647,
        33.895851850509644,
        36.21003699302673
    ],
    "4": [
        1.6708292961120605,
        3.3328230381011963,
        6.512086868286133,
        7.7276904582977295,
        9.83802318572998,
        13.705564498901367,
        15.728978633880615,
        17.884087085723877,
        26.46621322631836,
        40.094165563583374
    ]
}