{
    "0": [
        0.0444183349609375,
        0.07820320129394531,
        0.12310051918029785,
        0.24319243431091309,
        0.3729372024536133,
        0.43984127044677734,
        0.7675151824951172,
        1.0259239673614502,
        1.200319766998291,
        2.0091137886047363
    ],
    "1": [
        0.04360604286193848,
        0.08924031257629395,
        0.1469736099243164,
        0.19519948959350586,
        0.2620809078216553,
        0.5113987922668457,
        0.5914187431335449,
        0.8228104114532471,
        0.9851138591766357,
        1.1783618927001953
    ],
    "2": [
        0.045717716217041016,
        0.2362663745880127,
        0.523054838180542,
        1.062483310699463,
        2.039856195449829,
        2.8472979068756104,
        3.7048110961914062,
        6.2588722705841064,
        8.410908222198486,
        11.37095308303833
    ],
    "3": [
        0.03688216209411621,
        0.15306663513183594,
        0.3116028308868408,
        0.5743625164031982,
        0.8490400314331055,
        1.1282520294189453,
        1.4136314392089844,
        1.7002887725830078,
        2.07485032081604,
        2.34405779838562
    ],
    "4": [
        0.03293633460998535,
        0.06899333000183105,
        0.11225295066833496,
        0.17569875717163086,
        0.27213573455810547,
        0.39456892013549805,
        0.524864673614502,
        0.6457729339599609,
        0.7384130954742432,
        0.8666937351226807
    ]
}