{
    "0": [
        0.10085010528564453,
        0.2636678218841553,
        0.4095315933227539,
        0.5531764030456543,
        0.7120227813720703,
        0.8815317153930664,
        1.203977346420288,
        1.448410987854004,
        1.644913911819458,
        1.8790841102600098
    ],
    "1": [
        0.5134234428405762,
        0.6532444953918457,
        0.9280729293823242,
        1.36033296585083,
        1.5830421447753906,
        2.1325669288635254,
        2.432051420211792,
        2.87872576713562,
        3.5936224460601807,
        4.006459951400757
    ],
    "2": [
        0.037511348724365234,
        0.09470987319946289,
        0.1502838134765625,
        0.2217714786529541,
        0.3141651153564453,
        0.4072575569152832,
        0.5921900272369385,
        0.6949234008789062,
        0.847130537033081,
        0.9966256618499756
    ],
    "3": [
        0.03369784355163574,
        0.06912660598754883,
        0.12407779693603516,
        0.2099137306213379,
        0.40951061248779297,
        0.5635898113250732,
        0.6364920139312744,
        0.8070149421691895,
        1.160468339920044,
        1.349212408065796
    ],
    "4": [
        0.2335813045501709,
        1.0369014739990234,
        2.8029608726501465,
        3.245800256729126,
        4.00820255279541,
        5.105339765548706,
        5.902352571487427,
        6.874050617218018,
        11.00343656539917,
        12.059731245040894
    ]
}