{
    "0": [
        0.02567887306213379,
        0.06322145462036133,
        0.10193991661071777,
        0.1482391357421875,
        0.23490071296691895,
        0.3116464614868164,
        0.39906787872314453,
        0.48601293563842773,
        0.607351541519165,
        0.6963460445404053
    ],
    "1": [
        0.023611783981323242,
        0.05110907554626465,
        0.0938258171081543,
        0.13043498992919922,
        0.16539454460144043,
        0.21156764030456543,
        0.2796971797943115,
        0.35617923736572266,
        0.4356381893157959,
        0.49485230445861816
    ],
    "2": [
        0.022860050201416016,
        0.04677391052246094,
        0.07312154769897461,
        0.1097109317779541,
        0.1707146167755127,
        0.2583353519439697,
        0.3246777057647705,
        0.41809701919555664,
        0.47743868827819824,
        0.5526549816131592
    ],
    "3": [
        0.02379131317138672,
        0.0518186092376709,
        0.11637759208679199,
        0.30880093574523926,
        0.45889735221862793,
        0.5298395156860352,
        0.6196427345275879,
        0.7065403461456299,
        0.8230371475219727,
        0.9341464042663574
    ],
    "4": [
        0.027729034423828125,
        0.06375885009765625,
        0.11476850509643555,
        0.16254162788391113,
        0.1932051181793213,
        0.26705074310302734,
        0.32122206687927246,
        0.3675110340118408,
        0.4249742031097412,
        0.47731947898864746
    ]
}