{
    "0": [
        0.5261726379394531,
        1.1959538459777832,
        1.942619800567627,
        2.5477545261383057,
        4.04094934463501,
        4.610879898071289,
        5.447673559188843,
        6.2304840087890625,
        6.88238000869751,
        8.33751916885376
    ],
    "1": [
        0.5828330516815186,
        1.3391904830932617,
        2.7566113471984863,
        3.3541789054870605,
        4.118131160736084,
        4.758078098297119,
        5.697092294692993,
        7.530135631561279,
        8.425315141677856,
        11.263630390167236
    ],
    "2": [
        0.4893021583557129,
        0.8739621639251709,
        1.5829389095306396,
        2.4740772247314453,
        3.315042734146118,
        3.911482334136963,
        4.530333518981934,
        5.2164130210876465,
        6.062401056289673,
        6.927271842956543
    ],
    "3": [
        0.917097806930542,
        2.32580304145813,
        3.178224802017212,
        4.302167177200317,
        5.146728277206421,
        6.256887197494507,
        6.980862855911255,
        8.893758535385132,
        10.754582166671753,
        11.998222589492798
    ],
    "4": [
        0.7328453063964844,
        1.409975528717041,
        2.2213943004608154,
        3.020354747772217,
        4.591192007064819,
        5.3572916984558105,
        7.0041868686676025,
        8.739829063415527,
        9.49532413482666,
        11.210447311401367
    ]
}