{
    "0": [
        0.02700066566467285,
        0.06077456474304199,
        0.1145639419555664,
        0.15846896171569824,
        0.19661784172058105,
        0.24685359001159668,
        0.34581494331359863,
        0.39223480224609375,
        0.46462488174438477,
        0.560509204864502
    ],
    "1": [
        0.027436494827270508,
        0.0608212947845459,
        0.10471296310424805,
        0.15306758880615234,
        0.21744966506958008,
        0.28319621086120605,
        0.36788392066955566,
        0.44209861755371094,
        0.5131218433380127,
        0.5916621685028076
    ],
    "2": [
        0.02232527732849121,
        0.04408621788024902,
        0.06863141059875488,
        0.09321069717407227,
        0.12393784523010254,
        0.16176199913024902,
        0.21194195747375488,
        0.32009100914001465,
        0.4820122718811035,
        0.6161794662475586
    ],
    "3": [
        0.030268192291259766,
        0.06503534317016602,
        0.12011504173278809,
        0.1872243881225586,
        0.2720661163330078,
        0.40949463844299316,
        0.4684317111968994,
        0.5650613307952881,
        0.6627516746520996,
        0.7845957279205322
    ],
    "4": [
        0.039229393005371094,
        0.07692909240722656,
        0.12324309349060059,
        0.1670057773590088,
        0.2588179111480713,
        0.3392655849456787,
        0.42702674865722656,
        0.5840909481048584,
        0.7172274589538574,
        1.0036444664001465
    ]
}