{
    "0": [
        0.05203056335449219,
        0.11954498291015625,
        0.20295023918151855,
        0.29271459579467773,
        0.41533422470092773,
        0.5334577560424805,
        0.636908769607544,
        0.9272935390472412,
        1.036893606185913,
        1.3062644004821777
    ],
    "1": [
        0.0859689712524414,
        0.17261385917663574,
        0.2646505832672119,
        0.38474273681640625,
        0.5018291473388672,
        0.6053972244262695,
        0.7369303703308105,
        0.9757542610168457,
        1.587217092514038,
        1.7585761547088623
    ],
    "2": [
        0.08586359024047852,
        0.2519369125366211,
        0.42854738235473633,
        0.6657505035400391,
        1.2133440971374512,
        1.4691872596740723,
        1.7029533386230469,
        1.956613540649414,
        2.1958060264587402,
        2.5405983924865723
    ],
    "3": [
        0.13965559005737305,
        0.2720913887023926,
        0.5778498649597168,
        0.806957483291626,
        1.0349247455596924,
        1.1941580772399902,
        1.40440034866333,
        1.9219188690185547,
        2.447613000869751,
        3.6675503253936768
    ],
    "4": [
        0.17924761772155762,
        0.46726012229919434,
        0.7243683338165283,
        1.140770435333252,
        1.3296222686767578,
        1.5062811374664307,
        1.783700942993164,
        2.114377021789551,
        2.686540126800537,
        3.5121023654937744
    ]
}