{
    "0": [
        0.05573630332946777,
        0.1111607551574707,
        0.17201900482177734,
        0.2435915470123291,
        0.41640210151672363,
        0.5012919902801514,
        0.5849921703338623,
        0.682548999786377,
        0.7881600856781006,
        0.8928492069244385
    ],
    "1": [
        0.11905622482299805,
        0.23331212997436523,
        0.479506254196167,
        0.635629415512085,
        0.7992227077484131,
        0.9917254447937012,
        1.1796674728393555,
        1.352271556854248,
        1.8872270584106445,
        2.2996139526367188
    ],
    "2": [
        0.056611061096191406,
        0.11564350128173828,
        0.18266558647155762,
        0.26189112663269043,
        0.3881251811981201,
        0.48494958877563477,
        0.6116180419921875,
        0.8519036769866943,
        1.356935739517212,
        1.64701509475708
    ],
    "3": [
        0.08917641639709473,
        0.19076132774353027,
        0.3060798645019531,
        0.43499088287353516,
        0.5623807907104492,
        0.7056236267089844,
        0.9947762489318848,
        1.1704790592193604,
        1.4522981643676758,
        1.6098759174346924
    ],
    "4": [
        0.06364178657531738,
        0.14776921272277832,
        0.23593950271606445,
        0.33858585357666016,
        0.5620296001434326,
        0.68216872215271,
        1.059666395187378,
        1.2048404216766357,
        1.3377087116241455,
        1.6515285968780518
    ]
}