{
    "0": [
        0.026517152786254883,
        0.05646324157714844,
        0.08856987953186035,
        0.12142157554626465,
        0.15543866157531738,
        0.19935941696166992,
        0.2743380069732666,
        0.31095361709594727,
        0.35011744499206543,
        0.42241454124450684
    ],
    "1": [
        0.025329113006591797,
        0.048751115798950195,
        0.07323288917541504,
        0.09770011901855469,
        0.176466703414917,
        0.23676252365112305,
        0.29678773880004883,
        0.36045169830322266,
        0.45384669303894043,
        0.5220241546630859
    ],
    "2": [
        0.025569438934326172,
        0.05379605293273926,
        0.07968664169311523,
        0.13563776016235352,
        0.16612911224365234,
        0.20098114013671875,
        0.2427067756652832,
        0.36959338188171387,
        0.4130861759185791,
        0.4563441276550293
    ],
    "3": [
        0.02520608901977539,
        0.052921295166015625,
        0.0806264877319336,
        0.10806918144226074,
        0.13661885261535645,
        0.16861367225646973,
        0.19915056228637695,
        0.22833013534545898,
        0.2621762752532959,
        0.3302018642425537
    ],
    "4": [
        0.026187419891357422,
        0.05371594429016113,
        0.08335399627685547,
        0.11501693725585938,
        0.14849114418029785,
        0.18234729766845703,
        0.25780534744262695,
        0.30220866203308105,
        0.3425431251525879,
        0.3805818557739258
    ]
}