{
    "0": [
        0.36487913131713867,
        2.2868945598602295,
        5.35116982460022,
        7.983975410461426,
        16.069780349731445,
        27.2735116481781,
        43.0546350479126,
        130.94857239723206,
        347.8217716217041,
        "TimeOut"
    ],
    "1": [
        0.14885425567626953,
        0.8095495700836182,
        1.7566475868225098,
        9.45052456855774,
        16.77117347717285,
        47.83446431159973,
        164.62593173980713,
        418.7440800666809,
        "TimeOut"
    ],
    "2": [
        1.582371711730957,
        2.629783868789673,
        5.903595685958862,
        9.094911336898804,
        11.598508596420288,
        13.082378387451172,
        16.395431756973267,
        22.8165123462677,
        31.5408616065979,
        48.59929299354553
    ],
    "3": [
        0.20786809921264648,
        1.9774620532989502,
        12.195273637771606,
        94.90835094451904,
        "UNKNOWN"
    ],
    "4": [
        0.2533876895904541,
        2.3467392921447754,
        7.962876319885254,
        11.051294565200806,
        25.311588525772095,
        39.30691957473755,
        58.71050477027893,
        139.56280708312988,
        241.88934564590454,
        482.38699197769165
    ]
}