{
    "0": [
        0.02211761474609375,
        0.06481313705444336,
        3.232278823852539,
        309.91461515426636,
        "UNKNOWN"
    ],
    "1": [
        0.020648479461669922,
        1.7146897315979004,
        34.654292345047,
        "TimeOut"
    ],
    "2": [
        0.04346799850463867,
        0.5586540699005127,
        409.59835290908813,
        "TimeOut"
    ],
    "3": [
        0.04038524627685547,
        0.5356879234313965,
        13.403392314910889,
        348.28089714050293,
        "UNKNOWN"
    ],
    "4": [
        0.022016048431396484,
        5.288751840591431,
        "TimeOut"
    ]
}