{
    "0": [
        3.9319140911102295,
        "TimeOut"
    ],
    "1": [
        4.2777628898620605,
        "UNKNOWN"
    ],
    "2": [
        3.0426647663116455,
        "TimeOut"
    ],
    "3": [
        3.820072889328003,
        "TimeOut"
    ],
    "4": [
        2.9882750511169434,
        "UNKNOWN"
    ]
}