{
    "0": [
        2.2991933822631836,
        5.000178337097168,
        7.746354341506958,
        13.626970291137695,
        16.243619203567505,
        23.844279766082764,
        26.176102876663208,
        28.425997257232666,
        31.201928853988647,
        35.990116119384766
    ],
    "1": [
        2.665083885192871,
        4.824489593505859,
        7.304418325424194,
        10.407329559326172,
        12.847942352294922,
        15.674778938293457,
        20.57976245880127,
        24.06981086730957,
        26.342830657958984,
        29.24800205230713
    ],
    "2": [
        2.251110315322876,
        4.194445610046387,
        6.176478147506714,
        8.478956699371338,
        10.981461763381958,
        12.979073286056519,
        17.676871061325073,
        19.604908227920532,
        21.53238606452942,
        24.17916440963745
    ],
    "3": [
        1.3154733180999756,
        2.830713987350464,
        4.537994623184204,
        5.9149088859558105,
        7.851476192474365,
        9.77060341835022,
        12.834736824035645,
        14.585561990737915,
        17.56752300262451,
        19.460188388824463
    ],
    "4": [
        1.9915859699249268,
        4.264273643493652,
        6.209982633590698,
        8.308918714523315,
        10.303942918777466,
        14.659854173660278,
        18.559157371520996,
        22.387534379959106,
        26.564531326293945,
        30.9668025970459
    ]
}