{
    "0": [
        0.024464845657348633,
        0.048169612884521484,
        0.07336759567260742,
        0.09847879409790039,
        0.1293787956237793,
        0.16323614120483398,
        0.19814252853393555,
        0.23072123527526855,
        0.2619767189025879,
        0.29541587829589844
    ],
    "1": [
        0.025889873504638672,
        0.05205702781677246,
        0.07865095138549805,
        0.10811734199523926,
        0.13432979583740234,
        0.16645503044128418,
        0.2317495346069336,
        0.26433372497558594,
        0.2984495162963867,
        0.36917662620544434
    ],
    "2": [
        0.02615952491760254,
        0.05152392387390137,
        0.07510638236999512,
        0.09885072708129883,
        0.12327766418457031,
        0.15562677383422852,
        0.18640351295471191,
        0.22140264511108398,
        0.2553985118865967,
        0.28926563262939453
    ],
    "3": [
        0.02556920051574707,
        0.0509033203125,
        0.0781855583190918,
        0.10546088218688965,
        0.13701200485229492,
        0.17555809020996094,
        0.21191072463989258,
        0.25319695472717285,
        0.2934420108795166,
        0.35064697265625
    ],
    "4": [
        0.024157047271728516,
        0.0512239933013916,
        0.07890176773071289,
        0.10726451873779297,
        0.13930201530456543,
        0.1701364517211914,
        0.21043014526367188,
        0.2507894039154053,
        0.28725647926330566,
        0.3367123603820801
    ]
}