{
    "0": [
        0.05769634246826172,
        0.16642332077026367,
        0.29360437393188477,
        0.40105462074279785,
        0.6080496311187744,
        0.7203431129455566,
        0.8318402767181396,
        0.9130749702453613,
        1.0878231525421143,
        1.4744651317596436
    ],
    "1": [
        0.0852513313293457,
        0.2798948287963867,
        0.42048001289367676,
        0.5872998237609863,
        0.7329726219177246,
        0.9363384246826172,
        1.2221038341522217,
        1.4382452964782715,
        1.67879319190979,
        1.9810185432434082
    ],
    "2": [
        0.08475136756896973,
        0.24791741371154785,
        0.46166300773620605,
        0.6589841842651367,
        0.8918888568878174,
        1.190882921218872,
        1.5352280139923096,
        2.0501604080200195,
        2.7393312454223633,
        3.110320568084717
    ],
    "3": [
        0.6209981441497803,
        2.2960708141326904,
        4.848142385482788,
        5.528965473175049,
        8.12516164779663,
        9.274123430252075,
        12.034809350967407,
        12.776843786239624,
        13.473754405975342,
        16.37146258354187
    ],
    "4": [
        0.10803079605102539,
        0.499924898147583,
        0.8696222305297852,
        1.0687904357910156,
        1.298708438873291,
        1.8229773044586182,
        2.060762643814087,
        2.3859448432922363,
        2.649495840072632,
        2.9784960746765137
    ]
}