{
    "0": [
        0.0799410343170166,
        0.2713172435760498,
        0.49643421173095703,
        0.7240679264068604,
        0.983710527420044,
        1.242971658706665,
        2.087949275970459,
        2.5990641117095947,
        2.9951369762420654,
        3.3609089851379395
    ],
    "1": [
        0.09978580474853516,
        0.21473264694213867,
        0.4081721305847168,
        0.5511496067047119,
        0.8717856407165527,
        1.13167405128479,
        1.5414173603057861,
        2.261721611022949,
        2.5421249866485596,
        3.4525744915008545
    ],
    "2": [
        0.1289517879486084,
        0.348660945892334,
        0.7655284404754639,
        0.9684581756591797,
        1.4241290092468262,
        1.6424298286437988,
        2.1002471446990967,
        3.1065874099731445,
        3.5229642391204834,
        4.7238311767578125
    ],
    "3": [
        0.08730626106262207,
        0.23087787628173828,
        0.3307352066040039,
        0.4406909942626953,
        0.5560076236724854,
        0.6858313083648682,
        1.1032581329345703,
        1.2708876132965088,
        1.7443161010742188,
        1.9557380676269531
    ],
    "4": [
        0.11367154121398926,
        0.4201955795288086,
        0.6596047878265381,
        0.9231631755828857,
        1.1676814556121826,
        1.6065642833709717,
        2.0956032276153564,
        2.429016351699829,
        3.6008353233337402,
        4.745529413223267
    ]
}