{
    "0": [
        0.6828303337097168,
        1.3986248970031738,
        2.2072713375091553,
        3.318622350692749,
        3.9248034954071045,
        4.778783082962036,
        5.608189582824707,
        6.535081624984741,
        7.951444149017334,
        9.237886667251587
    ],
    "1": [
        0.14835548400878906,
        0.3226959705352783,
        0.584336519241333,
        0.885333776473999,
        1.534121036529541,
        1.860743522644043,
        2.297840118408203,
        2.66044020652771,
        3.0491573810577393,
        4.523205041885376
    ],
    "2": [
        1.155334711074829,
        2.350564956665039,
        3.8975412845611572,
        5.097365140914917,
        6.4273552894592285,
        7.769388198852539,
        8.847644090652466,
        10.044713973999023,
        12.537539005279541,
        14.069355249404907
    ],
    "3": [
        0.9270744323730469,
        1.6849310398101807,
        2.5165483951568604,
        3.2582547664642334,
        4.0574376583099365,
        5.028192758560181,
        5.751482248306274,
        6.492052316665649,
        7.293817520141602,
        8.190266132354736
    ],
    "4": [
        0.548912525177002,
        0.8039000034332275,
        1.0631165504455566,
        1.9006779193878174,
        2.841425895690918,
        3.215942144393921,
        4.110291957855225,
        4.85022234916687,
        5.609630346298218,
        6.61575984954834
    ]
}