{
    "0": [
        0.15742731094360352,
        0.4909806251525879,
        0.9193096160888672,
        1.3659191131591797,
        1.7819225788116455,
        2.7163116931915283,
        3.15170955657959,
        3.517854690551758,
        3.9953079223632812,
        4.369843244552612
    ],
    "1": [
        0.39137911796569824,
        0.6711544990539551,
        1.148407220840454,
        1.595606803894043,
        1.9005584716796875,
        2.386230945587158,
        2.8099048137664795,
        3.465125322341919,
        3.920577049255371,
        4.349196910858154
    ],
    "2": [
        0.1967165470123291,
        0.7776849269866943,
        1.229217529296875,
        1.6910400390625,
        2.2145609855651855,
        2.748021125793457,
        3.1859145164489746,
        3.645064115524292,
        4.026290655136108,
        4.709954500198364
    ],
    "3": [
        0.8950386047363281,
        1.900101661682129,
        3.950180768966675,
        4.831743001937866,
        5.585688829421997,
        6.331915616989136,
        7.215881109237671,
        9.499504327774048,
        10.323684453964233,
        13.004966735839844
    ],
    "4": [
        0.2107563018798828,
        0.7289650440216064,
        1.186842679977417,
        1.8370978832244873,
        2.6492531299591064,
        3.375731945037842,
        4.236586332321167,
        5.026196241378784,
        5.942739963531494,
        6.904985189437866
    ]
}