{
    "0": [
        0.8269484043121338,
        1.5396618843078613,
        2.243278980255127,
        2.954521417617798,
        3.7007031440734863,
        4.461899995803833,
        5.2341468334198,
        6.084855794906616,
        6.90746283531189,
        7.712091445922852
    ],
    "1": [
        0.8080093860626221,
        1.5640156269073486,
        2.357761859893799,
        3.1638131141662598,
        3.981867790222168,
        4.823902606964111,
        5.704638481140137,
        6.687034845352173,
        7.6269285678863525,
        8.58044719696045
    ],
    "2": [
        0.8024322986602783,
        1.5989229679107666,
        2.443216562271118,
        3.2313899993896484,
        4.206991910934448,
        5.011288642883301,
        5.850417613983154,
        6.7092444896698,
        7.563130140304565,
        8.410583972930908
    ],
    "3": [
        0.731055498123169,
        1.4770615100860596,
        2.2087111473083496,
        2.9313910007476807,
        3.666069984436035,
        4.505935192108154,
        5.368118762969971,
        6.254865407943726,
        7.145775556564331,
        8.059069871902466
    ],
    "4": [
        0.7754838466644287,
        1.4986763000488281,
        2.301708459854126,
        3.028688907623291,
        3.774630069732666,
        4.565505504608154,
        5.3493547439575195,
        6.15329384803772,
        6.963869333267212,
        7.877043962478638
    ]
}