{
    "0": [
        0.07025957107543945,
        0.15436029434204102,
        0.24103927612304688,
        0.33397912979125977,
        0.4352142810821533,
        0.5403506755828857,
        0.6527175903320312,
        0.7714035511016846,
        0.8976955413818359,
        1.0213165283203125
    ],
    "1": [
        0.08696174621582031,
        0.1882472038269043,
        0.2907845973968506,
        0.4111301898956299,
        0.5291218757629395,
        0.6851599216461182,
        0.896143913269043,
        1.0726237297058105,
        1.2827386856079102,
        1.450531244277954
    ],
    "2": [
        0.08296060562133789,
        0.15678930282592773,
        0.2587120532989502,
        0.39337778091430664,
        0.51943039894104,
        0.6409287452697754,
        0.762192964553833,
        0.9181523323059082,
        1.015131950378418,
        1.144862174987793
    ],
    "3": [
        0.15256428718566895,
        0.3544144630432129,
        0.4954407215118408,
        0.7692573070526123,
        0.9486937522888184,
        1.172276258468628,
        1.3449194431304932,
        1.588695764541626,
        1.8093059062957764,
        2.092869281768799
    ],
    "4": [
        0.08359909057617188,
        0.18359708786010742,
        0.29043126106262207,
        0.40848207473754883,
        0.5155375003814697,
        0.627389669418335,
        0.7405514717102051,
        0.862926721572876,
        0.9884331226348877,
        1.1489448547363281
    ]
}