{
    "0": [
        0.28207826614379883,
        0.5600705146789551,
        0.872746467590332,
        1.209888219833374,
        1.4871487617492676,
        1.808462381362915,
        2.0867834091186523,
        2.3272266387939453,
        2.606031656265259,
        2.8454010486602783
    ],
    "1": [
        0.0772557258605957,
        0.16152071952819824,
        0.30129528045654297,
        0.4695141315460205,
        0.6118967533111572,
        0.7315719127655029,
        0.8564767837524414,
        1.0979764461517334,
        1.2730956077575684,
        1.439669132232666
    ],
    "2": [
        0.08057260513305664,
        0.17232847213745117,
        0.30551719665527344,
        0.4372727870941162,
        0.5875716209411621,
        0.7823927402496338,
        0.9405574798583984,
        1.1001543998718262,
        1.268768072128296,
        1.4813318252563477
    ],
    "3": [
        0.08762454986572266,
        0.210585355758667,
        0.3267498016357422,
        0.45059919357299805,
        0.6151349544525146,
        0.7623493671417236,
        0.9188151359558105,
        1.1386921405792236,
        1.3305041790008545,
        1.5780491828918457
    ],
    "4": [
        0.08608365058898926,
        0.24656081199645996,
        0.41651463508605957,
        0.5542306900024414,
        0.7256746292114258,
        0.8738234043121338,
        1.0745553970336914,
        1.291919469833374,
        1.4755275249481201,
        1.701106071472168
    ]
}