{
    "0": [
        0.08987092971801758,
        0.22510623931884766,
        0.3748505115509033,
        0.5295560359954834,
        0.6782727241516113,
        0.8681738376617432,
        1.0426437854766846,
        1.2228896617889404,
        1.4151346683502197,
        1.593031406402588
    ],
    "1": [
        0.07470989227294922,
        0.1573352813720703,
        0.2667994499206543,
        0.3862335681915283,
        0.5118899345397949,
        0.6455745697021484,
        0.7973728179931641,
        0.9729330539703369,
        1.1281323432922363,
        1.315220832824707
    ],
    "2": [
        0.0777738094329834,
        0.16309332847595215,
        0.27185869216918945,
        0.40909504890441895,
        0.5527822971343994,
        0.7292342185974121,
        0.8640756607055664,
        1.0062756538391113,
        1.2117531299591064,
        1.3884239196777344
    ],
    "3": [
        0.07683825492858887,
        0.15812087059020996,
        0.27487754821777344,
        0.42821836471557617,
        0.5839686393737793,
        0.7357208728790283,
        0.8886017799377441,
        1.0400471687316895,
        1.2005560398101807,
        1.380986213684082
    ],
    "4": [
        0.07648539543151855,
        0.18054962158203125,
        0.3186483383178711,
        0.49181079864501953,
        0.6512393951416016,
        0.7925553321838379,
        1.0382704734802246,
        1.2247254848480225,
        1.4526381492614746,
        1.6981475353240967
    ]
}