{
    "0": [
        0.20476889610290527,
        0.3993709087371826,
        0.6273880004882812,
        0.8528904914855957,
        1.1137902736663818,
        1.3778047561645508,
        1.640737771987915,
        1.900010108947754,
        2.188206911087036,
        2.528341770172119
    ],
    "1": [
        0.5233440399169922,
        1.2206687927246094,
        1.9027113914489746,
        2.680250644683838,
        3.564662218093872,
        4.240463495254517,
        4.998004913330078,
        5.611654996871948,
        6.400555849075317,
        7.304397344589233
    ],
    "2": [
        0.13187909126281738,
        0.265763521194458,
        0.4361846446990967,
        0.6247711181640625,
        0.8483030796051025,
        1.0625686645507812,
        1.2886996269226074,
        1.5270731449127197,
        1.7928404808044434,
        2.06884503364563
    ],
    "3": [
        0.4535210132598877,
        0.9916157722473145,
        1.5263750553131104,
        2.0305328369140625,
        2.4404613971710205,
        2.9271061420440674,
        3.4092729091644287,
        3.8531455993652344,
        4.260560989379883,
        4.720745325088501
    ],
    "4": [
        0.2432546615600586,
        0.5657753944396973,
        0.8994252681732178,
        1.2518084049224854,
        1.6614699363708496,
        1.9844796657562256,
        2.310427188873291,
        2.679338216781616,
        2.9838972091674805,
        3.2934045791625977
    ]
}