{
    "0": [
        0.10757136344909668,
        0.2176222801208496,
        0.4239022731781006,
        0.6403799057006836,
        0.790597677230835,
        0.9760417938232422,
        1.1494731903076172,
        1.3000891208648682,
        1.4853768348693848,
        1.7438595294952393
    ],
    "1": [
        0.07895112037658691,
        0.23964405059814453,
        0.37311530113220215,
        0.5510392189025879,
        0.714623212814331,
        0.8890528678894043,
        1.0856597423553467,
        1.2602834701538086,
        1.4775559902191162,
        1.7286314964294434
    ],
    "2": [
        0.10043168067932129,
        0.20294857025146484,
        0.31964921951293945,
        0.4279935359954834,
        0.5575063228607178,
        0.6801464557647705,
        0.8574361801147461,
        0.9855270385742188,
        1.1300442218780518,
        1.2797231674194336
    ],
    "3": [
        0.0831003189086914,
        0.16975927352905273,
        0.26821088790893555,
        0.4059286117553711,
        0.5566577911376953,
        0.7278532981872559,
        0.8462882041931152,
        0.9956889152526855,
        1.1543967723846436,
        1.352038860321045
    ],
    "4": [
        0.09826850891113281,
        0.25701284408569336,
        0.4424581527709961,
        0.6112532615661621,
        0.81540846824646,
        1.0120670795440674,
        1.2258076667785645,
        1.4407849311828613,
        1.684354543685913,
        1.9159908294677734
    ]
}