{
    "0": [
        0.1496105194091797,
        0.3576242923736572,
        0.605903148651123,
        0.841223955154419,
        1.1258440017700195,
        1.416982889175415,
        1.6745076179504395,
        1.9643032550811768,
        2.251922130584717,
        2.585763454437256
    ],
    "1": [
        0.14324307441711426,
        0.2973194122314453,
        0.5148482322692871,
        0.7205114364624023,
        0.8954000473022461,
        1.1912429332733154,
        1.4612455368041992,
        1.7255101203918457,
        1.9574120044708252,
        2.245595932006836
    ],
    "2": [
        0.11788606643676758,
        0.2836182117462158,
        0.5116748809814453,
        0.737468957901001,
        0.9343030452728271,
        1.1983938217163086,
        1.4680612087249756,
        1.730771541595459,
        1.9945635795593262,
        2.355142116546631
    ],
    "3": [
        0.13675308227539062,
        0.31650805473327637,
        0.5106024742126465,
        0.8003678321838379,
        1.0632030963897705,
        1.3074426651000977,
        1.5439720153808594,
        1.8118901252746582,
        2.0804519653320312,
        2.315356492996216
    ],
    "4": [
        0.14051604270935059,
        0.37309741973876953,
        0.5943396091461182,
        0.8787353038787842,
        1.1875464916229248,
        1.4208307266235352,
        1.6786577701568604,
        2.05887508392334,
        2.389662981033325,
        2.760684013366699
    ]
}