{
    "0": [
        0.08995842933654785,
        0.18952107429504395,
        0.2986173629760742,
        0.42841601371765137,
        0.5729165077209473,
        0.7038452625274658,
        0.865516185760498,
        1.0301580429077148,
        1.1934802532196045,
        1.3388445377349854
    ],
    "1": [
        0.08849239349365234,
        0.18738913536071777,
        0.31598329544067383,
        0.46971678733825684,
        0.6492726802825928,
        0.7763848304748535,
        0.9629166126251221,
        1.127086877822876,
        1.335679054260254,
        1.538874864578247
    ],
    "2": [
        0.09102416038513184,
        0.20667123794555664,
        0.3623926639556885,
        0.4896562099456787,
        0.6292910575866699,
        0.879967451095581,
        1.168116807937622,
        1.4267516136169434,
        1.7112748622894287,
        1.9666719436645508
    ],
    "3": [
        0.08434247970581055,
        0.18465280532836914,
        0.2994852066040039,
        0.39933061599731445,
        0.5352983474731445,
        0.6579229831695557,
        0.7833206653594971,
        0.9157397747039795,
        1.045531988143921,
        1.18723726272583
    ],
    "4": [
        0.08275723457336426,
        0.16901016235351562,
        0.2743501663208008,
        0.3880453109741211,
        0.5186784267425537,
        0.6590437889099121,
        0.8111870288848877,
        1.0055961608886719,
        1.2507245540618896,
        1.4400720596313477
    ]
}