{
    "0": [
        0.07220196723937988,
        0.13351035118103027,
        0.20984673500061035,
        0.2941601276397705,
        0.383894681930542,
        0.4864981174468994,
        0.575523853302002,
        0.6734585762023926,
        0.7690451145172119,
        0.863966703414917
    ],
    "1": [
        0.0701591968536377,
        0.14733386039733887,
        0.22780418395996094,
        0.31376004219055176,
        0.4028027057647705,
        0.5057392120361328,
        0.5998778343200684,
        0.6993353366851807,
        0.8199670314788818,
        0.9555563926696777
    ],
    "2": [
        0.08718538284301758,
        0.1833031177520752,
        0.3296051025390625,
        0.483654260635376,
        0.6287949085235596,
        0.8134360313415527,
        0.9883525371551514,
        1.1688573360443115,
        1.375394344329834,
        1.5463130474090576
    ],
    "3": [
        0.07102704048156738,
        0.15191984176635742,
        0.25446271896362305,
        0.3845973014831543,
        0.5045576095581055,
        0.6405668258666992,
        0.7554941177368164,
        0.9268169403076172,
        1.1230578422546387,
        1.285574197769165
    ],
    "4": [
        0.06650972366333008,
        0.14774179458618164,
        0.24117708206176758,
        0.3481307029724121,
        0.46718311309814453,
        0.5952539443969727,
        0.7082693576812744,
        0.8212764263153076,
        0.9408702850341797,
        1.0889463424682617
    ]
}