{
    "0": [
        0.07644867897033691,
        0.15644621849060059,
        0.28716444969177246,
        0.4163668155670166,
        0.5178062915802002,
        0.6416010856628418,
        0.7524845600128174,
        0.8747336864471436,
        0.9955151081085205,
        1.1261730194091797
    ],
    "1": [
        0.054917335510253906,
        0.1106574535369873,
        0.17477035522460938,
        0.24626541137695312,
        0.31455469131469727,
        0.38782167434692383,
        0.466325044631958,
        0.5576796531677246,
        0.665015459060669,
        0.7741014957427979
    ],
    "2": [
        0.0707392692565918,
        0.13532662391662598,
        0.20982837677001953,
        0.2957921028137207,
        0.3810272216796875,
        0.47184252738952637,
        0.5729303359985352,
        0.6746509075164795,
        0.7830517292022705,
        0.9033253192901611
    ],
    "3": [
        0.06299924850463867,
        0.12029409408569336,
        0.19167566299438477,
        0.2717900276184082,
        0.3557722568511963,
        0.4449272155761719,
        0.5574398040771484,
        0.6599216461181641,
        0.7678322792053223,
        0.8902914524078369
    ],
    "4": [
        0.07179856300354004,
        0.1425189971923828,
        0.21459698677062988,
        0.31318163871765137,
        0.40108442306518555,
        0.5064566135406494,
        0.6226718425750732,
        0.7349884510040283,
        0.8488261699676514,
        0.970026969909668
    ]
}