{
    "0": [
        0.07961416244506836,
        0.18929767608642578,
        0.3245835304260254,
        0.4759070873260498,
        0.6102292537689209,
        0.7174561023712158,
        0.9010200500488281,
        1.0436394214630127,
        1.2527649402618408,
        1.394683599472046
    ],
    "1": [
        0.09266376495361328,
        0.18939518928527832,
        0.30339646339416504,
        0.39675211906433105,
        0.5157277584075928,
        0.6547300815582275,
        0.8068966865539551,
        0.9222457408905029,
        1.1040046215057373,
        1.2891831398010254
    ],
    "2": [
        0.19956278800964355,
        0.35513734817504883,
        0.5408284664154053,
        0.7412207126617432,
        0.930046558380127,
        1.1875019073486328,
        1.443176031112671,
        1.63816237449646,
        1.881349802017212,
        2.112117052078247
    ],
    "3": [
        0.04550909996032715,
        0.09588861465454102,
        0.16643047332763672,
        0.22553062438964844,
        0.30327916145324707,
        0.3719356060028076,
        0.4520444869995117,
        0.5431511402130127,
        0.6464889049530029,
        0.7252945899963379
    ],
    "4": [
        0.10319924354553223,
        0.2307894229888916,
        0.4118680953979492,
        0.5225446224212646,
        0.6649131774902344,
        0.7735939025878906,
        0.8667309284210205,
        0.967170238494873,
        1.0636210441589355,
        1.1628477573394775
    ]
}