{
    "0": [
        0.1820816993713379,
        0.3919405937194824,
        0.6378190517425537,
        0.8936498165130615,
        1.1982307434082031,
        1.4914844036102295,
        1.8425145149230957,
        2.1977992057800293,
        2.570497989654541,
        2.9829916954040527
    ],
    "1": [
        0.33402228355407715,
        0.8207142353057861,
        1.2356140613555908,
        1.7597582340240479,
        2.17411208152771,
        2.639360189437866,
        2.9259157180786133,
        3.298278570175171,
        3.745431423187256,
        4.2739098072052
    ],
    "2": [
        0.13409900665283203,
        0.2949552536010742,
        0.4767270088195801,
        0.7258195877075195,
        0.9583015441894531,
        1.1919770240783691,
        1.5020172595977783,
        1.769941806793213,
        2.0344858169555664,
        2.323328971862793
    ],
    "3": [
        0.20557332038879395,
        0.383312463760376,
        0.5715467929840088,
        0.807227373123169,
        1.027930736541748,
        1.2487938404083252,
        1.5234692096710205,
        1.735518217086792,
        1.9705109596252441,
        2.2423627376556396
    ],
    "4": [
        0.17881989479064941,
        0.3446784019470215,
        0.5299301147460938,
        0.7700374126434326,
        0.9977250099182129,
        1.2753429412841797,
        1.5156424045562744,
        1.8120529651641846,
        2.0858685970306396,
        2.4117701053619385
    ]
}