{
    "0": [
        0.02805304527282715,
        0.05005931854248047,
        0.07311630249023438,
        0.09801959991455078,
        0.11968135833740234,
        "UNSAT"
    ],
    "1": [
        0.023011207580566406,
        0.05287051200866699,
        0.07795882225036621,
        0.1040797233581543,
        0.12971925735473633,
        "UNSAT"
    ],
    "2": [
        0.022668838500976562,
        0.04815244674682617,
        0.0740816593170166,
        0.0989069938659668,
        0.11890864372253418,
        "UNSAT"
    ],
    "3": [
        0.029291868209838867,
        0.05493307113647461,
        0.07778072357177734,
        0.103759765625,
        0.13017916679382324,
        "UNSAT"
    ],
    "4": [
        0.027431964874267578,
        0.051885366439819336,
        0.07942056655883789,
        0.10650086402893066,
        0.1322948932647705,
        "UNSAT"
    ]
}