{
    "0": [
        0.05750560760498047,
        0.11040377616882324,
        0.1758129596710205,
        0.2384626865386963,
        0.306368350982666,
        0.38283705711364746,
        0.46288108825683594,
        0.5332844257354736,
        0.6014127731323242,
        0.6689896583557129
    ],
    "1": [
        0.06508731842041016,
        0.1224203109741211,
        0.1865699291229248,
        0.24698877334594727,
        0.3184516429901123,
        0.38960766792297363,
        0.46025609970092773,
        0.5260145664215088,
        0.6118490695953369,
        0.681800127029419
    ],
    "2": [
        0.04868268966674805,
        0.11004018783569336,
        0.17238736152648926,
        0.22922945022583008,
        0.29175782203674316,
        0.35230302810668945,
        0.42076969146728516,
        0.48662590980529785,
        0.5592260360717773,
        0.6359512805938721
    ],
    "3": [
        0.05525016784667969,
        0.11591124534606934,
        0.17357277870178223,
        0.23398351669311523,
        0.3038828372955322,
        0.3745865821838379,
        0.4393794536590576,
        0.5016252994537354,
        0.5639176368713379,
        0.6241774559020996
    ],
    "4": [
        0.05455636978149414,
        0.10617208480834961,
        0.16041803359985352,
        0.2114574909210205,
        0.27729296684265137,
        0.3455648422241211,
        0.40065765380859375,
        0.4567108154296875,
        0.5150609016418457,
        0.5817289352416992
    ]
}