{
    "0": [
        0.06659436225891113,
        0.12258076667785645,
        0.19546008110046387,
        0.26107144355773926,
        0.316326379776001,
        0.3778040409088135,
        0.4638032913208008,
        0.5398638248443604,
        0.6476612091064453,
        0.7281951904296875
    ],
    "1": [
        0.05224347114562988,
        0.10863518714904785,
        0.178175687789917,
        0.23602652549743652,
        0.30155181884765625,
        0.3741190433502197,
        0.44423770904541016,
        0.5084891319274902,
        0.5758824348449707,
        0.6451857089996338
    ],
    "2": [
        0.04864645004272461,
        0.10547280311584473,
        0.15884661674499512,
        0.23419904708862305,
        0.32131528854370117,
        0.41604161262512207,
        0.5014793872833252,
        0.5708684921264648,
        0.6644864082336426,
        0.7831141948699951
    ],
    "3": [
        0.06470823287963867,
        0.12280488014221191,
        0.18726110458374023,
        0.2561306953430176,
        0.3198995590209961,
        0.3905365467071533,
        0.4618558883666992,
        0.5320034027099609,
        0.6128394603729248,
        0.6868252754211426
    ],
    "4": [
        0.07458257675170898,
        0.1529996395111084,
        0.23073434829711914,
        0.3518364429473877,
        0.43052172660827637,
        0.5131556987762451,
        0.6054403781890869,
        0.7026169300079346,
        0.7981786727905273,
        0.8991196155548096
    ]
}