{
    "0": [
        0.07792830467224121,
        0.1379706859588623,
        0.2210540771484375,
        0.3041374683380127,
        0.3945307731628418,
        0.48958587646484375,
        0.5881853103637695,
        0.6846823692321777,
        0.8016440868377686,
        0.9076263904571533
    ],
    "1": [
        0.06817173957824707,
        0.14035797119140625,
        0.22369813919067383,
        0.32324719429016113,
        0.4969322681427002,
        0.6132185459136963,
        0.7648210525512695,
        0.8971688747406006,
        0.9962308406829834,
        1.1410021781921387
    ],
    "2": [
        0.05227923393249512,
        0.10751128196716309,
        0.18272876739501953,
        0.2635509967803955,
        0.3639247417449951,
        0.477689266204834,
        0.5907201766967773,
        0.706648588180542,
        0.8184409141540527,
        0.9505228996276855
    ],
    "3": [
        0.05900073051452637,
        0.16057991981506348,
        0.24893403053283691,
        0.3412811756134033,
        0.47298407554626465,
        0.5969944000244141,
        0.7313792705535889,
        0.9003303050994873,
        1.0492794513702393,
        1.2051153182983398
    ],
    "4": [
        0.057351112365722656,
        0.11931657791137695,
        0.20025110244750977,
        0.28822994232177734,
        0.3740866184234619,
        0.4532051086425781,
        0.5465648174285889,
        0.6404154300689697,
        0.7510616779327393,
        0.853661060333252
    ]
}