{
    "0": [
        0.0448451042175293,
        0.0965261459350586,
        0.14879679679870605,
        0.20100760459899902,
        0.25769639015197754,
        0.30770111083984375,
        0.36017417907714844,
        0.4270749092102051,
        0.501274585723877,
        0.5578467845916748
    ],
    "1": [
        0.03892850875854492,
        0.08435177803039551,
        0.1273200511932373,
        0.18030023574829102,
        0.24876689910888672,
        0.30613112449645996,
        0.36872434616088867,
        0.43343329429626465,
        0.4975447654724121,
        0.5710599422454834
    ],
    "2": [
        0.042125701904296875,
        0.08959603309631348,
        0.1377120018005371,
        0.19188976287841797,
        0.24546051025390625,
        0.3033630847930908,
        0.35790562629699707,
        0.41257262229919434,
        0.4880526065826416,
        0.5383481979370117
    ],
    "3": [
        0.05129528045654297,
        0.09781765937805176,
        0.1478569507598877,
        0.19592046737670898,
        0.25516629219055176,
        0.31422948837280273,
        0.37497663497924805,
        0.43845295906066895,
        0.4984900951385498,
        0.557234525680542
    ],
    "4": [
        0.04853343963623047,
        0.09178304672241211,
        0.13941431045532227,
        0.18627142906188965,
        0.23698782920837402,
        0.2965235710144043,
        0.35941481590270996,
        0.43166112899780273,
        0.5037078857421875,
        0.586737871170044
    ]
}