{
    "0": [
        0.09924554824829102,
        0.2128891944885254,
        0.3103921413421631,
        0.4669969081878662,
        0.6133811473846436,
        0.7817189693450928,
        0.9614834785461426,
        1.1603808403015137,
        1.3597040176391602,
        1.565096139907837
    ],
    "1": [
        0.08636093139648438,
        0.18441033363342285,
        0.31209421157836914,
        0.4448380470275879,
        0.6028447151184082,
        0.7633726596832275,
        0.8859291076660156,
        1.0812420845031738,
        1.2763392925262451,
        1.4549429416656494
    ],
    "2": [
        0.0752401351928711,
        0.1738131046295166,
        0.29534125328063965,
        0.4501616954803467,
        0.6572520732879639,
        0.8160958290100098,
        1.0329854488372803,
        1.1706860065460205,
        1.3127162456512451,
        1.4649300575256348
    ],
    "3": [
        0.07097411155700684,
        0.1520991325378418,
        0.2755413055419922,
        0.407989501953125,
        0.5395314693450928,
        0.7386610507965088,
        0.9693539142608643,
        1.2038700580596924,
        1.4452786445617676,
        1.6507861614227295
    ],
    "4": [
        0.07666373252868652,
        0.1697525978088379,
        0.2916395664215088,
        0.4233696460723877,
        0.6063308715820312,
        0.8106637001037598,
        0.9737815856933594,
        1.1423532962799072,
        1.295788288116455,
        1.4768562316894531
    ]
}