{
    "0": [
        0.05309295654296875,
        0.13118863105773926,
        0.21170735359191895,
        0.2987368106842041,
        0.38771796226501465,
        0.49279046058654785,
        0.590374231338501,
        0.6935923099517822,
        0.7950780391693115,
        0.900576114654541
    ],
    "1": [
        0.06631779670715332,
        0.15242838859558105,
        0.23964571952819824,
        0.32867908477783203,
        0.4161677360534668,
        0.5358028411865234,
        0.6412158012390137,
        0.7492530345916748,
        0.8624022006988525,
        1.0066797733306885
    ],
    "2": [
        0.0752713680267334,
        0.1773085594177246,
        0.2644312381744385,
        0.37898850440979004,
        0.49126458168029785,
        0.629866361618042,
        0.7415506839752197,
        0.8522140979766846,
        0.9693632125854492,
        1.0878190994262695
    ],
    "3": [
        0.06367135047912598,
        0.13746333122253418,
        0.22223496437072754,
        0.3157055377960205,
        0.4079451560974121,
        0.5100767612457275,
        0.6027357578277588,
        0.7117347717285156,
        0.817194938659668,
        0.9182431697845459
    ],
    "4": [
        0.07365679740905762,
        0.14992356300354004,
        0.22528624534606934,
        0.30610060691833496,
        0.39781832695007324,
        0.5257556438446045,
        0.6666371822357178,
        0.7728147506713867,
        0.8859047889709473,
        1.0202577114105225
    ]
}