{
    "0": [
        0.3893473148345947,
        0.7903361320495605,
        1.2295866012573242,
        1.7268738746643066,
        2.2589612007141113,
        2.740116596221924,
        3.383843183517456,
        3.8995416164398193,
        4.433829307556152,
        4.989828824996948
    ],
    "1": [
        0.3623979091644287,
        0.7497897148132324,
        1.1530718803405762,
        1.5659363269805908,
        2.018651008605957,
        2.479294776916504,
        2.9267876148223877,
        3.4563052654266357,
        3.9636170864105225,
        4.532979488372803
    ],
    "2": [
        0.47197437286376953,
        0.9742064476013184,
        1.49177885055542,
        1.9711675643920898,
        2.5614967346191406,
        3.178603410720825,
        3.802198648452759,
        4.290555000305176,
        4.8844804763793945,
        5.5427093505859375
    ],
    "3": [
        0.6877250671386719,
        1.3357288837432861,
        2.098928451538086,
        2.805676221847534,
        3.489655017852783,
        4.27829384803772,
        5.028822898864746,
        5.811672925949097,
        6.5801615715026855,
        7.381182670593262
    ],
    "4": [
        0.41965246200561523,
        0.837144136428833,
        1.3089323043823242,
        1.8281497955322266,
        2.3225936889648438,
        2.8533239364624023,
        3.3816940784454346,
        3.8984270095825195,
        4.483460903167725,
        5.066155910491943
    ]
}