{
    "0": [
        0.023630380630493164,
        0.04801154136657715,
        0.07135629653930664,
        0.09224963188171387,
        0.11365056037902832,
        0.13411188125610352,
        0.1566627025604248,
        0.18196654319763184,
        0.2089085578918457,
        0.23709845542907715
    ],
    "1": [
        0.021603107452392578,
        0.04199934005737305,
        0.06094646453857422,
        0.08273100852966309,
        0.10630559921264648,
        0.1289522647857666,
        0.15080046653747559,
        0.17525529861450195,
        0.1995546817779541,
        0.22334051132202148
    ],
    "2": [
        0.021143198013305664,
        0.04574012756347656,
        0.06949043273925781,
        0.09345817565917969,
        0.11778593063354492,
        0.14199328422546387,
        0.16503453254699707,
        0.18999433517456055,
        0.21559643745422363,
        0.24319887161254883
    ],
    "3": [
        0.01987290382385254,
        0.04223275184631348,
        0.06500816345214844,
        0.0874783992767334,
        0.11114501953125,
        0.13487768173217773,
        0.1580209732055664,
        0.18306183815002441,
        0.20731067657470703,
        0.2353661060333252
    ],
    "4": [
        0.02218174934387207,
        0.03986001014709473,
        0.06331706047058105,
        0.08579230308532715,
        0.10806775093078613,
        0.13126540184020996,
        0.15428614616394043,
        0.1764225959777832,
        0.20120859146118164,
        0.22824716567993164
    ]
}