{
    "0": [
        0.07670378684997559,
        0.18012452125549316,
        0.30081963539123535,
        0.5055158138275146,
        0.6432092189788818,
        0.8168177604675293,
        0.9879851341247559,
        1.1526906490325928,
        1.3043241500854492,
        1.4722321033477783
    ],
    "1": [
        0.06540894508361816,
        0.14063334465026855,
        0.21715927124023438,
        0.31980299949645996,
        0.4041118621826172,
        0.5218732357025146,
        0.6296424865722656,
        0.748093843460083,
        0.8797571659088135,
        1.007981538772583
    ],
    "2": [
        0.07785654067993164,
        0.16317200660705566,
        0.24145746231079102,
        0.3417062759399414,
        0.44524717330932617,
        0.5516960620880127,
        0.6660423278808594,
        0.7814414501190186,
        0.9054262638092041,
        1.035111427307129
    ],
    "3": [
        0.06988286972045898,
        0.15252256393432617,
        0.27359795570373535,
        0.3924293518066406,
        0.5095541477203369,
        0.623093843460083,
        0.7531776428222656,
        0.8899600505828857,
        1.126404047012329,
        1.305018663406372
    ],
    "4": [
        0.06482744216918945,
        0.144287109375,
        0.22750496864318848,
        0.3244483470916748,
        0.4336109161376953,
        0.5393397808074951,
        0.6433970928192139,
        0.7489650249481201,
        0.8626317977905273,
        0.9919402599334717
    ]
}