{
    "0": [
        0.6727983951568604,
        1.1767911911010742,
        1.9704623222351074,
        2.651942253112793,
        3.287062644958496,
        4.043431997299194,
        4.607079744338989,
        5.260365009307861,
        5.959672451019287,
        6.616580963134766
    ],
    "1": [
        0.16734600067138672,
        0.41930460929870605,
        0.690687894821167,
        1.0227468013763428,
        1.30483078956604,
        1.6678931713104248,
        2.016141414642334,
        2.3770830631256104,
        2.8580665588378906,
        3.3045084476470947
    ],
    "2": [
        0.8869860172271729,
        1.6773731708526611,
        2.676426649093628,
        3.582249879837036,
        4.77431583404541,
        5.9417243003845215,
        7.121671915054321,
        8.13566541671753,
        9.43538212776184,
        10.388679265975952
    ],
    "3": [
        0.8532092571258545,
        1.858426809310913,
        2.8351287841796875,
        3.8517844676971436,
        4.982861757278442,
        6.2101731300354,
        7.320592403411865,
        8.805429697036743,
        9.785496234893799,
        11.23838758468628
    ],
    "4": [
        0.8123595714569092,
        1.6422531604766846,
        2.6943585872650146,
        3.748913288116455,
        4.948010444641113,
        5.914562702178955,
        6.802583694458008,
        7.680853843688965,
        8.632615327835083,
        10.181324243545532
    ]
}