{
    "0": [
        0.1664261817932129,
        0.4149038791656494,
        0.7326581478118896,
        0.9490349292755127,
        1.1788992881774902,
        1.9185962677001953,
        2.217060089111328,
        2.6858248710632324,
        3.026846170425415,
        3.3522555828094482
    ],
    "1": [
        0.31514430046081543,
        0.6592581272125244,
        1.2329423427581787,
        1.9256818294525146,
        2.3206138610839844,
        2.665639638900757,
        3.2067644596099854,
        3.706366539001465,
        4.232078790664673,
        4.883426666259766
    ],
    "2": [
        0.11879897117614746,
        0.23345065116882324,
        0.38602209091186523,
        0.5131633281707764,
        0.6524901390075684,
        0.7846248149871826,
        0.9251394271850586,
        1.158527135848999,
        1.3154983520507812,
        1.470405101776123
    ],
    "3": [
        0.2200150489807129,
        0.48456501960754395,
        0.8082475662231445,
        1.2110395431518555,
        1.430589199066162,
        1.6760177612304688,
        1.9456446170806885,
        2.1562957763671875,
        2.5074896812438965,
        2.801323175430298
    ],
    "4": [
        0.0984656810760498,
        0.2371664047241211,
        0.36008620262145996,
        0.4932374954223633,
        0.6421632766723633,
        0.7951233386993408,
        0.9624183177947998,
        1.1438839435577393,
        1.35384202003479,
        1.5659518241882324
    ]
}