{
    "0": [
        0.11458444595336914,
        0.20501065254211426,
        0.3106040954589844,
        0.4281196594238281,
        0.5571327209472656,
        0.7028040885925293,
        0.8343505859375,
        0.9884326457977295,
        1.1524312496185303,
        1.33628249168396
    ],
    "1": [
        0.0806121826171875,
        0.167633056640625,
        0.27875733375549316,
        0.3873469829559326,
        0.51554274559021,
        0.6591558456420898,
        0.795551061630249,
        0.9376962184906006,
        1.1061573028564453,
        1.2843708992004395
    ],
    "2": [
        0.09338760375976562,
        0.195512056350708,
        0.31535792350769043,
        0.4461202621459961,
        0.5906310081481934,
        0.7335536479949951,
        0.9130489826202393,
        1.0953612327575684,
        1.3007621765136719,
        1.501418113708496
    ],
    "3": [
        0.08918547630310059,
        0.18817687034606934,
        0.2873382568359375,
        0.41559433937072754,
        0.5359981060028076,
        0.6762335300445557,
        0.8333432674407959,
        0.9981391429901123,
        1.1845834255218506,
        1.3679170608520508
    ],
    "4": [
        0.07609677314758301,
        0.1557753086090088,
        0.2427527904510498,
        0.3303358554840088,
        0.45189714431762695,
        0.5988037586212158,
        0.7214295864105225,
        0.8480803966522217,
        0.988473653793335,
        1.128737449645996
    ]
}