{
    "0": [
        0.2019810676574707,
        0.38517236709594727,
        0.6526799201965332,
        0.8589098453521729,
        1.075331211090088,
        1.436645269393921,
        1.891981840133667,
        2.1561832427978516,
        2.4841654300689697,
        2.873908519744873
    ],
    "1": [
        0.18772101402282715,
        0.4430408477783203,
        0.6597223281860352,
        0.8621118068695068,
        1.161797285079956,
        1.3909807205200195,
        1.7240064144134521,
        2.0324866771698,
        2.29728364944458,
        2.5647506713867188
    ],
    "2": [
        0.24205636978149414,
        0.4372844696044922,
        0.656266450881958,
        0.8750581741333008,
        1.146066427230835,
        1.4696557521820068,
        1.8260364532470703,
        2.1373651027679443,
        2.522012233734131,
        3.0408551692962646
    ],
    "3": [
        0.2299036979675293,
        0.46207189559936523,
        0.8077430725097656,
        1.1116845607757568,
        1.4092741012573242,
        1.7256720066070557,
        2.0613198280334473,
        2.4293034076690674,
        2.726019859313965,
        2.9968936443328857
    ],
    "4": [
        0.2015533447265625,
        0.49249744415283203,
        0.7669241428375244,
        1.015181064605713,
        1.2945876121520996,
        1.6239266395568848,
        1.8602352142333984,
        2.162978410720825,
        2.4407496452331543,
        2.7462470531463623
    ]
}