{
    "0": [
        0.8927345275878906,
        1.9126904010772705,
        2.9671287536621094,
        4.362380027770996,
        5.98227858543396,
        6.672908067703247,
        7.924060106277466,
        8.51607632637024,
        9.78466796875,
        11.25879979133606
    ],
    "1": [
        1.244899034500122,
        2.2629470825195312,
        3.4429304599761963,
        4.454586982727051,
        5.570921182632446,
        6.757398366928101,
        8.117954969406128,
        9.240055322647095,
        10.968549013137817,
        12.039339065551758
    ],
    "2": [
        0.9954078197479248,
        2.0576579570770264,
        3.233893394470215,
        4.339176893234253,
        5.203364849090576,
        6.611496925354004,
        7.691180944442749,
        9.015155792236328,
        9.880094289779663,
        10.943398714065552
    ],
    "3": [
        1.0098636150360107,
        2.0714893341064453,
        3.340965509414673,
        4.423067569732666,
        5.488043546676636,
        6.759385585784912,
        7.994231224060059,
        9.587498903274536,
        10.844706296920776,
        12.037678241729736
    ],
    "4": [
        0.9598662853240967,
        1.7505877017974854,
        2.6234328746795654,
        3.8024659156799316,
        4.820559978485107,
        5.734055757522583,
        6.735050201416016,
        7.621826410293579,
        8.755794525146484,
        9.69044804573059
    ]
}