{
    "0": [
        0.1,
        0.118,
        0.131,
        0.142,
        0.158,
        0.173,
        0.189,
        0.204,
        0.221,
        0.238
    ],
    "1": [
        0.102,
        0.115,
        0.128,
        0.139,
        0.155,
        0.17,
        0.184,
        0.197,
        0.209,
        0.222
    ],
    "2": [
        0.099,
        0.111,
        0.124,
        0.134,
        0.142,
        0.151,
        0.161,
        0.17,
        0.182,
        0.192
    ],
    "3": [
        0.096,
        0.11,
        0.125,
        0.136,
        0.147,
        0.161,
        0.176,
        0.192,
        0.21,
        0.225
    ],
    "4": [
        0.099,
        0.111,
        0.129,
        0.143,
        0.155,
        0.165,
        0.174,
        0.186,
        0.197,
        0.209
    ]
}