{
    "0": [
        0.077,
        0.082,
        0.088,
        0.092,
        0.099,
        0.105,
        0.111,
        0.118,
        0.123,
        0.128
    ],
    "1": [
        0.07,
        0.074,
        0.078,
        0.081,
        0.085,
        0.088,
        0.092,
        0.095,
        0.099,
        0.103
    ],
    "2": [
        0.076,
        0.083,
        0.087,
        0.094,
        0.101,
        0.108,
        0.115,
        0.124,
        0.14,
        0.156
    ],
    "3": [
        0.076,
        0.082,
        0.088,
        0.094,
        0.099,
        0.106,
        0.111,
        0.118,
        0.125,
        0.133
    ],
    "4": [
        0.078,
        0.084,
        0.09,
        0.097,
        0.103,
        0.11,
        0.117,
        0.123,
        0.129,
        0.134
    ]
}