{
    "0": [
        0.143,
        0.162,
        0.178,
        0.194,
        0.209,
        0.224,
        0.246,
        0.267,
        0.286,
        0.309
    ],
    "1": [
        0.145,
        0.181,
        0.214,
        0.249,
        0.282,
        0.313,
        0.342,
        0.371,
        0.398,
        0.427
    ],
    "2": [
        0.161,
        0.235,
        0.299,
        0.371,
        0.456,
        0.523,
        0.584,
        0.671,
        0.741,
        0.804
    ],
    "3": [
        0.119,
        0.146,
        0.169,
        0.19,
        0.209,
        0.235,
        0.258,
        0.281,
        0.306,
        0.333
    ],
    "4": [
        0.168,
        0.236,
        0.29,
        0.34,
        0.396,
        0.449,
        0.497,
        0.545,
        0.596,
        0.649
    ]
}