{
    "0": [
        0.067,
        0.071,
        0.074,
        0.077,
        0.079,
        0.081,
        0.085,
        0.089,
        0.094,
        0.098
    ],
    "1": [
        0.067,
        0.07,
        0.073,
        0.076,
        0.077,
        0.081,
        0.084,
        0.086,
        0.089,
        0.092
    ],
    "2": [
        0.068,
        0.071,
        0.074,
        0.076,
        0.079,
        0.081,
        0.084,
        0.087,
        0.089,
        0.092
    ],
    "3": [
        0.068,
        0.072,
        0.076,
        0.078,
        0.081,
        0.084,
        0.087,
        0.089,
        0.092,
        0.095
    ],
    "4": [
        0.067,
        0.071,
        0.074,
        0.077,
        0.081,
        0.084,
        0.086,
        0.089,
        0.091,
        0.093
    ]
}