{
    "0": [
        0.072,
        0.075,
        0.078,
        0.081,
        0.083,
        0.087,
        0.09,
        0.093,
        0.096,
        0.099
    ],
    "1": [
        0.068,
        0.072,
        0.075,
        0.078,
        0.08,
        0.082,
        0.084,
        0.086,
        0.088,
        0.09
    ],
    "2": [
        0.084,
        0.089,
        0.093,
        0.096,
        0.098,
        0.102,
        0.105,
        0.109,
        0.111,
        0.113
    ],
    "3": [
        0.068,
        0.071,
        0.074,
        0.076,
        0.078,
        0.08,
        0.082,
        0.084,
        0.086,
        0.087
    ],
    "4": [
        0.068,
        0.071,
        0.073,
        0.076,
        0.079,
        0.082,
        0.084,
        0.087,
        0.089,
        0.092
    ]
}