{
    "0": [
        5.743,
        13.967,
        23.293,
        35.074,
        46.237,
        62.058,
        75.972,
        91.282,
        106.301,
        122.343
    ],
    "1": [
        4.65,
        19.649,
        49.369,
        82.348,
        115.394,
        121.001,
        178.391,
        205.024,
        243.117,
        279.969
    ],
    "2": [
        10.148,
        19.024,
        29.543,
        39.069,
        45.19,
        54.702,
        60.153,
        70.254,
        85.638,
        97.682
    ],
    "3": [
        3.723,
        10.433,
        18.625,
        32.7,
        45.001,
        67.275,
        79.155,
        86.174,
        104.69,
        112.544
    ],
    "4": [
        9.158,
        25.649,
        41.871,
        58.117,
        79.083,
        104.88,
        127.126,
        146.086,
        166.535,
        193.224
    ]
}