{
    "0": [
        0.097,
        0.116,
        0.132,
        0.147,
        0.159,
        0.171,
        0.182,
        0.193,
        0.211,
        0.227
    ],
    "1": [
        0.114,
        0.147,
        0.172,
        0.194,
        0.216,
        0.238,
        0.254,
        0.274,
        0.292,
        0.311
    ],
    "2": [
        0.101,
        0.125,
        0.148,
        0.164,
        0.186,
        0.207,
        0.224,
        0.243,
        0.262,
        0.281
    ],
    "3": [
        0.146,
        0.209,
        0.267,
        0.309,
        0.364,
        0.401,
        0.441,
        0.484,
        0.525,
        0.571
    ],
    "4": [
        0.089,
        0.099,
        0.11,
        0.123,
        0.132,
        0.144,
        0.154,
        0.162,
        0.17,
        0.178
    ]
}