{
    "0": [
        0.074,
        0.08,
        0.083,
        0.086,
        0.09,
        0.094,
        0.098,
        0.101,
        0.105,
        0.11
    ],
    "1": [
        0.074,
        0.079,
        0.084,
        0.088,
        0.092,
        0.095,
        0.099,
        0.102,
        0.106,
        0.11
    ],
    "2": [
        0.091,
        0.104,
        0.114,
        0.123,
        0.133,
        0.142,
        0.151,
        0.16,
        0.166,
        0.171
    ],
    "3": [
        0.078,
        0.086,
        0.091,
        0.097,
        0.101,
        0.106,
        0.112,
        0.118,
        0.123,
        0.128
    ],
    "4": [
        0.076,
        0.081,
        0.086,
        0.091,
        0.095,
        0.099,
        0.103,
        0.107,
        0.11,
        0.114
    ]
}