{
    "0": [
        0.283,
        0.451,
        0.622,
        0.802,
        0.978,
        1.136,
        1.311,
        1.473,
        1.65,
        1.838
    ],
    "1": [
        0.238,
        0.467,
        0.694,
        0.865,
        1.118,
        1.287,
        1.489,
        1.729,
        1.921,
        2.149
    ],
    "2": [
        0.254,
        0.361,
        0.499,
        0.607,
        0.72,
        0.823,
        0.925,
        1.087,
        1.264,
        1.424
    ],
    "3": [
        0.294,
        0.429,
        0.516,
        0.663,
        0.793,
        0.98,
        1.174,
        1.278,
        1.425,
        1.662
    ],
    "4": [
        0.232,
        0.348,
        0.456,
        0.595,
        0.693,
        0.794,
        0.973,
        1.084,
        1.18,
        1.3
    ]
}