{
    "0": [
        0.111,
        0.138,
        0.163,
        0.187,
        0.213,
        0.235,
        0.262,
        0.288,
        0.32,
        0.366
    ],
    "1": [
        0.138,
        0.167,
        0.194,
        0.227,
        0.264,
        0.303,
        0.346,
        0.377,
        0.407,
        0.44
    ],
    "2": [
        0.11,
        0.133,
        0.154,
        0.173,
        0.192,
        0.217,
        0.244,
        0.27,
        0.304,
        0.341
    ],
    "3": [
        0.134,
        0.175,
        0.218,
        0.256,
        0.306,
        0.353,
        0.399,
        0.442,
        0.476,
        0.527
    ],
    "4": [
        0.116,
        0.162,
        0.209,
        0.246,
        0.287,
        0.33,
        0.381,
        0.416,
        0.462,
        0.512
    ]
}