{
    "0": [
        5.657,
        13.242,
        20.201,
        27.402,
        35.065,
        42.686,
        50.459,
        58.508,
        66.985,
        75.756
    ],
    "1": [
        2.25,
        4.694,
        6.913,
        9.452,
        12.17,
        15.183,
        17.907,
        21.294,
        24.701,
        28.015
    ],
    "2": [
        5.883,
        16.001,
        26.335,
        37.922,
        48.813,
        60.102,
        71.954,
        84.509,
        101.924,
        114.295
    ],
    "3": [
        8.777,
        18.244,
        26.999,
        37.717,
        46.913,
        56.448,
        65.809,
        75.546,
        86.026,
        98.695
    ],
    "4": [
        8.572,
        19.926,
        30.136,
        41.571,
        52.857,
        66.919,
        82.493,
        95.513,
        110.151,
        125.122
    ]
}