{
    "0": [
        0.11,
        0.141,
        0.163,
        0.194,
        0.225,
        0.263,
        0.296,
        0.33,
        0.363,
        0.414
    ],
    "1": [
        0.118,
        0.136,
        0.155,
        0.176,
        0.203,
        0.229,
        0.262,
        0.295,
        0.329,
        0.373
    ],
    "2": [
        0.104,
        0.118,
        0.138,
        0.151,
        0.168,
        0.185,
        0.202,
        0.223,
        0.242,
        0.275
    ],
    "3": [
        0.112,
        0.138,
        0.157,
        0.192,
        0.22,
        0.256,
        0.288,
        0.325,
        0.367,
        0.407
    ],
    "4": [
        0.115,
        0.139,
        0.16,
        0.183,
        0.207,
        0.237,
        0.265,
        0.296,
        0.338,
        0.385
    ]
}