{
    "0": [
        0.131,
        0.172,
        0.196,
        0.221,
        0.256,
        0.295,
        0.337,
        0.384,
        0.425,
        0.465
    ],
    "1": [
        0.117,
        0.156,
        0.186,
        0.221,
        0.255,
        0.296,
        0.323,
        0.352,
        0.381,
        0.409
    ],
    "2": [
        0.119,
        0.158,
        0.188,
        0.216,
        0.252,
        0.287,
        0.317,
        0.347,
        0.384,
        0.409
    ],
    "3": [
        0.114,
        0.137,
        0.158,
        0.176,
        0.198,
        0.223,
        0.243,
        0.263,
        0.286,
        0.308
    ],
    "4": [
        0.098,
        0.115,
        0.132,
        0.147,
        0.165,
        0.185,
        0.205,
        0.229,
        0.251,
        0.273
    ]
}