{
    "0": [
        0.491,
        1.005,
        1.657,
        2.402,
        3.307,
        3.86,
        4.421,
        5.05,
        5.567,
        6.298
    ],
    "1": [
        0.57,
        1.176,
        1.672,
        2.179,
        2.943,
        3.455,
        4.082,
        4.877,
        5.595,
        6.242
    ],
    "2": [
        0.501,
        1.061,
        1.457,
        1.886,
        2.429,
        2.846,
        3.327,
        3.699,
        4.07,
        4.724
    ],
    "3": [
        0.258,
        0.47,
        0.675,
        0.927,
        1.132,
        1.351,
        1.566,
        1.802,
        2.051,
        2.325
    ],
    "4": [
        0.437,
        0.973,
        1.4,
        1.858,
        2.416,
        2.908,
        3.364,
        3.93,
        4.544,
        5.091
    ]
}