{
    "0": [
        0.408,
        0.427,
        0.446,
        0.463,
        0.484,
        0.502,
        0.519,
        0.535,
        0.551,
        0.567
    ],
    "1": [
        0.425,
        0.457,
        0.477,
        0.493,
        0.513,
        0.532,
        0.571,
        0.591,
        0.631,
        0.663
    ],
    "2": [
        0.386,
        0.409,
        0.43,
        0.464,
        0.485,
        0.517,
        0.55,
        0.571,
        0.616,
        0.649
    ],
    "3": [
        0.383,
        0.434,
        0.49,
        0.526,
        0.563,
        0.6,
        0.65,
        0.713,
        0.77,
        0.826
    ],
    "4": [
        0.456,
        0.483,
        0.505,
        0.525,
        0.546,
        0.565,
        0.59,
        0.614,
        0.636,
        0.676
    ]
}