{
    "0": [
        1.128,
        2.112,
        2.925,
        3.806,
        4.883,
        5.78,
        6.894,
        8.145,
        9.217,
        10.558
    ],
    "1": [
        1.322,
        3.219,
        5.06,
        7.142,
        9.303,
        11.219,
        13.206,
        15.488,
        17.984,
        20.063
    ],
    "2": [
        0.948,
        1.983,
        3.059,
        4.069,
        5.04,
        6.197,
        7.45,
        8.588,
        9.729,
        11.028
    ],
    "3": [
        0.538,
        1.131,
        1.837,
        2.482,
        3.233,
        3.807,
        4.446,
        5.164,
        5.944,
        6.738
    ],
    "4": [
        0.966,
        1.771,
        2.501,
        3.274,
        3.998,
        4.721,
        5.541,
        6.385,
        7.294,
        8.22
    ]
}