{
    "0": [
        0.215,
        0.332,
        0.43,
        0.484,
        0.537,
        0.599,
        0.662,
        0.737,
        0.799,
        0.863
    ],
    "1": [
        0.242,
        0.294,
        0.336,
        0.403,
        0.468,
        0.53,
        0.601,
        0.669,
        0.728,
        0.787
    ],
    "2": [
        0.189,
        0.257,
        0.321,
        0.381,
        0.441,
        0.503,
        0.57,
        0.63,
        0.692,
        0.766
    ],
    "3": [
        0.186,
        0.245,
        0.287,
        0.329,
        0.375,
        0.423,
        0.471,
        0.527,
        0.601,
        0.662
    ],
    "4": [
        0.201,
        0.274,
        0.343,
        0.425,
        0.508,
        0.58,
        0.651,
        0.74,
        0.809,
        0.878
    ]
}