{
    "0": [
        0.107,
        0.124,
        0.138,
        0.156,
        0.173,
        0.188,
        0.204,
        0.221,
        0.238,
        0.256
    ],
    "1": [
        0.093,
        0.11,
        0.122,
        0.134,
        0.145,
        0.157,
        0.167,
        0.178,
        0.188,
        0.198
    ],
    "2": [
        0.093,
        0.108,
        0.12,
        0.132,
        0.141,
        0.154,
        0.165,
        0.177,
        0.189,
        0.203
    ],
    "3": [
        0.091,
        0.107,
        0.12,
        0.131,
        0.141,
        0.149,
        0.158,
        0.168,
        0.178,
        0.188
    ],
    "4": [
        0.095,
        0.108,
        0.119,
        0.132,
        0.147,
        0.158,
        0.167,
        0.178,
        0.189,
        0.201
    ]
}