{
    "0": [
        0.127,
        0.171,
        0.201,
        0.24,
        0.27,
        0.308,
        0.344,
        0.383,
        0.419,
        0.461
    ],
    "1": [
        0.129,
        0.163,
        0.19,
        0.217,
        0.254,
        0.286,
        0.317,
        0.338,
        0.37,
        0.397
    ],
    "2": [
        0.15,
        0.19,
        0.226,
        0.267,
        0.309,
        0.349,
        0.393,
        0.431,
        0.464,
        0.499
    ],
    "3": [
        0.154,
        0.196,
        0.247,
        0.297,
        0.355,
        0.404,
        0.45,
        0.498,
        0.547,
        0.602
    ],
    "4": [
        0.129,
        0.152,
        0.176,
        0.195,
        0.218,
        0.248,
        0.277,
        0.309,
        0.344,
        0.375
    ]
}