{
    "0": [
        0.27,
        0.454,
        0.605,
        0.794,
        0.977,
        1.11,
        1.269,
        1.466,
        1.644,
        1.806
    ],
    "1": [
        0.272,
        0.394,
        0.503,
        0.601,
        0.743,
        0.877,
        0.998,
        1.136,
        1.282,
        1.407
    ],
    "2": [
        0.262,
        0.395,
        0.522,
        0.624,
        0.749,
        0.853,
        0.986,
        1.14,
        1.376,
        1.52
    ],
    "3": [
        0.315,
        0.473,
        0.606,
        0.753,
        0.886,
        1.054,
        1.224,
        1.391,
        1.557,
        1.728
    ],
    "4": [
        0.258,
        0.477,
        0.596,
        0.707,
        0.81,
        0.91,
        1.034,
        1.165,
        1.286,
        1.42
    ]
}