{
    "0": [
        0.101,
        0.119,
        0.137,
        0.151,
        0.168,
        0.181,
        0.198,
        0.214,
        0.233,
        0.249
    ],
    "1": [
        0.092,
        0.105,
        0.122,
        0.139,
        0.156,
        0.178,
        0.194,
        0.21,
        0.225,
        0.24
    ],
    "2": [
        0.092,
        0.104,
        0.113,
        0.123,
        0.132,
        0.142,
        0.155,
        0.166,
        0.179,
        0.191
    ],
    "3": [
        0.1,
        0.116,
        0.131,
        0.144,
        0.159,
        0.172,
        0.184,
        0.197,
        0.21,
        0.219
    ],
    "4": [
        0.095,
        0.108,
        0.117,
        0.129,
        0.14,
        0.15,
        0.162,
        0.17,
        0.181,
        0.192
    ]
}