{
    "0": [
        1.67,
        3.887,
        5.956,
        7.962,
        10.16,
        12.655,
        14.639,
        16.949,
        19.365,
        21.885
    ],
    "1": [
        1.151,
        3.454,
        5.923,
        8.157,
        10.511,
        13.172,
        15.56,
        18.601,
        21.591,
        24.303
    ],
    "2": [
        0.839,
        1.84,
        2.658,
        3.561,
        4.664,
        5.842,
        6.879,
        7.87,
        9.003,
        10.299
    ],
    "3": [
        0.918,
        1.867,
        2.738,
        3.803,
        4.813,
        5.775,
        7.057,
        8.048,
        9.067,
        10.31
    ],
    "4": [
        0.615,
        1.673,
        2.637,
        3.495,
        4.364,
        5.244,
        6.419,
        7.351,
        8.773,
        9.717
    ]
}