{
    "0": [
        0.259,
        0.4,
        0.545,
        0.681,
        0.821,
        0.977,
        1.121,
        1.27,
        1.434,
        1.588
    ],
    "1": [
        0.284,
        0.46,
        0.612,
        0.744,
        0.877,
        1.031,
        1.194,
        1.345,
        1.501,
        1.646
    ],
    "2": [
        0.215,
        0.323,
        0.42,
        0.519,
        0.613,
        0.72,
        0.828,
        0.933,
        1.041,
        1.146
    ],
    "3": [
        0.217,
        0.309,
        0.463,
        0.565,
        0.644,
        0.717,
        0.798,
        0.88,
        0.964,
        1.059
    ],
    "4": [
        0.133,
        0.198,
        0.262,
        0.308,
        0.399,
        0.462,
        0.538,
        0.595,
        0.658,
        0.711
    ]
}