{
    "0": [
        0.079,
        0.086,
        0.091,
        0.096,
        0.1,
        0.105,
        0.11,
        0.114,
        0.12,
        0.126
    ],
    "1": [
        0.079,
        0.088,
        0.095,
        0.101,
        0.107,
        0.113,
        0.118,
        0.124,
        0.131,
        0.136
    ],
    "2": [
        0.084,
        0.091,
        0.098,
        0.105,
        0.112,
        0.118,
        0.125,
        0.131,
        0.136,
        0.14
    ],
    "3": [
        0.08,
        0.086,
        0.092,
        0.097,
        0.101,
        0.106,
        0.112,
        0.117,
        0.122,
        0.128
    ],
    "4": [
        0.08,
        0.085,
        0.09,
        0.095,
        0.1,
        0.105,
        0.11,
        0.116,
        0.122,
        0.127
    ]
}