{
    "0": [
        0.541,
        1.036,
        1.476,
        2.002,
        2.548,
        3.081,
        3.64,
        4.07,
        4.771,
        5.515
    ],
    "1": [
        0.26,
        0.464,
        0.618,
        0.796,
        0.987,
        1.218,
        1.385,
        1.561,
        1.746,
        1.922
    ],
    "2": [
        0.387,
        0.493,
        0.603,
        0.732,
        0.882,
        1.081,
        1.24,
        1.368,
        1.511,
        1.652
    ],
    "3": [
        0.222,
        0.291,
        0.356,
        0.448,
        0.512,
        0.664,
        0.778,
        0.895,
        1.002,
        1.127
    ],
    "4": [
        0.395,
        0.818,
        1.189,
        1.612,
        2.075,
        2.563,
        3.142,
        3.643,
        4.053,
        4.725
    ]
}