{
    "0": [],
    "1": [
        19.018,
        35.298,
        49.226,
        70.499,
        88.524,
        104.938,
        122.143,
        142.535,
        162.098,
        179.503
    ],
    "2": [
        0.935,
        1.904,
        2.946,
        3.798,
        4.975,
        6.421,
        7.356,
        8.379,
        9.428,
        10.631
    ],
    "3": [],
    "4": [
        33.887,
        69.727,
        92.857,
        128.794,
        163.859,
        196.866,
        238.652,
        274.005,
        314.062,
        348.067
    ]
}