{
    "0": [
        0.147,
        0.175,
        0.2,
        0.225,
        0.253,
        0.282,
        0.308,
        0.324,
        0.343,
        0.362
    ],
    "1": [
        0.091,
        0.104,
        0.119,
        0.136,
        0.151,
        0.161,
        0.174,
        0.189,
        0.201,
        0.214
    ],
    "2": [
        0.115,
        0.142,
        0.165,
        0.181,
        0.195,
        0.208,
        0.222,
        0.232,
        0.244,
        0.254
    ],
    "3": [
        0.107,
        0.133,
        0.154,
        0.173,
        0.191,
        0.21,
        0.23,
        0.256,
        0.279,
        0.3
    ],
    "4": [
        0.118,
        0.161,
        0.187,
        0.21,
        0.231,
        0.257,
        0.275,
        0.29,
        0.307,
        0.324
    ]
}