{
    "0": [
        0.065,
        0.067,
        0.069,
        0.071,
        0.072,
        0.073,
        0.075,
        0.076,
        0.077,
        0.078
    ],
    "1": [
        0.065,
        0.066,
        0.069,
        0.071,
        0.072,
        0.073,
        0.075,
        0.076,
        0.077,
        0.078
    ],
    "2": [
        0.065,
        0.067,
        0.068,
        0.07,
        0.072,
        0.073,
        0.074,
        0.075,
        0.076,
        0.077
    ],
    "3": [
        0.078,
        0.081,
        0.082,
        0.084,
        0.087,
        0.088,
        0.089,
        0.09,
        0.092,
        0.093
    ],
    "4": [
        0.065,
        0.066,
        0.067,
        0.069,
        0.07,
        0.072,
        0.073,
        0.075,
        0.075,
        0.076
    ]
}