{
    "0": [
        0.14,
        0.177,
        0.227,
        0.275,
        0.332,
        0.381,
        0.438,
        0.48,
        0.529,
        0.588
    ],
    "1": [
        0.118,
        0.15,
        0.175,
        0.2,
        0.222,
        0.253,
        0.275,
        0.308,
        0.341,
        0.38
    ],
    "2": [
        0.153,
        0.211,
        0.261,
        0.306,
        0.356,
        0.401,
        0.461,
        0.52,
        0.574,
        0.642
    ],
    "3": [
        0.114,
        0.137,
        0.159,
        0.183,
        0.205,
        0.233,
        0.263,
        0.293,
        0.329,
        0.363
    ],
    "4": [
        0.14,
        0.17,
        0.197,
        0.225,
        0.249,
        0.282,
        0.31,
        0.338,
        0.375,
        0.415
    ]
}