{
    "0": [
        0.511,
        1.344,
        2.083,
        2.748,
        3.598,
        4.506,
        5.595,
        6.679,
        7.621,
        8.796
    ],
    "1": [
        1.59,
        3.31,
        4.899,
        6.288,
        7.742,
        9.61,
        11.139,
        12.757,
        14.354,
        15.546
    ],
    "2": [
        1.171,
        2.926,
        4.959,
        6.493,
        7.902,
        10.145,
        11.736,
        13.724,
        15.996,
        18.37
    ],
    "3": [
        6.597,
        13.109,
        21.618,
        29.837,
        37.055,
        45.151,
        55.135,
        63.203,
        71.563,
        81.079
    ],
    "4": [
        0.332,
        0.603,
        0.851,
        1.095,
        1.338,
        1.625,
        1.924,
        2.227,
        2.536,
        2.865
    ]
}