{
    "0": [
        32.939,
        67.837,
        122.564,
        160.525,
        205.17,
        259.182,
        306.546,
        352.006,
        405.264,
        448.116
    ],
    "1": [
        1.08,
        3.274,
        4.981,
        7.263,
        9.288,
        11.16,
        13.805,
        16.23,
        18.738,
        21.538
    ],
    "2": [
        3.535,
        6.729,
        10.354,
        14.295,
        18.924,
        23.225,
        27.877,
        32.147,
        37.295,
        42.885
    ],
    "3": [
        1.373,
        3.172,
        4.613,
        7.225,
        9.057,
        10.839,
        13.357,
        15.402,
        17.968,
        20.085
    ],
    "4": [
        1.875,
        3.968,
        6.413,
        8.27,
        10.6,
        12.737,
        14.991,
        17.036,
        19.771,
        22.081
    ]
}