{
    "0": [
        0.092,
        0.104,
        0.119,
        0.136,
        0.146,
        0.157,
        0.167,
        0.181,
        0.194,
        0.206
    ],
    "1": [
        0.103,
        0.122,
        0.138,
        0.152,
        0.166,
        0.185,
        0.203,
        0.223,
        0.242,
        0.261
    ],
    "2": [
        0.102,
        0.124,
        0.15,
        0.17,
        0.186,
        0.207,
        0.229,
        0.255,
        0.278,
        0.297
    ],
    "3": [
        0.103,
        0.125,
        0.144,
        0.16,
        0.176,
        0.193,
        0.213,
        0.233,
        0.252,
        0.273
    ],
    "4": [
        0.1,
        0.118,
        0.134,
        0.146,
        0.159,
        0.171,
        0.184,
        0.199,
        0.217,
        0.235
    ]
}