{
    "0": [
        0.998,
        2.011,
        3.065,
        4.281,
        5.34,
        6.414,
        7.566,
        8.946,
        10.152,
        11.508
    ],
    "1": [
        1.954,
        3.56,
        5.078,
        6.702,
        8.438,
        10.016,
        11.875,
        14.264,
        16.181,
        18.144
    ],
    "2": [
        1.482,
        3.102,
        4.564,
        6.057,
        7.514,
        9.239,
        11.025,
        12.791,
        14.624,
        16.639
    ],
    "3": [
        1.28,
        2.368,
        3.335,
        4.395,
        5.436,
        6.689,
        7.663,
        8.907,
        10.148,
        11.414
    ],
    "4": [
        1.019,
        2.021,
        2.96,
        3.847,
        4.769,
        5.661,
        6.6,
        7.385,
        8.53,
        9.588
    ]
}