{
    "0": [
        0.206,
        0.292,
        0.365,
        0.445,
        0.515,
        0.572,
        0.636,
        0.711,
        0.79,
        0.856
    ],
    "1": [
        0.211,
        0.259,
        0.307,
        0.354,
        0.401,
        0.447,
        0.498,
        0.554,
        0.609,
        0.696
    ],
    "2": [
        0.276,
        0.38,
        0.476,
        0.565,
        0.646,
        0.753,
        0.875,
        0.954,
        1.05,
        1.147
    ],
    "3": [
        0.181,
        0.255,
        0.329,
        0.375,
        0.42,
        0.492,
        0.545,
        0.592,
        0.641,
        0.697
    ],
    "4": [
        0.201,
        0.291,
        0.38,
        0.465,
        0.562,
        0.674,
        0.772,
        0.882,
        0.974,
        1.098
    ]
}