{
    "0": [
        0.093,
        0.096,
        0.099,
        0.101,
        0.103,
        0.104,
        0.105,
        0.107,
        0.109,
        0.11
    ],
    "1": [
        0.07,
        0.071,
        0.073,
        0.075,
        0.077,
        0.078,
        0.079,
        0.081,
        0.082,
        0.083
    ],
    "2": [
        0.067,
        0.07,
        0.072,
        0.074,
        0.077,
        0.079,
        0.08,
        0.082,
        0.083,
        0.085
    ],
    "3": [
        0.067,
        0.07,
        0.072,
        0.074,
        0.075,
        0.077,
        0.078,
        0.079,
        0.08,
        0.082
    ],
    "4": [
        0.068,
        0.07,
        0.072,
        0.074,
        0.076,
        0.077,
        0.079,
        0.081,
        0.082,
        0.084
    ]
}