{
    "0": [
        0.192,
        0.268,
        0.342,
        0.399,
        0.46,
        0.515,
        0.57,
        0.63,
        0.71,
        0.768
    ],
    "1": [
        0.173,
        0.238,
        0.304,
        0.367,
        0.422,
        0.481,
        0.552,
        0.607,
        0.665,
        0.723
    ],
    "2": [
        0.157,
        0.197,
        0.237,
        0.283,
        0.329,
        0.382,
        0.427,
        0.462,
        0.499,
        0.543
    ],
    "3": [
        0.136,
        0.175,
        0.221,
        0.27,
        0.324,
        0.368,
        0.41,
        0.456,
        0.5,
        0.547
    ],
    "4": [
        0.153,
        0.187,
        0.222,
        0.253,
        0.292,
        0.323,
        0.354,
        0.389,
        0.428,
        0.467
    ]
}