{
    "0": [
        0.201,
        0.309,
        0.43,
        0.515,
        0.591,
        0.672,
        0.762,
        0.865,
        0.951,
        1.045
    ],
    "1": [
        0.214,
        0.363,
        0.503,
        0.657,
        0.819,
        0.941,
        1.066,
        1.172,
        1.272,
        1.381
    ],
    "2": [
        0.298,
        0.413,
        0.518,
        0.662,
        0.759,
        0.856,
        0.959,
        1.079,
        1.189,
        1.293
    ],
    "3": [
        0.244,
        0.361,
        0.474,
        0.571,
        0.706,
        0.788,
        0.87,
        0.983,
        1.069,
        1.155
    ],
    "4": [
        0.381,
        0.638,
        0.943,
        1.284,
        1.572,
        1.792,
        2.085,
        2.353,
        2.636,
        2.896
    ]
}