{
    "0": [
        0.601,
        1.125,
        1.547,
        2.105,
        2.802,
        3.394,
        3.888,
        4.391,
        4.916,
        5.379
    ],
    "1": [
        0.877,
        1.844,
        2.873,
        3.902,
        4.852,
        5.904,
        6.937,
        7.999,
        8.86,
        9.864
    ],
    "2": [
        1.009,
        2.072,
        3.218,
        4.365,
        5.471,
        6.652,
        7.927,
        9.071,
        10.225,
        11.303
    ],
    "3": [
        1.292,
        3.679,
        5.44,
        7.765,
        9.497,
        11.412,
        15.277,
        17.168,
        19.155,
        20.82
    ],
    "4": [
        0.856,
        2.049,
        3.246,
        4.201,
        5.147,
        6.077,
        7.314,
        8.405,
        9.46,
        10.515
    ]
}