{
    "0": [
        0.284,
        0.52,
        0.73,
        0.925,
        1.096,
        1.276,
        1.466,
        1.666,
        1.868,
        2.069
    ],
    "1": [
        0.322,
        0.538,
        0.787,
        1.002,
        1.229,
        1.509,
        1.706,
        1.892,
        2.137,
        2.341
    ],
    "2": [
        0.298,
        0.493,
        0.706,
        0.868,
        1.045,
        1.301,
        1.47,
        1.63,
        1.794,
        1.98
    ],
    "3": [
        0.268,
        0.477,
        0.685,
        0.96,
        1.151,
        1.309,
        1.494,
        1.697,
        1.92,
        2.115
    ],
    "4": [
        0.375,
        0.655,
        0.958,
        1.241,
        1.502,
        1.805,
        2.103,
        2.425,
        2.725,
        3.047
    ]
}