{
    "0": [
        0.12,
        0.151,
        0.175,
        0.201,
        0.223,
        0.246,
        0.272,
        0.296,
        0.319,
        0.342
    ],
    "1": [
        0.127,
        0.159,
        0.186,
        0.216,
        0.246,
        0.277,
        0.307,
        0.333,
        0.355,
        0.379
    ],
    "2": [
        0.112,
        0.132,
        0.151,
        0.167,
        0.182,
        0.198,
        0.212,
        0.23,
        0.25,
        0.269
    ],
    "3": [
        0.114,
        0.132,
        0.146,
        0.158,
        0.173,
        0.187,
        0.201,
        0.213,
        0.227,
        0.24
    ],
    "4": [
        0.109,
        0.129,
        0.146,
        0.162,
        0.178,
        0.195,
        0.213,
        0.234,
        0.253,
        0.273
    ]
}