{
    "0": [
        1.963,
        3.576,
        5.292,
        6.936,
        8.742,
        10.621,
        12.747,
        14.449,
        16.755,
        18.876
    ],
    "1": [
        2.194,
        4.987,
        8.103,
        11.308,
        14.221,
        17.485,
        20.738,
        24.596,
        27.514,
        31.018
    ],
    "2": [
        1.154,
        2.459,
        3.753,
        5.168,
        6.569,
        7.953,
        9.537,
        11.45,
        13.165,
        14.946
    ],
    "3": [
        2.454,
        5.352,
        7.943,
        10.951,
        14.072,
        17.378,
        20.323,
        23.552,
        27.146,
        30.572
    ],
    "4": [
        2.432,
        5.405,
        9.221,
        12.905,
        16.437,
        20.336,
        24.697,
        28.627,
        32.5,
        37.939
    ]
}