{
    "0": [
        0.121,
        0.142,
        0.157,
        0.172,
        0.186,
        0.202,
        0.221,
        0.235,
        0.25,
        0.266
    ],
    "1": [
        0.116,
        0.144,
        0.167,
        0.189,
        0.211,
        0.24,
        0.262,
        0.293,
        0.312,
        0.331
    ],
    "2": [
        0.104,
        0.117,
        0.135,
        0.148,
        0.161,
        0.174,
        0.186,
        0.198,
        0.21,
        0.221
    ],
    "3": [
        0.101,
        0.117,
        0.132,
        0.142,
        0.153,
        0.164,
        0.174,
        0.185,
        0.202,
        0.215
    ],
    "4": [
        0.103,
        0.118,
        0.134,
        0.149,
        0.161,
        0.176,
        0.192,
        0.207,
        0.223,
        0.237
    ]
}