{
    "0": {
        "parsing": 0.031,
        "smoothing": 0.034,
        "top": 0.019,
        "total": 0.2150578498840332
    },
    "1": {
        "parsing": 0.03,
        "smoothing": 0.034,
        "top": 0.019,
        "total": 0.1650068759918213
    },
    "2": {
        "parsing": 0.03,
        "smoothing": 0.034,
        "top": 0.02,
        "total": 0.16504287719726562
    },
    "3": {
        "parsing": 0.03,
        "smoothing": 0.034,
        "top": 0.02,
        "total": 0.16502833366394043
    },
    "4": {
        "parsing": 0.03,
        "smoothing": 0.033,
        "top": 0.02,
        "total": 0.16508913040161133
    }
}