{
    "0": {
        "parsing": 0.019,
        "smoothing": 0.025,
        "top": 0.019,
        "total": 0.16487932205200195
    },
    "1": {
        "parsing": 0.019,
        "smoothing": 0.025,
        "top": 0.019,
        "total": 0.1648695468902588
    },
    "2": {
        "parsing": 0.019,
        "smoothing": 0.025,
        "top": 0.019,
        "total": 0.16492676734924316
    },
    "3": {
        "parsing": 0.019,
        "smoothing": 0.025,
        "top": 0.019,
        "total": 0.16489481925964355
    },
    "4": {
        "parsing": 0.019,
        "smoothing": 0.025,
        "top": 0.019,
        "total": 0.16508221626281738
    }
}