{
    "0": {
        "parsing": 0.016,
        "smoothing": 0.021,
        "top": 0.015,
        "total": 0.11473655700683594
    },
    "1": {
        "parsing": 0.017,
        "smoothing": 0.02,
        "top": 0.015,
        "total": 0.16504383087158203
    },
    "2": {
        "parsing": 0.016,
        "smoothing": 0.02,
        "top": 0.015,
        "total": 0.16495633125305176
    },
    "3": {
        "parsing": 0.017,
        "smoothing": 0.02,
        "top": 0.014,
        "total": 0.1650221347808838
    },
    "4": {
        "parsing": 0.017,
        "smoothing": 0.02,
        "top": 0.015,
        "total": 0.16489672660827637
    }
}