{
    "0": {
        "parsing": 0.037,
        "smoothing": 0.082,
        "top": 0.113,
        "total": 0.36658143997192383
    },
    "1": {
        "parsing": 0.036,
        "smoothing": 0.083,
        "top": 0.109,
        "total": 0.3655574321746826
    },
    "2": {
        "parsing": 0.036,
        "smoothing": 0.084,
        "top": 0.119,
        "total": 0.36600804328918457
    },
    "3": {
        "parsing": 0.037,
        "smoothing": 0.084,
        "top": 0.111,
        "total": 0.36640357971191406
    },
    "4": {
        "parsing": 0.037,
        "smoothing": 0.082,
        "top": 0.107,
        "total": 0.36571741104125977
    }
}