{
    "0": {
        "parsing": 0.028,
        "smoothing": 0.047,
        "top": 0.038,
        "total": 0.21524953842163086
    },
    "1": {
        "parsing": 0.028,
        "smoothing": 0.048,
        "top": 0.038,
        "total": 0.21526002883911133
    },
    "2": {
        "parsing": 0.028,
        "smoothing": 0.048,
        "top": 0.037,
        "total": 0.21512103080749512
    },
    "3": {
        "parsing": 0.027,
        "smoothing": 0.049,
        "top": 0.038,
        "total": 0.21523761749267578
    },
    "4": {
        "parsing": 0.028,
        "smoothing": 0.049,
        "top": 0.038,
        "total": 0.21511149406433105
    }
}