{
    "0": {
        "parsing": 0.013,
        "smoothing": 0.009,
        "top": 0.008,
        "total": 0.11478328704833984
    },
    "1": {
        "parsing": 0.013,
        "smoothing": 0.009,
        "top": 0.008,
        "total": 0.11480975151062012
    },
    "2": {
        "parsing": 0.013,
        "smoothing": 0.009,
        "top": 0.008,
        "total": 0.1149294376373291
    },
    "3": {
        "parsing": 0.013,
        "smoothing": 0.009,
        "top": 0.008,
        "total": 0.11505556106567383
    },
    "4": {
        "parsing": 0.013,
        "smoothing": 0.009,
        "top": 0.008,
        "total": 0.11488127708435059
    }
}