{
    "0": {
        "parsing": 0.017,
        "smoothing": 0.018,
        "top": 0.014,
        "total": 0.11473536491394043
    },
    "1": {
        "parsing": 0.017,
        "smoothing": 0.019,
        "top": 0.014,
        "total": 0.11495351791381836
    },
    "2": {
        "parsing": 0.017,
        "smoothing": 0.018,
        "top": 0.015,
        "total": 0.16512537002563477
    },
    "3": {
        "parsing": 0.017,
        "smoothing": 0.018,
        "top": 0.015,
        "total": 0.16493916511535645
    },
    "4": {
        "parsing": 0.017,
        "smoothing": 0.018,
        "top": 0.015,
        "total": 0.16503238677978516
    }
}