{
    "0": {
        "parsing": 0.045,
        "smoothing": 0.122,
        "top": 0.144,
        "total": 0.4154984951019287
    },
    "1": {
        "parsing": 0.045,
        "smoothing": 0.124,
        "top": 0.147,
        "total": 0.41574668884277344
    },
    "2": {
        "parsing": 0.045,
        "smoothing": 0.126,
        "top": 0.134,
        "total": 0.4156301021575928
    },
    "3": {
        "parsing": 0.046,
        "smoothing": 0.127,
        "top": 0.132,
        "total": 0.4159367084503174
    },
    "4": {
        "parsing": 0.045,
        "smoothing": 0.127,
        "top": 0.116,
        "total": 0.36563611030578613
    }
}