{
    "0": {
        "parsing": 0.013,
        "smoothing": 0.012,
        "top": 0.008,
        "total": 0.11481165885925293
    },
    "1": {
        "parsing": 0.013,
        "smoothing": 0.012,
        "top": 0.008,
        "total": 0.11489343643188477
    },
    "2": {
        "parsing": 0.013,
        "smoothing": 0.012,
        "top": 0.008,
        "total": 0.11474347114562988
    },
    "3": {
        "parsing": 0.014,
        "smoothing": 0.012,
        "top": 0.008,
        "total": 0.11508584022521973
    },
    "4": {
        "parsing": 0.013,
        "smoothing": 0.012,
        "top": 0.008,
        "total": 0.11487770080566406
    }
}