{
    "0": {
        "parsing": 0.01,
        "smoothing": 0.002,
        "top": 0.002,
        "total": 0.11463212966918945
    },
    "1": {
        "parsing": 0.01,
        "smoothing": 0.002,
        "top": 0.002,
        "total": 0.11481523513793945
    },
    "2": {
        "parsing": 0.01,
        "smoothing": 0.002,
        "top": 0.002,
        "total": 0.11475014686584473
    },
    "3": {
        "parsing": 0.01,
        "smoothing": 0.002,
        "top": 0.002,
        "total": 0.11508655548095703
    },
    "4": {
        "parsing": 0.01,
        "smoothing": 0.002,
        "top": 0.002,
        "total": 0.11480355262756348
    }
}