{
    "0": {
        "parsing": 0.046,
        "smoothing": 0.123,
        "top": 0.118,
        "total": 0.4157218933105469
    },
    "1": {
        "parsing": 0.046,
        "smoothing": 0.112,
        "top": 0.127,
        "total": 0.36557626724243164
    },
    "2": {
        "parsing": 0.045,
        "smoothing": 0.115,
        "top": 0.127,
        "total": 0.41553211212158203
    },
    "3": {
        "parsing": 0.046,
        "smoothing": 0.111,
        "top": 0.128,
        "total": 0.36600518226623535
    },
    "4": {
        "parsing": 0.046,
        "smoothing": 0.115,
        "top": 0.114,
        "total": 0.3656957149505615
    }
}