{
    "0": {
        "parsing": 0.012,
        "smoothing": 0.009,
        "top": 0.008,
        "total": 0.11474227905273438
    },
    "1": {
        "parsing": 0.013,
        "smoothing": 0.009,
        "top": 0.008,
        "total": 0.11504817008972168
    },
    "2": {
        "parsing": 0.012,
        "smoothing": 0.009,
        "top": 0.008,
        "total": 0.11482882499694824
    },
    "3": {
        "parsing": 0.013,
        "smoothing": 0.009,
        "top": 0.008,
        "total": 0.11498785018920898
    },
    "4": {
        "parsing": 0.012,
        "smoothing": 0.009,
        "top": 0.008,
        "total": 0.11477923393249512
    }
}