{
    "0": {
        "parsing": 0.026,
        "smoothing": 0.049,
        "top": 0.035,
        "total": 0.21521997451782227
    },
    "1": {
        "parsing": 0.026,
        "smoothing": 0.043,
        "top": 0.034,
        "total": 0.21513748168945312
    },
    "2": {
        "parsing": 0.027,
        "smoothing": 0.045,
        "top": 0.034,
        "total": 0.21528410911560059
    },
    "3": {
        "parsing": 0.026,
        "smoothing": 0.043,
        "top": 0.035,
        "total": 0.2151782512664795
    },
    "4": {
        "parsing": 0.027,
        "smoothing": 0.046,
        "top": 0.034,
        "total": 0.21512293815612793
    }
}