{
    "0": {
        "parsing": 0.031,
        "smoothing": 0.054,
        "top": 0.057,
        "total": 0.21503281593322754
    },
    "1": {
        "parsing": 0.032,
        "smoothing": 0.053,
        "top": 0.051,
        "total": 0.26545095443725586
    },
    "2": {
        "parsing": 0.031,
        "smoothing": 0.055,
        "top": 0.051,
        "total": 0.26526689529418945
    },
    "3": {
        "parsing": 0.031,
        "smoothing": 0.054,
        "top": 0.051,
        "total": 0.26540088653564453
    },
    "4": {
        "parsing": 0.031,
        "smoothing": 0.055,
        "top": 0.053,
        "total": 0.2653672695159912
    }
}