{
    "0": {
        "parsing": 0.027,
        "smoothing": 0.04,
        "top": 0.038,
        "total": 0.21498680114746094
    },
    "1": {
        "parsing": 0.026,
        "smoothing": 0.04,
        "top": 0.037,
        "total": 0.21526002883911133
    },
    "2": {
        "parsing": 0.027,
        "smoothing": 0.041,
        "top": 0.037,
        "total": 0.215162992477417
    },
    "3": {
        "parsing": 0.026,
        "smoothing": 0.041,
        "top": 0.037,
        "total": 0.21521711349487305
    },
    "4": {
        "parsing": 0.026,
        "smoothing": 0.04,
        "top": 0.038,
        "total": 0.21527457237243652
    }
}