{
    "0": {
        "parsing": 0.023,
        "smoothing": 0.03,
        "top": 0.024,
        "total": 0.16506695747375488
    },
    "1": {
        "parsing": 0.023,
        "smoothing": 0.03,
        "top": 0.023,
        "total": 0.16489148139953613
    },
    "2": {
        "parsing": 0.023,
        "smoothing": 0.029,
        "top": 0.024,
        "total": 0.1649618148803711
    },
    "3": {
        "parsing": 0.023,
        "smoothing": 0.03,
        "top": 0.024,
        "total": 0.16521382331848145
    },
    "4": {
        "parsing": 0.023,
        "smoothing": 0.03,
        "top": 0.023,
        "total": 0.1650097370147705
    }
}