{
    "0": {
        "parsing": 0.035,
        "smoothing": 0.072,
        "top": 0.069,
        "total": 0.2652747631072998
    },
    "1": {
        "parsing": 0.035,
        "smoothing": 0.074,
        "top": 0.071,
        "total": 0.2653045654296875
    },
    "2": {
        "parsing": 0.035,
        "smoothing": 0.07,
        "top": 0.069,
        "total": 0.265408992767334
    },
    "3": {
        "parsing": 0.036,
        "smoothing": 0.071,
        "top": 0.07,
        "total": 0.26532936096191406
    },
    "4": {
        "parsing": 0.035,
        "smoothing": 0.071,
        "top": 0.076,
        "total": 0.265427827835083
    }
}