{
    "0": {
        "parsing": 0.028,
        "smoothing": 0.044,
        "top": 0.039,
        "total": 0.2154693603515625
    },
    "1": {
        "parsing": 0.028,
        "smoothing": 0.042,
        "top": 0.04,
        "total": 0.2155001163482666
    },
    "2": {
        "parsing": 0.028,
        "smoothing": 0.042,
        "top": 0.04,
        "total": 0.2152233123779297
    },
    "3": {
        "parsing": 0.029,
        "smoothing": 0.043,
        "top": 0.04,
        "total": 0.21550917625427246
    },
    "4": {
        "parsing": 0.029,
        "smoothing": 0.043,
        "top": 0.04,
        "total": 0.21557974815368652
    }
}