{
    "0": {
        "parsing": 0.02,
        "smoothing": 0.024,
        "top": 0.02,
        "total": 0.1647040843963623
    },
    "1": {
        "parsing": 0.019,
        "smoothing": 0.024,
        "top": 0.021,
        "total": 0.16495680809020996
    },
    "2": {
        "parsing": 0.02,
        "smoothing": 0.024,
        "top": 0.021,
        "total": 0.16494059562683105
    },
    "3": {
        "parsing": 0.02,
        "smoothing": 0.023,
        "top": 0.021,
        "total": 0.16504192352294922
    },
    "4": {
        "parsing": 0.02,
        "smoothing": 0.024,
        "top": 0.021,
        "total": 0.16495728492736816
    }
}