{
    "0": {
        "parsing": 0.024,
        "smoothing": 0.028,
        "top": 0.021,
        "total": 0.16487550735473633
    },
    "1": {
        "parsing": 0.024,
        "smoothing": 0.028,
        "top": 0.022,
        "total": 0.16506433486938477
    },
    "2": {
        "parsing": 0.023,
        "smoothing": 0.028,
        "top": 0.022,
        "total": 0.16495585441589355
    },
    "3": {
        "parsing": 0.023,
        "smoothing": 0.028,
        "top": 0.022,
        "total": 0.16494464874267578
    },
    "4": {
        "parsing": 0.024,
        "smoothing": 0.028,
        "top": 0.022,
        "total": 0.16515088081359863
    }
}