{
    "0": {
        "parsing": 0.11,
        "smoothing": 0.639,
        "top": 0.483,
        "total": 1.3176991939544678
    },
    "1": {
        "parsing": 0.108,
        "smoothing": 0.654,
        "top": 0.47,
        "total": 1.3679471015930176
    },
    "2": {
        "parsing": 0.108,
        "smoothing": 0.66,
        "top": 0.49,
        "total": 1.3682596683502197
    },
    "3": {
        "parsing": 0.107,
        "smoothing": 0.675,
        "top": 0.498,
        "total": 1.4210238456726074
    },
    "4": {
        "parsing": 0.11,
        "smoothing": 0.653,
        "top": 0.478,
        "total": 1.369537115097046
    }
}