{
    "0": {
        "parsing": 0.039,
        "smoothing": 0.085,
        "top": 0.078,
        "total": 0.31513404846191406
    },
    "1": {
        "parsing": 0.038,
        "smoothing": 0.088,
        "top": 0.079,
        "total": 0.31542325019836426
    },
    "2": {
        "parsing": 0.038,
        "smoothing": 0.085,
        "top": 0.078,
        "total": 0.3153698444366455
    },
    "3": {
        "parsing": 0.039,
        "smoothing": 0.085,
        "top": 0.077,
        "total": 0.31535816192626953
    },
    "4": {
        "parsing": 0.038,
        "smoothing": 0.086,
        "top": 0.078,
        "total": 0.31545281410217285
    }
}