{
    "0": {
        "parsing": 0.009,
        "smoothing": 0.002,
        "top": 0.002,
        "total": 0.11468696594238281
    },
    "1": {
        "parsing": 0.009,
        "smoothing": 0.002,
        "top": 0.002,
        "total": 0.11487650871276855
    },
    "2": {
        "parsing": 0.009,
        "smoothing": 0.002,
        "top": 0.003,
        "total": 0.11470365524291992
    },
    "3": {
        "parsing": 0.009,
        "smoothing": 0.002,
        "top": 0.002,
        "total": 0.1147012710571289
    },
    "4": {
        "parsing": 0.009,
        "smoothing": 0.002,
        "top": 0.002,
        "total": 0.11478924751281738
    }
}