{
    "0": {
        "parsing": 0.017,
        "smoothing": 0.019,
        "top": 0.014,
        "total": 0.16531801223754883
    },
    "1": {
        "parsing": 0.017,
        "smoothing": 0.02,
        "top": 0.014,
        "total": 0.11497044563293457
    },
    "2": {
        "parsing": 0.017,
        "smoothing": 0.02,
        "top": 0.014,
        "total": 0.1654062271118164
    },
    "3": {
        "parsing": 0.017,
        "smoothing": 0.019,
        "top": 0.014,
        "total": 0.11499214172363281
    },
    "4": {
        "parsing": 0.017,
        "smoothing": 0.019,
        "top": 0.014,
        "total": 0.11517834663391113
    }
}