{
    "0": {
        "parsing": 0.017,
        "smoothing": 0.02,
        "top": 0.014,
        "total": 0.16490697860717773
    },
    "1": {
        "parsing": 0.017,
        "smoothing": 0.021,
        "top": 0.014,
        "total": 0.16522431373596191
    },
    "2": {
        "parsing": 0.017,
        "smoothing": 0.02,
        "top": 0.014,
        "total": 0.16501164436340332
    },
    "3": {
        "parsing": 0.017,
        "smoothing": 0.02,
        "top": 0.014,
        "total": 0.1651144027709961
    },
    "4": {
        "parsing": 0.017,
        "smoothing": 0.02,
        "top": 0.014,
        "total": 0.16491937637329102
    }
}