{
    "0": {
        "parsing": 0.018,
        "smoothing": 0.022,
        "top": 0.014,
        "total": 0.16507339477539062
    },
    "1": {
        "parsing": 0.018,
        "smoothing": 0.022,
        "top": 0.014,
        "total": 0.16508269309997559
    },
    "2": {
        "parsing": 0.018,
        "smoothing": 0.022,
        "top": 0.014,
        "total": 0.16500186920166016
    },
    "3": {
        "parsing": 0.018,
        "smoothing": 0.022,
        "top": 0.013,
        "total": 0.1651461124420166
    },
    "4": {
        "parsing": 0.018,
        "smoothing": 0.022,
        "top": 0.014,
        "total": 0.16500163078308105
    }
}