{
    "0": {
        "parsing": 0.023,
        "smoothing": 0.03,
        "top": 0.023,
        "total": 0.16498231887817383
    },
    "1": {
        "parsing": 0.023,
        "smoothing": 0.03,
        "top": 0.023,
        "total": 0.16498112678527832
    },
    "2": {
        "parsing": 0.022,
        "smoothing": 0.03,
        "top": 0.024,
        "total": 0.16507387161254883
    },
    "3": {
        "parsing": 0.023,
        "smoothing": 0.032,
        "top": 0.024,
        "total": 0.16492915153503418
    },
    "4": {
        "parsing": 0.023,
        "smoothing": 0.03,
        "top": 0.024,
        "total": 0.16517305374145508
    }
}