{
    "0": {
        "parsing": 0.019,
        "smoothing": 0.023,
        "top": 0.016,
        "total": 0.1650252342224121
    },
    "1": {
        "parsing": 0.019,
        "smoothing": 0.024,
        "top": 0.016,
        "total": 0.16498279571533203
    },
    "2": {
        "parsing": 0.019,
        "smoothing": 0.023,
        "top": 0.016,
        "total": 0.16510844230651855
    },
    "3": {
        "parsing": 0.019,
        "smoothing": 0.023,
        "top": 0.016,
        "total": 0.16495943069458008
    },
    "4": {
        "parsing": 0.019,
        "smoothing": 0.023,
        "top": 0.016,
        "total": 0.16496014595031738
    }
}