{
    "0": {
        "parsing": 0.031,
        "smoothing": 0.06,
        "top": 0.051,
        "total": 0.2150590419769287
    },
    "1": {
        "parsing": 0.03,
        "smoothing": 0.056,
        "top": 0.051,
        "total": 0.2150435447692871
    },
    "2": {
        "parsing": 0.031,
        "smoothing": 0.061,
        "top": 0.05,
        "total": 0.21518635749816895
    },
    "3": {
        "parsing": 0.031,
        "smoothing": 0.058,
        "top": 0.05,
        "total": 0.2152729034423828
    },
    "4": {
        "parsing": 0.032,
        "smoothing": 0.057,
        "top": 0.053,
        "total": 0.21524381637573242
    }
}