{
    "0": [
        0.11599135398864746,
        0.3633108139038086,
        0.6427211761474609,
        0.9287059307098389,
        1.2101171016693115,
        1.390794277191162,
        1.6444332599639893,
        1.9407234191894531,
        2.2796835899353027,
        2.636000156402588
    ],
    "1": [
        0.09598565101623535,
        0.25138282775878906,
        0.4063293933868408,
        0.5311694145202637,
        0.6719112396240234,
        0.8497328758239746,
        1.0494575500488281,
        1.226377248764038,
        1.400702714920044,
        1.596437931060791
    ],
    "2": [
        0.1134641170501709,
        0.2608346939086914,
        0.35379624366760254,
        0.4483060836791992,
        0.5668008327484131,
        0.6957950592041016,
        0.7958762645721436,
        1.0044262409210205,
        1.1872873306274414,
        1.305846929550171
    ],
    "3": [
        0.10035276412963867,
        0.2850155830383301,
        0.487659215927124,
        0.7313926219940186,
        0.876495361328125,
        1.0292460918426514,
        1.201197862625122,
        1.4199230670928955,
        1.6145610809326172,
        1.8766021728515625
    ],
    "4": [
        0.13787508010864258,
        0.37358736991882324,
        0.5630664825439453,
        0.9393918514251709,
        1.1599698066711426,
        1.4025449752807617,
        1.6534762382507324,
        1.9234116077423096,
        2.116727590560913,
        2.363910675048828
    ]
}