{
    "0": [
        0.6756830215454102,
        1.506178379058838,
        2.3223776817321777,
        3.153954029083252,
        3.7224082946777344,
        4.313196897506714,
        5.160022020339966,
        5.794337511062622,
        6.381143569946289,
        6.911428689956665
    ],
    "1": [
        0.08224844932556152,
        0.2273714542388916,
        0.48435354232788086,
        0.75107741355896,
        0.9917819499969482,
        1.2510600090026855,
        1.6819758415222168,
        2.098928689956665,
        2.480571985244751,
        2.911288261413574
    ],
    "2": [
        0.11029791831970215,
        0.2377481460571289,
        0.4640204906463623,
        0.6527678966522217,
        0.920752763748169,
        1.0781505107879639,
        1.2712717056274414,
        1.4885468482971191,
        1.8370168209075928,
        2.09426212310791
    ],
    "3": [
        0.7094557285308838,
        1.1825227737426758,
        1.668867588043213,
        2.4895193576812744,
        3.071882486343384,
        3.8852779865264893,
        4.602324962615967,
        5.3795928955078125,
        6.338915586471558,
        7.312980890274048
    ],
    "4": [
        0.42879414558410645,
        1.0562844276428223,
        1.5645027160644531,
        2.104288339614868,
        2.8105201721191406,
        3.3317477703094482,
        3.8862130641937256,
        4.543944835662842,
        5.258342742919922,
        5.894333362579346
    ]
}