{
    "0": [
        0.17838525772094727,
        0.3095855712890625,
        0.5136761665344238,
        0.7115447521209717,
        0.9542021751403809,
        1.2695114612579346,
        1.5734071731567383,
        1.8694794178009033,
        2.2357234954833984,
        2.5667953491210938
    ],
    "1": [
        0.17811870574951172,
        0.43525004386901855,
        0.7776217460632324,
        1.2305421829223633,
        1.470630168914795,
        1.8524627685546875,
        2.319375991821289,
        2.6099777221679688,
        2.9989356994628906,
        3.4199445247650146
    ],
    "2": [
        0.2664327621459961,
        0.4601311683654785,
        0.8958508968353271,
        1.271653175354004,
        1.549363136291504,
        1.7995073795318604,
        2.2761287689208984,
        2.65519118309021,
        3.0272042751312256,
        3.3858108520507812
    ],
    "3": [
        0.19464111328125,
        0.5004794597625732,
        0.734602689743042,
        0.9475700855255127,
        1.2035913467407227,
        1.4299049377441406,
        1.6941475868225098,
        2.057109832763672,
        2.3474655151367188,
        2.5995473861694336
    ],
    "4": [
        0.13428187370300293,
        0.34239959716796875,
        0.574779748916626,
        0.8454999923706055,
        1.3187649250030518,
        1.655635118484497,
        2.0218751430511475,
        2.4268836975097656,
        2.8835175037384033,
        3.2327921390533447
    ]
}