{
    "0": [
        0.46197080612182617,
        1.1205308437347412,
        1.7179994583129883,
        2.312983512878418,
        2.9711620807647705,
        3.712761878967285,
        4.3441550731658936,
        5.0779736042022705,
        5.723062992095947,
        6.41801118850708
    ],
    "1": [
        1.0546705722808838,
        2.309480905532837,
        3.824187755584717,
        5.518548011779785,
        7.02064323425293,
        8.836522579193115,
        10.78226637840271,
        12.999571561813354,
        14.929880619049072,
        17.359540224075317
    ],
    "2": [
        2.4686367511749268,
        5.011023759841919,
        6.966149568557739,
        9.273956298828125,
        11.838274478912354,
        14.159791946411133,
        16.68312978744507,
        19.285556316375732,
        22.093567848205566,
        25.070136785507202
    ],
    "3": [
        0.9399237632751465,
        2.526974678039551,
        3.2798385620117188,
        5.074675559997559,
        5.9327826499938965,
        7.440101861953735,
        8.761130094528198,
        10.62963056564331,
        12.300382852554321,
        13.62528109550476
    ],
    "4": [
        0.4985623359680176,
        1.0352661609649658,
        1.696528434753418,
        2.4352736473083496,
        3.641944408416748,
        4.466931343078613,
        5.603930950164795,
        6.466147422790527,
        7.347858905792236,
        8.343964099884033
    ]
}