{
    "0": [
        0.17070579528808594,
        0.34220314025878906,
        0.5508382320404053,
        0.7252366542816162,
        0.9622073173522949,
        1.187729835510254,
        1.4375145435333252,
        1.7120075225830078,
        1.9652910232543945,
        2.2002854347229004
    ],
    "1": [
        0.29781341552734375,
        0.6727898120880127,
        1.0720465183258057,
        1.3558168411254883,
        1.7103180885314941,
        2.045457601547241,
        2.4652562141418457,
        2.8906500339508057,
        3.277024030685425,
        3.8676817417144775
    ],
    "2": [
        0.08426952362060547,
        0.2450251579284668,
        0.4296121597290039,
        0.6690850257873535,
        0.8756875991821289,
        1.0733921527862549,
        1.3590028285980225,
        1.709630012512207,
        2.092635154724121,
        2.458118438720703
    ],
    "3": [
        0.22482562065124512,
        0.5683727264404297,
        0.9593703746795654,
        1.2112562656402588,
        1.6315655708312988,
        1.9849250316619873,
        2.5000271797180176,
        2.7963669300079346,
        3.164217233657837,
        3.5268659591674805
    ],
    "4": [
        0.3593480587005615,
        0.6640818119049072,
        0.9355247020721436,
        1.2277536392211914,
        1.4532749652862549,
        1.7401096820831299,
        2.050550699234009,
        2.3083407878875732,
        2.5532240867614746,
        2.7934153079986572
    ]
}