{
    "0": [
        0.04549813270568848,
        0.10386872291564941,
        0.15584135055541992,
        0.21938776969909668,
        0.28864073753356934,
        0.35582661628723145,
        0.42630743980407715,
        0.4902684688568115,
        0.5669903755187988,
        0.6447548866271973
    ],
    "1": [
        0.0518491268157959,
        0.1013023853302002,
        0.1769719123840332,
        0.24498343467712402,
        0.3528292179107666,
        0.4272744655609131,
        0.5323622226715088,
        0.6392807960510254,
        0.8044478893280029,
        0.9462003707885742
    ],
    "2": [
        0.051666975021362305,
        0.09554457664489746,
        0.15214753150939941,
        0.2119741439819336,
        0.2848045825958252,
        0.36389946937561035,
        0.4661598205566406,
        0.5495176315307617,
        0.644479513168335,
        0.7320728302001953
    ],
    "3": [
        0.16658878326416016,
        0.2735438346862793,
        0.46322083473205566,
        0.612652063369751,
        0.86795973777771,
        1.1007976531982422,
        1.3469419479370117,
        1.530442476272583,
        1.762683391571045,
        2.126462459564209
    ],
    "4": [
        0.053389549255371094,
        0.11734414100646973,
        0.1856248378753662,
        0.26123881340026855,
        0.3408069610595703,
        0.43441271781921387,
        0.5383241176605225,
        0.6445472240447998,
        0.7519965171813965,
        0.8669826984405518
    ]
}