{
    "0": [
        0.04430341720581055,
        0.10008454322814941,
        0.16085457801818848,
        0.22173857688903809,
        0.28624820709228516,
        0.35036683082580566,
        0.4195871353149414,
        0.48952651023864746,
        0.562901496887207,
        0.6363894939422607
    ],
    "1": [
        0.05109381675720215,
        0.10842299461364746,
        0.1714627742767334,
        0.24366545677185059,
        0.32096171379089355,
        0.4037051200866699,
        0.4871025085449219,
        0.5725865364074707,
        0.6581277847290039,
        0.7462155818939209
    ],
    "2": [
        0.04776191711425781,
        0.0991213321685791,
        0.15915751457214355,
        0.21753406524658203,
        0.288226842880249,
        0.3553495407104492,
        0.42847657203674316,
        0.4963493347167969,
        0.568002462387085,
        0.6410388946533203
    ],
    "3": [
        0.04020524024963379,
        0.08528542518615723,
        0.1321873664855957,
        0.1931290626525879,
        0.25850868225097656,
        0.3273954391479492,
        0.3921372890472412,
        0.4641129970550537,
        0.5341694355010986,
        0.60599684715271
    ],
    "4": [
        0.061780452728271484,
        0.12505888938903809,
        0.19286632537841797,
        0.2597386837005615,
        0.33254551887512207,
        0.4019358158111572,
        0.48772239685058594,
        0.5673601627349854,
        0.6535780429840088,
        0.7500171661376953
    ]
}