{
    "0": [
        0.056870460510253906,
        0.12070870399475098,
        0.21019339561462402,
        0.3175685405731201,
        0.44182538986206055,
        0.5619173049926758,
        0.7068536281585693,
        0.8552472591400146,
        1.0063626766204834,
        1.1685147285461426
    ],
    "1": [
        0.07054734230041504,
        0.14543390274047852,
        0.2575087547302246,
        0.3636612892150879,
        0.46933674812316895,
        0.6054754257202148,
        0.7328224182128906,
        0.8769130706787109,
        1.019176959991455,
        1.157334566116333
    ],
    "2": [
        0.062075138092041016,
        0.1509706974029541,
        0.28319740295410156,
        0.41784000396728516,
        0.5582113265991211,
        0.7241089344024658,
        0.9383430480957031,
        1.0889019966125488,
        1.2976932525634766,
        1.5116353034973145
    ],
    "3": [
        0.05763125419616699,
        0.12465429306030273,
        0.20334768295288086,
        0.3068845272064209,
        0.4140052795410156,
        0.5612523555755615,
        0.7814638614654541,
        0.9429099559783936,
        1.0568342208862305,
        1.2148807048797607
    ],
    "4": [
        0.06519293785095215,
        0.16470742225646973,
        0.27776575088500977,
        0.38946008682250977,
        0.5057411193847656,
        0.6391181945800781,
        0.7605948448181152,
        0.9220480918884277,
        1.04473876953125,
        1.2404849529266357
    ]
}