{
    "0": [
        0.07737421989440918,
        0.19363689422607422,
        0.33695435523986816,
        0.48232340812683105,
        0.6578710079193115,
        0.8025498390197754,
        0.9192473888397217,
        1.104067087173462,
        1.222761631011963,
        1.3439793586730957
    ],
    "1": [
        0.07863187789916992,
        0.1491241455078125,
        0.25687527656555176,
        0.3700733184814453,
        0.4977726936340332,
        0.605257511138916,
        0.7175130844116211,
        0.8352272510528564,
        1.013488531112671,
        1.1943359375
    ],
    "2": [
        0.09536123275756836,
        0.24057888984680176,
        0.35218214988708496,
        0.4685676097869873,
        0.5677130222320557,
        0.6916580200195312,
        0.8224852085113525,
        0.9816582202911377,
        1.1196727752685547,
        1.2867770195007324
    ],
    "3": [
        0.09510993957519531,
        0.2122642993927002,
        0.38269734382629395,
        0.5199611186981201,
        0.651155948638916,
        0.7884924411773682,
        0.9841575622558594,
        1.1731278896331787,
        1.4400067329406738,
        1.6611247062683105
    ],
    "4": [
        0.09870338439941406,
        0.17943620681762695,
        0.26853513717651367,
        0.37981438636779785,
        0.5120840072631836,
        0.6845734119415283,
        0.8511106967926025,
        1.0145494937896729,
        1.2055225372314453,
        1.3506529331207275
    ]
}