{
    "0": [
        0.7536575794219971,
        1.4980535507202148,
        2.0605411529541016,
        2.7700254917144775,
        3.773909568786621,
        4.614721775054932,
        5.49473762512207,
        6.498095750808716,
        7.772193431854248,
        9.223711729049683
    ],
    "1": [
        0.6339478492736816,
        1.12255859375,
        1.777254581451416,
        2.53912615776062,
        3.013943672180176,
        3.5807409286499023,
        4.476973056793213,
        5.4386632442474365,
        6.330360651016235,
        7.208815813064575
    ],
    "2": [
        0.4625101089477539,
        1.0717954635620117,
        1.6949405670166016,
        2.3343708515167236,
        3.205329179763794,
        3.9398558139801025,
        5.249039888381958,
        6.079146385192871,
        7.062867641448975,
        7.897674083709717
    ],
    "3": [
        0.6878271102905273,
        1.2611830234527588,
        2.27089262008667,
        3.3196191787719727,
        4.278789520263672,
        5.289467096328735,
        6.385113954544067,
        7.365689277648926,
        8.456538438796997,
        9.631715059280396
    ],
    "4": [
        0.4633958339691162,
        0.9437522888183594,
        1.4257171154022217,
        1.8637423515319824,
        2.6308887004852295,
        3.450319290161133,
        4.160881757736206,
        4.9999425411224365,
        5.633483171463013,
        6.1289918422698975
    ]
}