{
    "0": [
        0.1278362274169922,
        0.2861497402191162,
        0.45795297622680664,
        0.641547441482544,
        0.8144752979278564,
        1.0188376903533936,
        1.2366714477539062,
        1.439490556716919,
        1.6856060028076172,
        1.8814387321472168
    ],
    "1": [
        0.27028346061706543,
        0.5390777587890625,
        0.8010594844818115,
        1.1268179416656494,
        1.4228968620300293,
        1.7802302837371826,
        2.0745396614074707,
        2.443432331085205,
        2.840913772583008,
        3.2586617469787598
    ],
    "2": [
        0.13156509399414062,
        0.32619524002075195,
        0.5163145065307617,
        0.7238564491271973,
        0.9401662349700928,
        1.174964427947998,
        1.4153366088867188,
        1.6690645217895508,
        1.9620285034179688,
        2.2396833896636963
    ],
    "3": [
        0.1443624496459961,
        0.34546875953674316,
        0.5767133235931396,
        0.7947626113891602,
        1.0130589008331299,
        1.2810063362121582,
        1.5452089309692383,
        1.8513543605804443,
        2.1244795322418213,
        2.5105478763580322
    ],
    "4": [
        0.31381869316101074,
        0.6216199398040771,
        0.9119777679443359,
        1.3008310794830322,
        1.6682045459747314,
        1.9816219806671143,
        2.416156530380249,
        2.7951221466064453,
        3.2198376655578613,
        3.68298602104187
    ]
}