{
    "0": [
        0.04421639442443848,
        0.09385490417480469,
        0.14760971069335938,
        0.20123028755187988,
        0.2620706558227539,
        0.35366320610046387,
        0.4505124092102051,
        0.5703110694885254,
        0.6561095714569092,
        0.7473769187927246
    ],
    "1": [
        0.03467679023742676,
        0.07498383522033691,
        0.12312507629394531,
        0.17257118225097656,
        0.2619900703430176,
        0.31607747077941895,
        0.4065828323364258,
        0.46970415115356445,
        0.5623993873596191,
        0.6317012310028076
    ],
    "2": [
        0.0348813533782959,
        0.07958769798278809,
        0.12821173667907715,
        0.18077731132507324,
        0.23752260208129883,
        0.3121311664581299,
        0.38436412811279297,
        0.45874810218811035,
        0.5385918617248535,
        0.6187777519226074
    ],
    "3": [
        0.06098484992980957,
        0.11961150169372559,
        0.2190418243408203,
        0.33759474754333496,
        0.40763282775878906,
        0.4936537742614746,
        0.5858488082885742,
        0.6771285533905029,
        0.7654414176940918,
        0.852104663848877
    ],
    "4": [
        0.026955366134643555,
        0.06438302993774414,
        0.1001734733581543,
        0.1407933235168457,
        0.18501996994018555,
        0.22809600830078125,
        0.27529406547546387,
        0.321439266204834,
        0.3736152648925781,
        0.4251372814178467
    ]
}