{
    "0": [
        0.4506344795227051,
        1.0992717742919922,
        2.037670373916626,
        2.664132833480835,
        3.4733564853668213,
        4.341928243637085,
        5.488488435745239,
        6.5886549949646,
        7.61719536781311,
        8.62149453163147
    ],
    "1": [
        0.7343730926513672,
        1.5646331310272217,
        2.5891406536102295,
        3.692577838897705,
        4.829923391342163,
        6.453535318374634,
        7.503027439117432,
        8.847348690032959,
        10.105709075927734,
        11.5988450050354
    ],
    "2": [
        0.6023163795471191,
        1.4933269023895264,
        2.474407434463501,
        3.5851008892059326,
        4.626199722290039,
        5.7339255809783936,
        7.0752832889556885,
        8.476557970046997,
        9.989258766174316,
        11.4970064163208
    ],
    "3": [
        0.9861314296722412,
        1.9395804405212402,
        3.073612689971924,
        4.448423862457275,
        5.701451778411865,
        7.310310125350952,
        8.397230625152588,
        10.0803804397583,
        11.8359215259552,
        13.878187656402588
    ],
    "4": [
        0.621478796005249,
        1.3059508800506592,
        2.159290075302124,
        3.0959277153015137,
        4.0237953662872314,
        4.965604066848755,
        5.985132217407227,
        7.149897336959839,
        8.632425308227539,
        9.711644172668457
    ]
}