{
    "0": [
        0.03529644012451172,
        0.07254981994628906,
        0.11568689346313477,
        0.16864705085754395,
        0.2241816520690918,
        0.2873048782348633,
        0.35332465171813965,
        0.42127013206481934,
        0.4942286014556885,
        0.5781195163726807
    ],
    "1": [
        0.03469538688659668,
        0.07840490341186523,
        0.1292881965637207,
        0.17777800559997559,
        0.22838592529296875,
        0.28024864196777344,
        0.3384206295013428,
        0.39891600608825684,
        0.4664335250854492,
        0.539680004119873
    ],
    "2": [
        0.04290437698364258,
        0.08546638488769531,
        0.13116240501403809,
        0.17649555206298828,
        0.224257230758667,
        0.2754368782043457,
        0.32750749588012695,
        0.380537748336792,
        0.43277692794799805,
        0.4843752384185791
    ],
    "3": [
        0.03563523292541504,
        0.08536291122436523,
        0.13834428787231445,
        0.1997852325439453,
        0.27462196350097656,
        0.34333205223083496,
        0.4238929748535156,
        0.5103518962860107,
        0.5844340324401855,
        0.6666159629821777
    ],
    "4": [
        0.03199887275695801,
        0.06694889068603516,
        0.1023414134979248,
        0.14248275756835938,
        0.18804550170898438,
        0.2366499900817871,
        0.28428173065185547,
        0.33580994606018066,
        0.3860487937927246,
        0.448345422744751
    ]
}