{
    "0": [
        0.029004335403442383,
        0.06070661544799805,
        0.0977637767791748,
        0.13681697845458984,
        0.17537379264831543,
        0.2191634178161621,
        0.26300787925720215,
        0.3085310459136963,
        0.35276317596435547,
        0.4070274829864502
    ],
    "1": [
        0.03448152542114258,
        0.07299256324768066,
        0.11395812034606934,
        0.1706554889678955,
        0.24557852745056152,
        0.33213186264038086,
        0.4049699306488037,
        0.49010133743286133,
        0.5966405868530273,
        0.6554219722747803
    ],
    "2": [
        0.05428957939147949,
        0.14390063285827637,
        0.2579212188720703,
        0.36167383193969727,
        0.456390380859375,
        0.5550906658172607,
        0.6696007251739502,
        0.7893590927124023,
        0.8973844051361084,
        1.0075600147247314
    ],
    "3": [
        0.043607473373413086,
        0.10570216178894043,
        0.16234803199768066,
        0.2106330394744873,
        0.2941298484802246,
        0.38097548484802246,
        0.4871375560760498,
        0.6081039905548096,
        0.7112822532653809,
        0.824918270111084
    ],
    "4": [
        0.04120898246765137,
        0.10041022300720215,
        0.15926051139831543,
        0.2287578582763672,
        0.30428242683410645,
        0.3869357109069824,
        0.465742826461792,
        0.5448269844055176,
        0.645435094833374,
        0.7314164638519287
    ]
}