{
    "0": [
        0.027751684188842773,
        0.05343341827392578,
        0.07950115203857422,
        0.10475873947143555,
        0.13293051719665527,
        0.16188836097717285,
        0.1918497085571289,
        0.22872447967529297,
        0.26432061195373535,
        0.30504655838012695
    ],
    "1": [
        0.03265118598937988,
        0.0683138370513916,
        0.10574960708618164,
        0.13962125778198242,
        0.17463898658752441,
        0.21169781684875488,
        0.25105786323547363,
        0.288832426071167,
        0.3280351161956787,
        0.37334585189819336
    ],
    "2": [
        0.02544236183166504,
        0.050675392150878906,
        0.07781553268432617,
        0.10823941230773926,
        0.1358182430267334,
        0.1656174659729004,
        0.19840312004089355,
        0.23225069046020508,
        0.2678513526916504,
        0.30251598358154297
    ],
    "3": [
        0.030333995819091797,
        0.06073427200317383,
        0.09471344947814941,
        0.12706470489501953,
        0.1596689224243164,
        0.1918182373046875,
        0.22674131393432617,
        0.25929760932922363,
        0.2930464744567871,
        0.32918381690979004
    ],
    "4": [
        0.025920629501342773,
        0.05319476127624512,
        0.07976722717285156,
        0.10916543006896973,
        0.13680720329284668,
        0.16437554359436035,
        0.19980216026306152,
        0.23766779899597168,
        0.2797112464904785,
        0.3193631172180176
    ]
}