{
    "0": [
        2.0548152923583984,
        3.906745433807373,
        5.551666975021362,
        8.063083410263062,
        10.273010015487671,
        12.463626861572266,
        14.299493551254272,
        16.77260971069336,
        18.620257139205933,
        21.435862064361572
    ],
    "1": [
        1.5191187858581543,
        3.7479002475738525,
        5.776745557785034,
        7.873799085617065,
        10.064436435699463,
        12.446974754333496,
        15.130692481994629,
        17.70117735862732,
        20.545740365982056,
        23.262591123580933
    ],
    "2": [
        2.317660093307495,
        4.871058702468872,
        6.987176179885864,
        9.058567523956299,
        11.235969305038452,
        13.483192205429077,
        15.967524528503418,
        18.875282287597656,
        21.676006317138672,
        24.526995182037354
    ],
    "3": [
        2.4652140140533447,
        4.937236309051514,
        7.243237733840942,
        9.353816747665405,
        11.717020750045776,
        13.99926233291626,
        16.348982572555542,
        18.621012687683105,
        20.790381908416748,
        22.943454265594482
    ],
    "4": [
        2.154390335083008,
        4.190263032913208,
        6.236152172088623,
        8.330472230911255,
        10.760544300079346,
        13.263231992721558,
        15.886382579803467,
        18.129435539245605,
        20.828579902648926,
        23.514509439468384
    ]
}