{
    "0": [
        3.358900308609009,
        7.087404251098633,
        10.924645185470581,
        15.043270111083984,
        19.037561893463135,
        23.0409574508667,
        27.972931385040283,
        32.78934073448181,
        37.48697566986084,
        42.01227378845215
    ],
    "1": [
        4.556902170181274,
        9.519861936569214,
        14.3337881565094,
        18.810481548309326,
        23.449833154678345,
        28.72390341758728,
        33.460200548172,
        37.828540325164795,
        42.54438304901123,
        47.948511600494385
    ],
    "2": [
        4.321025133132935,
        9.653265237808228,
        14.328824043273926,
        18.513715982437134,
        22.717490911483765,
        27.552306652069092,
        32.050238609313965,
        37.7995765209198,
        42.27344822883606,
        47.03175902366638
    ],
    "3": [
        3.2661550045013428,
        7.352468013763428,
        10.805729150772095,
        14.657714605331421,
        18.293676137924194,
        21.84038805961609,
        25.73626136779785,
        29.68484878540039,
        34.706782579422,
        38.967339515686035
    ],
    "4": [
        3.9516985416412354,
        8.009034395217896,
        12.436789512634277,
        17.164941787719727,
        21.206016540527344,
        26.396405935287476,
        31.440322637557983,
        36.79341697692871,
        41.72085356712341,
        46.287251472473145
    ]
}