{
    "0": [
        0.6146023273468018,
        1.092252492904663,
        1.5908377170562744,
        2.335251808166504,
        2.946218252182007,
        3.572613477706909,
        4.119962930679321,
        4.854207515716553,
        5.45069146156311,
        6.230617523193359
    ],
    "1": [
        0.5858242511749268,
        1.2145414352416992,
        1.7213542461395264,
        2.5524516105651855,
        3.150362491607666,
        3.8813490867614746,
        4.604999780654907,
        4.977130651473999,
        5.573121786117554,
        6.22160267829895
    ],
    "2": [
        0.10165548324584961,
        0.22095179557800293,
        0.3598024845123291,
        0.5114850997924805,
        0.6864573955535889,
        0.8794848918914795,
        1.076270580291748,
        1.2759344577789307,
        1.5081899166107178,
        1.7560789585113525
    ],
    "3": [
        0.5105090141296387,
        1.142287015914917,
        1.7542877197265625,
        2.3385426998138428,
        3.1619255542755127,
        3.752732515335083,
        4.40469217300415,
        5.221671104431152,
        5.9819793701171875,
        6.600477457046509
    ],
    "4": [
        0.46947813034057617,
        1.0643165111541748,
        1.6492788791656494,
        2.329742670059204,
        3.0936789512634277,
        3.6320159435272217,
        4.152332544326782,
        5.013936996459961,
        5.6912007331848145,
        6.503695487976074
    ]
}