{
    "0": [
        0.1559154987335205,
        0.3845655918121338,
        0.6181640625,
        0.927971363067627,
        1.1916124820709229,
        1.480220079421997,
        1.7751457691192627,
        2.158982276916504,
        2.4692561626434326,
        2.803333282470703
    ],
    "1": [
        0.43040013313293457,
        0.8875579833984375,
        1.3336858749389648,
        1.9684476852416992,
        2.5714807510375977,
        3.0994553565979004,
        3.7950439453125,
        4.282400608062744,
        4.782517910003662,
        5.3879711627960205
    ],
    "2": [
        0.17952442169189453,
        0.36202383041381836,
        0.5954976081848145,
        0.9565324783325195,
        1.192326307296753,
        1.4636046886444092,
        1.7438061237335205,
        2.1697399616241455,
        2.544508934020996,
        2.8486714363098145
    ],
    "3": [
        0.16963744163513184,
        0.371471643447876,
        0.7080268859863281,
        1.1337535381317139,
        1.4851555824279785,
        1.9491565227508545,
        2.311929702758789,
        2.6502764225006104,
        2.919904947280884,
        3.3504638671875
    ],
    "4": [
        0.13988971710205078,
        0.34520745277404785,
        0.6163790225982666,
        0.981614351272583,
        1.2371845245361328,
        1.5617475509643555,
        2.029465675354004,
        2.3742423057556152,
        2.703627347946167,
        3.1128222942352295
    ]
}