{
    "0": [
        0.8506801128387451,
        1.618046760559082,
        2.3903450965881348,
        3.1933398246765137,
        3.941082000732422,
        4.8334479331970215,
        5.705671310424805,
        6.598273515701294,
        7.4419732093811035,
        8.42548155784607
    ],
    "1": [
        0.2047584056854248,
        0.6769969463348389,
        1.0554111003875732,
        1.5882604122161865,
        1.942352056503296,
        2.595822811126709,
        3.1123974323272705,
        3.6240310668945312,
        4.449657201766968,
        4.971542119979858
    ],
    "2": [
        0.17633986473083496,
        0.46750664710998535,
        0.7659356594085693,
        1.174539566040039,
        1.583745002746582,
        1.9236629009246826,
        2.4914135932922363,
        2.904528856277466,
        3.384145975112915,
        3.9847185611724854
    ],
    "3": [
        0.5891695022583008,
        1.0204811096191406,
        1.5082406997680664,
        2.04382061958313,
        2.8975279331207275,
        3.472666025161743,
        4.4418580532073975,
        5.275062561035156,
        6.116634368896484,
        6.921070098876953
    ],
    "4": [
        0.16063213348388672,
        0.37879252433776855,
        0.5935256481170654,
        0.9067821502685547,
        1.2118492126464844,
        1.6954689025878906,
        2.018177032470703,
        2.4472391605377197,
        2.8970437049865723,
        3.2691969871520996
    ]
}