{
    "0": [
        0.04469418525695801,
        0.11991477012634277,
        0.22100567817687988,
        0.3371124267578125,
        0.4180459976196289,
        0.5128412246704102,
        0.6262729167938232,
        0.7347128391265869,
        0.8320736885070801,
        0.9393513202667236
    ],
    "1": [
        0.055835723876953125,
        0.11404037475585938,
        0.17558884620666504,
        0.24340605735778809,
        0.3505890369415283,
        0.4382472038269043,
        0.533966064453125,
        0.6352519989013672,
        0.7784688472747803,
        0.8869037628173828
    ],
    "2": [
        0.07831192016601562,
        0.14811921119689941,
        0.23461174964904785,
        0.32691431045532227,
        0.4339640140533447,
        0.5421929359436035,
        0.6580595970153809,
        0.7781445980072021,
        0.9509780406951904,
        1.1230661869049072
    ],
    "3": [
        0.15291833877563477,
        0.30933547019958496,
        0.479189395904541,
        0.6015281677246094,
        0.7429075241088867,
        0.8894014358520508,
        1.0543015003204346,
        1.2185137271881104,
        1.3902795314788818,
        1.5510985851287842
    ],
    "4": [
        0.09063124656677246,
        0.1800403594970703,
        0.26809167861938477,
        0.3938596248626709,
        0.550910472869873,
        0.6726930141448975,
        0.8123900890350342,
        0.9409363269805908,
        1.0715811252593994,
        1.1878621578216553
    ]
}