{
    "0": [
        0.22003507614135742,
        0.4730672836303711,
        0.8588111400604248,
        1.1775410175323486,
        1.530165195465088,
        1.9099059104919434,
        2.2864203453063965,
        2.870712995529175,
        3.396087646484375,
        3.829529047012329
    ],
    "1": [
        0.2811863422393799,
        0.6653261184692383,
        0.9828276634216309,
        1.2747085094451904,
        1.6834571361541748,
        2.206829786300659,
        2.6345083713531494,
        3.0477631092071533,
        3.431781768798828,
        4.018988370895386
    ],
    "2": [
        0.4108726978302002,
        0.9984927177429199,
        1.6032049655914307,
        2.363044500350952,
        3.193021535873413,
        3.8213610649108887,
        4.299482107162476,
        4.724412679672241,
        5.587319612503052,
        6.376148462295532
    ],
    "3": [
        0.7303805351257324,
        1.3214101791381836,
        2.3565385341644287,
        3.246119260787964,
        3.9128243923187256,
        4.474346160888672,
        5.0969460010528564,
        5.920314788818359,
        6.422696352005005,
        7.050902366638184
    ],
    "4": [
        0.9479362964630127,
        1.969963788986206,
        2.93414044380188,
        3.56964111328125,
        4.435622453689575,
        5.1343395709991455,
        5.790060043334961,
        6.616719007492065,
        7.445412635803223,
        8.221171140670776
    ]
}