{
    "0": {
        "parsing": 0.02,
        "preparation": 0.019,
        "satisfiability": 0.039,
        "total": 0.13505268096923828
    },
    "1": {
        "parsing": 0.02,
        "preparation": 0.019,
        "satisfiability": 0.038,
        "total": 0.13126873970031738
    },
    "2": {
        "parsing": 0.02,
        "preparation": 0.019,
        "satisfiability": 0.037,
        "total": 0.1308913230895996
    },
    "3": {
        "parsing": 0.02,
        "preparation": 0.019,
        "satisfiability": 0.04,
        "total": 0.1326444149017334
    },
    "4": {
        "parsing": 0.02,
        "preparation": 0.019,
        "satisfiability": 0.041,
        "total": 0.13402867317199707
    }
}