{
    "0": {
        "parsing": 0.013,
        "preparation": 0.007,
        "satisfiability": 0.006,
        "total": 0.07800602912902832
    },
    "1": {
        "parsing": 0.014,
        "preparation": 0.007,
        "satisfiability": 0.005,
        "total": 0.07862424850463867
    },
    "2": {
        "parsing": 0.013,
        "preparation": 0.007,
        "satisfiability": 0.006,
        "total": 0.07907247543334961
    },
    "3": {
        "parsing": 0.013,
        "preparation": 0.007,
        "satisfiability": 0.006,
        "total": 0.07963156700134277
    },
    "4": {
        "parsing": 0.013,
        "preparation": 0.007,
        "satisfiability": 0.006,
        "total": 0.07964277267456055
    }
}