{
    "0": {
        "parsing": 0.027,
        "preparation": 0.036,
        "satisfiability": 0.01,
        "total": 0.1272897720336914
    },
    "1": {
        "parsing": 0.027,
        "preparation": 0.036,
        "satisfiability": 0.011,
        "total": 0.12888765335083008
    },
    "2": {
        "parsing": 0.03,
        "preparation": 0.038,
        "satisfiability": 0.011,
        "total": 0.14151978492736816
    },
    "3": {
        "parsing": 0.028,
        "preparation": 0.037,
        "satisfiability": 0.011,
        "total": 0.1399078369140625
    },
    "4": {
        "parsing": 0.027,
        "preparation": 0.036,
        "satisfiability": 0.011,
        "total": 0.12990069389343262
    }
}