{
    "0": {
        "parsing": 0.03,
        "preparation": 0.04,
        "satisfiability": 0.01,
        "total": 0.13513708114624023
    },
    "1": {
        "parsing": 0.03,
        "preparation": 0.04,
        "satisfiability": 0.01,
        "total": 0.13375544548034668
    },
    "2": {
        "parsing": 0.03,
        "preparation": 0.041,
        "satisfiability": 0.011,
        "total": 0.13749051094055176
    },
    "3": {
        "parsing": 0.03,
        "preparation": 0.04,
        "satisfiability": 0.01,
        "total": 0.13382172584533691
    },
    "4": {
        "parsing": 0.029,
        "preparation": 0.04,
        "satisfiability": 0.01,
        "total": 0.13164448738098145
    }
}