{
    "0": {
        "parsing": 0.018,
        "preparation": 0.018,
        "satisfiability": 0.007,
        "total": 0.11854434013366699
    },
    "1": {
        "parsing": 0.019,
        "preparation": 0.018,
        "satisfiability": 0.007,
        "total": 0.09906530380249023
    },
    "2": {
        "parsing": 0.018,
        "preparation": 0.019,
        "satisfiability": 0.007,
        "total": 0.09966301918029785
    },
    "3": {
        "parsing": 0.018,
        "preparation": 0.018,
        "satisfiability": 0.007,
        "total": 0.09868264198303223
    },
    "4": {
        "parsing": 0.018,
        "preparation": 0.018,
        "satisfiability": 0.007,
        "total": 0.09832954406738281
    }
}