{
    "0": {
        "parsing": 0.021,
        "preparation": 0.023,
        "satisfiability": 0.008,
        "total": 0.10465550422668457
    },
    "1": {
        "parsing": 0.021,
        "preparation": 0.024,
        "satisfiability": 0.006,
        "total": 0.10559988021850586
    },
    "2": {
        "parsing": 0.021,
        "preparation": 0.024,
        "satisfiability": 0.007,
        "total": 0.10573792457580566
    },
    "3": {
        "parsing": 0.021,
        "preparation": 0.024,
        "satisfiability": 0.008,
        "total": 0.10703039169311523
    },
    "4": {
        "parsing": 0.021,
        "preparation": 0.024,
        "satisfiability": 0.007,
        "total": 0.10746383666992188
    }
}