{
    "0": {
        "parsing": 0.023,
        "preparation": 0.025,
        "satisfiability": 0.008,
        "total": 0.11033511161804199
    },
    "1": {
        "parsing": 0.023,
        "preparation": 0.025,
        "satisfiability": 0.008,
        "total": 0.11222648620605469
    },
    "2": {
        "parsing": 0.023,
        "preparation": 0.025,
        "satisfiability": 0.008,
        "total": 0.11437058448791504
    },
    "3": {
        "parsing": 0.023,
        "preparation": 0.025,
        "satisfiability": 0.008,
        "total": 0.1112525463104248
    },
    "4": {
        "parsing": 0.023,
        "preparation": 0.024,
        "satisfiability": 0.008,
        "total": 0.11093378067016602
    }
}