{
    "0": {
        "parsing": 0.026,
        "preparation": 0.033,
        "satisfiability": 0.009,
        "total": 0.12374544143676758
    },
    "1": {
        "parsing": 0.027,
        "preparation": 0.034,
        "satisfiability": 0.009,
        "total": 0.12439918518066406
    },
    "2": {
        "parsing": 0.026,
        "preparation": 0.033,
        "satisfiability": 0.009,
        "total": 0.12335467338562012
    },
    "3": {
        "parsing": 0.027,
        "preparation": 0.033,
        "satisfiability": 0.009,
        "total": 0.12420082092285156
    },
    "4": {
        "parsing": 0.027,
        "preparation": 0.033,
        "satisfiability": 0.009,
        "total": 0.12341952323913574
    }
}