{
    "0": {
        "parsing": 0.031,
        "preparation": 0.05,
        "satisfiability": 0.013,
        "total": 0.15003085136413574
    },
    "1": {
        "parsing": 0.032,
        "preparation": 0.051,
        "satisfiability": 0.013,
        "total": 0.1514596939086914
    },
    "2": {
        "parsing": 0.031,
        "preparation": 0.051,
        "satisfiability": 0.013,
        "total": 0.15013360977172852
    },
    "3": {
        "parsing": 0.031,
        "preparation": 0.05,
        "satisfiability": 0.013,
        "total": 0.1499004364013672
    },
    "4": {
        "parsing": 0.031,
        "preparation": 0.051,
        "satisfiability": 0.013,
        "total": 0.14878058433532715
    }
}