{
    "0": {
        "parsing": 0.014,
        "preparation": 0.009,
        "satisfiability": 0.007,
        "total": 0.0849008560180664
    },
    "1": {
        "parsing": 0.014,
        "preparation": 0.009,
        "satisfiability": 0.007,
        "total": 0.0846095085144043
    },
    "2": {
        "parsing": 0.016,
        "preparation": 0.01,
        "satisfiability": 0.008,
        "total": 0.0974268913269043
    },
    "3": {
        "parsing": 0.014,
        "preparation": 0.009,
        "satisfiability": 0.008,
        "total": 0.08503890037536621
    },
    "4": {
        "parsing": 0.014,
        "preparation": 0.009,
        "satisfiability": 0.008,
        "total": 0.0854191780090332
    }
}