{
    "0": {
        "parsing": 0.017,
        "preparation": 0.016,
        "satisfiability": 0.007,
        "total": 0.09459686279296875
    },
    "1": {
        "parsing": 0.017,
        "preparation": 0.016,
        "satisfiability": 0.007,
        "total": 0.09386062622070312
    },
    "2": {
        "parsing": 0.017,
        "preparation": 0.015,
        "satisfiability": 0.007,
        "total": 0.09303832054138184
    },
    "3": {
        "parsing": 0.017,
        "preparation": 0.016,
        "satisfiability": 0.007,
        "total": 0.09363842010498047
    },
    "4": {
        "parsing": 0.017,
        "preparation": 0.015,
        "satisfiability": 0.007,
        "total": 0.09341239929199219
    }
}