{
    "0": {
        "parsing": 0.027,
        "preparation": 0.031,
        "satisfiability": 0.01,
        "total": 0.12219357490539551
    },
    "1": {
        "parsing": 0.026,
        "preparation": 0.03,
        "satisfiability": 0.009,
        "total": 0.12122464179992676
    },
    "2": {
        "parsing": 0.029,
        "preparation": 0.033,
        "satisfiability": 0.01,
        "total": 0.13800859451293945
    },
    "3": {
        "parsing": 0.028,
        "preparation": 0.032,
        "satisfiability": 0.009,
        "total": 0.13123393058776855
    },
    "4": {
        "parsing": 0.026,
        "preparation": 0.03,
        "satisfiability": 0.009,
        "total": 0.12159109115600586
    }
}