{
    "0": {
        "parsing": 0.066,
        "preparation": 0.255,
        "satisfiability": 0.018,
        "total": 0.3967406749725342
    },
    "1": {
        "parsing": 0.065,
        "preparation": 0.253,
        "satisfiability": 0.02,
        "total": 0.39388561248779297
    },
    "2": {
        "parsing": 0.066,
        "preparation": 0.247,
        "satisfiability": 0.019,
        "total": 0.38831472396850586
    },
    "3": {
        "parsing": 0.067,
        "preparation": 0.244,
        "satisfiability": 0.015,
        "total": 0.38358044624328613
    },
    "4": {
        "parsing": 0.066,
        "preparation": 0.26,
        "satisfiability": 0.015,
        "total": 0.3983180522918701
    }
}