{
    "0": {
        "parsing": 0.021,
        "preparation": 0.026,
        "satisfiability": 0.015,
        "total": 0.11510920524597168
    },
    "1": {
        "parsing": 0.021,
        "preparation": 0.026,
        "satisfiability": 0.015,
        "total": 0.11589598655700684
    },
    "2": {
        "parsing": 0.021,
        "preparation": 0.026,
        "satisfiability": 0.015,
        "total": 0.12118124961853027
    },
    "3": {
        "parsing": 0.021,
        "preparation": 0.031,
        "satisfiability": 0.018,
        "total": 0.12643814086914062
    },
    "4": {
        "parsing": 0.021,
        "preparation": 0.026,
        "satisfiability": 0.015,
        "total": 0.11560773849487305
    }
}