{
    "0": {
        "parsing": 0.032,
        "preparation": 0.058,
        "satisfiability": 0.019,
        "total": 0.16625618934631348
    },
    "1": {
        "parsing": 0.033,
        "preparation": 0.057,
        "satisfiability": 0.02,
        "total": 0.16536998748779297
    },
    "2": {
        "parsing": 0.032,
        "preparation": 0.06,
        "satisfiability": 0.02,
        "total": 0.16653800010681152
    },
    "3": {
        "parsing": 0.032,
        "preparation": 0.06,
        "satisfiability": 0.019,
        "total": 0.16819143295288086
    },
    "4": {
        "parsing": 0.033,
        "preparation": 0.062,
        "satisfiability": 0.023,
        "total": 0.17229509353637695
    }
}