{
    "0": {
        "parsing": 0.019,
        "preparation": 0.019,
        "satisfiability": 0.01,
        "total": 0.1031641960144043
    },
    "1": {
        "parsing": 0.019,
        "preparation": 0.019,
        "satisfiability": 0.011,
        "total": 0.1033782958984375
    },
    "2": {
        "parsing": 0.019,
        "preparation": 0.019,
        "satisfiability": 0.011,
        "total": 0.10298967361450195
    },
    "3": {
        "parsing": 0.019,
        "preparation": 0.019,
        "satisfiability": 0.011,
        "total": 0.10214662551879883
    },
    "4": {
        "parsing": 0.019,
        "preparation": 0.02,
        "satisfiability": 0.01,
        "total": 0.1027219295501709
    }
}