{
    "0": {
        "parsing": 0.043,
        "preparation": 0.117,
        "satisfiability": 0.016,
        "total": 0.230790376663208
    },
    "1": {
        "parsing": 0.042,
        "preparation": 0.121,
        "satisfiability": 0.015,
        "total": 0.24675726890563965
    },
    "2": {
        "parsing": 0.043,
        "preparation": 0.124,
        "satisfiability": 0.015,
        "total": 0.24849772453308105
    },
    "3": {
        "parsing": 0.043,
        "preparation": 0.122,
        "satisfiability": 0.015,
        "total": 0.2352609634399414
    },
    "4": {
        "parsing": 0.043,
        "preparation": 0.12,
        "satisfiability": 0.016,
        "total": 0.23349833488464355
    }
}