{
    "0": {
        "parsing": 0.133,
        "preparation": 0.783,
        "satisfiability": 0.017,
        "total": 0.9919180870056152
    },
    "1": {
        "parsing": 0.136,
        "preparation": 0.795,
        "satisfiability": 0.019,
        "total": 1.012873649597168
    },
    "2": {
        "parsing": 0.135,
        "preparation": 0.779,
        "satisfiability": 0.019,
        "total": 1.0156917572021484
    },
    "3": {
        "parsing": 0.136,
        "preparation": 0.819,
        "satisfiability": 0.02,
        "total": 1.0578384399414062
    },
    "4": {
        "parsing": 0.134,
        "preparation": 0.826,
        "satisfiability": 0.016,
        "total": 1.0506067276000977
    }
}