{
    "0": {
        "parsing": 0.016,
        "preparation": 0.014,
        "satisfiability": 0.012,
        "total": 0.09386157989501953
    },
    "1": {
        "parsing": 0.016,
        "preparation": 0.014,
        "satisfiability": 0.013,
        "total": 0.09653282165527344
    },
    "2": {
        "parsing": 0.016,
        "preparation": 0.014,
        "satisfiability": 0.012,
        "total": 0.09536480903625488
    },
    "3": {
        "parsing": 0.016,
        "preparation": 0.014,
        "satisfiability": 0.012,
        "total": 0.09618020057678223
    },
    "4": {
        "parsing": 0.016,
        "preparation": 0.014,
        "satisfiability": 0.013,
        "total": 0.09508872032165527
    }
}