{
    "0": {
        "parsing": 0.127,
        "smoothing": 0.366,
        "topk": 1463.012,
        "total": 1463.508
    },
    "1": {
        "parsing": 0.131,
        "smoothing": 0.379,
        "topk": 1457.851,
        "total": 1458.363
    },
    "2": {
        "parsing": 0.128,
        "smoothing": 0.413,
        "topk": 1458.714,
        "total": 1459.258
    },
    "3": {
        "parsing": 0.129,
        "smoothing": 0.402,
        "topk": 1454.638,
        "total": 1455.171
    },
    "4": {
        "parsing": 0.128,
        "smoothing": 0.403,
        "topk": 1449.679,
        "total": 1450.212
    }
}