{
    "0": [
        0.616,
        0.641,
        0.78,
        0.798,
        0.888,
        0.897,
        0.917,
        0.924,
        0.993,
        0.999
    ],
    "1": [
        0.662,
        0.832,
        0.876,
        0.89,
        1.001,
        1.023,
        1.043,
        1.054,
        1.075,
        1.127
    ],
    "2": [
        0.936,
        1.001,
        1.071,
        1.139,
        1.236,
        1.28,
        1.347,
        1.38,
        1.415,
        1.457
    ],
    "3": [
        0.703,
        0.889,
        1.007,
        1.138,
        1.205,
        1.229,
        1.332,
        1.421,
        1.434,
        1.468
    ],
    "4": [
        0.686,
        0.912,
        0.947,
        1.106,
        1.134,
        1.171,
        1.22,
        1.232,
        1.31,
        1.356
    ]
}