{
    "0": [
        0.787,
        1.101,
        1.215,
        1.267,
        1.351,
        1.378,
        1.386,
        1.426,
        1.496,
        1.509
    ],
    "1": [
        0.673,
        0.74,
        0.783,
        0.803,
        0.899,
        0.907,
        0.928,
        0.939,
        0.947,
        0.996
    ],
    "2": [
        0.628,
        0.725,
        0.904,
        0.967,
        0.99,
        1.048,
        1.212,
        1.243,
        1.255,
        1.291
    ],
    "3": [
        0.55,
        0.573,
        0.631,
        0.648,
        0.735,
        0.743,
        0.752,
        0.76,
        0.788,
        0.795
    ],
    "4": [
        0.655,
        0.724,
        0.749,
        0.79,
        0.799,
        0.822,
        0.831,
        0.856,
        0.864,
        0.872
    ]
}