{
    "0": [
        0.767,
        1.186,
        1.856,
        2.223,
        2.224,
        2.39,
        2.391,
        2.447,
        2.516,
        2.877
    ],
    "1": [
        10.46,
        11.694,
        17.051,
        18.07,
        18.612,
        20.172,
        21.577,
        23.565,
        25.757,
        26.347
    ],
    "2": [
        3.3,
        3.413,
        3.433,
        3.444,
        3.542,
        3.543,
        3.567,
        3.637,
        4.21,
        4.333
    ],
    "3": [
        1.067,
        1.068,
        2.38,
        2.382,
        3.992,
        3.993,
        4.241,
        4.242,
        5.02,
        5.021
    ],
    "4": [
        4.518,
        4.941,
        5.754,
        6.741,
        6.915,
        7.511,
        8.356,
        8.357,
        8.406,
        8.503
    ]
}