{
    "0": [
        9.49,
        13.344,
        24.79,
        24.791,
        29.249,
        29.25,
        33.168,
        37.721,
        39.92,
        40.614
    ],
    "1": [
        1.524,
        14.265,
        33.643,
        45.934,
        48.171,
        49.242,
        55.631,
        66.908,
        67.445,
        68.19
    ],
    "2": [
        0.531,
        0.647,
        0.996,
        1.209,
        3.734,
        3.963,
        4.437,
        4.813,
        5.974,
        7.008
    ],
    "3": [
        4.249,
        6.568,
        7.074,
        8.728,
        20.968,
        20.972,
        21.472,
        23.044,
        24.117,
        24.12
    ],
    "4": [
        16.096,
        22.662,
        32.088,
        32.154,
        35.101,
        38.306,
        38.354,
        40.012,
        50.808,
        53.855
    ]
}