{
    "0": [
        0.937,
        1.572,
        2.679,
        3.446,
        3.449,
        4.308,
        4.778,
        5.172,
        5.173,
        5.557
    ],
    "1": [
        0.372,
        1.246,
        1.247,
        2.133,
        2.825,
        2.944,
        3.65,
        3.65,
        3.956,
        3.957
    ],
    "2": [
        0.626,
        5.291,
        7.735,
        11.044,
        11.195,
        11.979,
        13.055,
        13.9,
        17.204,
        17.205
    ],
    "3": [
        0.41,
        0.577,
        1.185,
        1.185,
        1.191,
        1.347,
        1.347,
        1.351,
        1.614,
        1.748
    ],
    "4": [
        0.73,
        0.931,
        1.06,
        1.106,
        1.204,
        1.332,
        1.394,
        1.704,
        1.779,
        2.049
    ]
}