{
    "0": [
        0.325,
        0.509,
        0.53,
        0.549,
        0.592,
        0.714,
        0.743,
        0.773,
        0.803,
        0.832
    ],
    "1": [
        0.234,
        0.356,
        0.528,
        0.991,
        1.074,
        1.166,
        1.242,
        1.263,
        1.624,
        1.633
    ],
    "2": [
        0.152,
        0.153,
        0.193,
        0.194,
        0.637,
        0.638,
        0.746,
        0.747,
        0.932,
        0.932
    ],
    "3": [
        0.14,
        0.338,
        0.754,
        1.151,
        1.18,
        1.332,
        1.786,
        1.786,
        2.061,
        2.365
    ],
    "4": [
        0.135,
        0.187,
        0.206,
        0.224,
        0.251,
        0.267,
        0.287,
        0.323,
        0.478,
        0.54
    ]
}