{
    "0": [
        0.122,
        0.183,
        0.184,
        0.206,
        0.258,
        0.29,
        0.291,
        0.347,
        0.353,
        0.359
    ],
    "1": [
        0.182,
        0.184,
        0.307,
        0.308,
        0.313,
        0.342,
        0.368,
        0.369,
        0.381,
        0.401
    ],
    "2": [
        0.134,
        0.159,
        0.269,
        0.278,
        0.286,
        0.301,
        0.309,
        0.313,
        0.321,
        0.324
    ],
    "3": [
        0.147,
        0.178,
        0.189,
        0.195,
        0.201,
        0.215,
        0.242,
        0.254,
        0.27,
        0.277
    ],
    "4": [
        0.131,
        0.188,
        0.204,
        0.221,
        0.23,
        0.247,
        0.251,
        0.292,
        0.323,
        0.325
    ]
}