{
    "0": [
        14.693,
        24.793,
        25.246,
        28.744,
        36.835,
        39.67,
        40.357,
        40.496,
        41.054,
        43.598
    ],
    "1": [
        2.739,
        3.625,
        4.052,
        5.101,
        5.423,
        5.721,
        5.867,
        6.037,
        6.061,
        6.062
    ],
    "2": [
        11.491,
        15.123,
        16.356,
        19.135,
        19.796,
        20.606,
        20.607,
        20.997,
        22.518,
        24.391
    ],
    "3": [
        10.572,
        13.892,
        19.563,
        20.503,
        24.056,
        27.259,
        27.26,
        29.252,
        29.254,
        30.331
    ],
    "4": [
        1.342,
        3.199,
        3.597,
        4.942,
        10.052,
        11.364,
        12.881,
        12.97,
        12.972,
        12.985
    ]
}