{
    "0": [
        0.103,
        0.132,
        0.176,
        0.189,
        0.198,
        0.214,
        0.244,
        0.245,
        0.262,
        0.263
    ],
    "1": [
        0.103,
        0.189,
        0.212,
        0.248,
        0.259,
        0.313,
        0.323,
        0.345,
        0.363,
        0.366
    ],
    "2": [
        0.113,
        0.138,
        0.157,
        0.158,
        0.182,
        0.183,
        0.202,
        0.224,
        0.229,
        0.257
    ],
    "3": [
        0.121,
        0.164,
        0.235,
        0.29,
        0.335,
        0.364,
        0.397,
        0.413,
        0.43,
        0.496
    ],
    "4": [
        0.103,
        0.151,
        0.179,
        0.225,
        0.229,
        0.234,
        0.268,
        0.284,
        0.29,
        0.326
    ]
}