{
    "0": [
        1.538,
        1.932,
        5.783,
        6.304,
        7.989,
        8.377,
        8.656,
        8.832,
        8.833,
        9.121
    ],
    "1": [
        12.49,
        17.469,
        22.317,
        26.384,
        28.643,
        33.543,
        33.544,
        33.881,
        35.576,
        39.571
    ],
    "2": [
        4.839,
        5.457,
        7.404,
        8.898,
        9.339,
        10.546,
        10.775,
        11.917,
        12.408,
        12.618
    ],
    "3": [
        4.446,
        7.63,
        12.832,
        13.514,
        13.515,
        13.519,
        17.167,
        17.169,
        18.368,
        19.077
    ],
    "4": [
        0.414,
        0.879,
        1.049,
        1.331,
        1.649,
        1.96,
        2.121,
        2.193,
        2.72,
        2.727
    ]
}