{
    "0": [
        0.283,
        0.521,
        1.954,
        2.085,
        2.484,
        2.614,
        3.933,
        4.267,
        4.593,
        4.771
    ],
    "1": [
        0.331,
        1.704,
        1.982,
        3.081,
        3.199,
        3.2,
        3.281,
        5.551,
        7.748,
        8.516
    ],
    "2": [
        0.761,
        0.784,
        0.859,
        0.875,
        0.879,
        0.983,
        1.016,
        1.032,
        1.231,
        1.252
    ],
    "3": [
        0.336,
        0.549,
        0.866,
        3.341,
        3.457,
        4.16,
        4.276,
        4.286,
        4.311,
        4.433
    ],
    "4": [
        0.821,
        1.432,
        1.873,
        1.995,
        3.285,
        4.002,
        6.789,
        6.914,
        8.04,
        8.762
    ]
}