{
    "0": [
        36.238,
        36.828,
        40.542,
        40.572,
        46.976,
        49.221,
        52.072,
        52.084,
        52.084,
        52.094
    ],
    "1": [
        4.019,
        5.266,
        5.284,
        5.54,
        6.274,
        6.275,
        6.283,
        6.864,
        6.883,
        7.158
    ],
    "2": [
        8.964,
        19.532,
        23.106,
        34.218,
        55.579,
        55.61,
        67.147,
        67.148,
        67.149,
        67.15
    ],
    "3": [
        210.643,
        221.623,
        247.618,
        257.55,
        288.714,
        307.717,
        317.069,
        319.307,
        338.502,
        340.031
    ],
    "4": [
        9.045,
        12.064,
        19.331,
        19.77,
        20.295,
        20.309,
        20.932,
        21.058,
        21.17,
        23.048
    ]
}