{
    "0": [
        0.134,
        0.21,
        0.223,
        0.289,
        0.29,
        0.311,
        0.321,
        0.348,
        0.377,
        0.397
    ],
    "1": [
        0.159,
        0.254,
        0.288,
        0.336,
        0.399,
        0.428,
        0.464,
        0.47,
        0.471,
        0.486
    ],
    "2": [
        0.097,
        0.219,
        0.254,
        0.258,
        0.286,
        0.314,
        0.328,
        0.348,
        0.353,
        0.36
    ],
    "3": [
        0.112,
        0.324,
        0.329,
        0.528,
        0.545,
        0.556,
        0.567,
        0.634,
        0.643,
        0.721
    ],
    "4": [
        0.125,
        0.183,
        0.211,
        0.229,
        0.268,
        0.268,
        0.284,
        0.292,
        0.339,
        0.362
    ]
}