{
    "0": [
        0.642,
        0.751,
        0.929,
        1.014,
        1.247,
        1.334,
        1.488,
        1.55,
        2.296,
        2.443
    ],
    "1": [
        2.833,
        3.245,
        4.61,
        4.914,
        5.119,
        5.565,
        5.953,
        6.253,
        6.486,
        6.726
    ],
    "2": [
        8.073,
        8.258,
        8.26,
        8.373,
        8.475,
        8.579,
        8.58,
        8.633,
        8.779,
        8.999
    ],
    "3": [
        8.423,
        8.683,
        8.797,
        9.929,
        15.201,
        15.218,
        16.186,
        16.837,
        16.84,
        16.938
    ],
    "4": [
        4.945,
        5.172,
        6.674,
        6.833,
        8.076,
        8.308,
        8.664,
        8.746,
        8.865,
        8.875
    ]
}