{
    "0": [
        0.267,
        0.329,
        0.36,
        0.407,
        0.744,
        1.258,
        1.552,
        2.386,
        3.223,
        3.858
    ],
    "1": [
        0.177,
        0.188,
        0.367,
        0.386,
        0.489,
        0.502,
        0.919,
        0.946,
        1.096,
        1.119
    ],
    "2": [
        0.14,
        0.288,
        0.356,
        0.538,
        0.918,
        1.137,
        1.213,
        1.234,
        1.339,
        1.651
    ],
    "3": [
        0.155,
        0.277,
        0.413,
        0.547,
        0.595,
        0.633,
        0.694,
        0.711,
        0.712,
        0.893
    ],
    "4": [
        0.122,
        0.208,
        0.26,
        0.28,
        0.461,
        0.516,
        0.637,
        0.768,
        0.789,
        0.888
    ]
}