{
    "0": [
        0.108,
        0.167,
        0.18,
        0.198,
        0.221,
        0.247,
        0.25,
        0.29,
        0.294,
        0.321
    ],
    "1": [
        0.11,
        0.192,
        0.197,
        0.278,
        0.313,
        0.32,
        0.332,
        0.34,
        0.354,
        0.38
    ],
    "2": [
        0.104,
        0.217,
        0.218,
        0.244,
        0.254,
        0.257,
        0.268,
        0.276,
        0.276,
        0.303
    ],
    "3": [
        0.116,
        0.199,
        0.224,
        0.265,
        0.273,
        0.276,
        0.303,
        0.316,
        0.377,
        0.389
    ],
    "4": [
        0.089,
        0.176,
        0.257,
        0.287,
        0.303,
        0.352,
        0.366,
        0.381,
        0.404,
        0.41
    ]
}