{
    "0": [
        0.221,
        0.226,
        0.262,
        0.265,
        0.332,
        0.335,
        0.359,
        0.362,
        0.37,
        0.372
    ],
    "1": [
        0.256,
        0.476,
        0.552,
        0.594,
        0.608,
        0.657,
        0.717,
        0.754,
        0.79,
        0.794
    ],
    "2": [
        0.274,
        0.406,
        0.584,
        0.596,
        0.601,
        0.675,
        0.71,
        0.739,
        0.757,
        0.762
    ],
    "3": [
        0.548,
        0.59,
        0.593,
        0.796,
        0.815,
        0.818,
        0.871,
        0.887,
        0.89,
        0.951
    ],
    "4": [
        0.35,
        0.408,
        0.411,
        0.451,
        0.473,
        0.497,
        0.518,
        0.522,
        0.56,
        0.565
    ]
}