{
    "0": [
        0.08,
        0.102,
        0.106,
        0.108,
        0.12,
        0.123,
        0.126,
        0.126,
        0.127,
        0.129
    ],
    "1": [
        0.078,
        0.08,
        0.092,
        0.094,
        0.1,
        0.104,
        0.107,
        0.109,
        0.112,
        0.113
    ],
    "2": [
        0.078,
        0.083,
        0.086,
        0.099,
        0.102,
        0.104,
        0.106,
        0.106,
        0.109,
        0.111
    ],
    "3": [
        0.08,
        0.099,
        0.105,
        0.107,
        0.111,
        0.122,
        0.125,
        0.126,
        0.129,
        0.13
    ],
    "4": [
        0.077,
        0.084,
        0.086,
        0.092,
        0.104,
        0.108,
        0.109,
        0.11,
        0.111,
        0.113
    ]
}