{
    "0": [
        0.076,
        0.08,
        0.086,
        0.086,
        0.09,
        0.094,
        0.111,
        0.114,
        0.118,
        0.121
    ],
    "1": [
        0.109,
        0.117,
        0.132,
        0.135,
        0.139,
        0.141,
        0.144,
        0.149,
        0.15,
        0.163
    ],
    "2": [
        0.108,
        0.113,
        0.133,
        0.136,
        0.137,
        0.14,
        0.151,
        0.154,
        0.16,
        0.162
    ],
    "3": [
        0.077,
        0.086,
        0.097,
        0.098,
        0.098,
        0.103,
        0.109,
        0.116,
        0.116,
        0.117
    ],
    "4": [
        0.078,
        0.082,
        0.094,
        0.098,
        0.101,
        0.104,
        0.111,
        0.113,
        0.115,
        0.117
    ]
}