{
    "0": [
        0.766,
        1.175,
        2.791,
        3.423,
        4.511,
        5.204,
        5.222,
        5.289,
        5.549,
        5.786
    ],
    "1": [
        0.376,
        0.869,
        0.993,
        1.465,
        1.827,
        1.949,
        2.924,
        4.634,
        5.144,
        5.654
    ],
    "2": [
        1.01,
        1.059,
        2.262,
        2.359,
        2.77,
        2.989,
        3.079,
        3.272,
        3.275,
        3.439
    ],
    "3": [
        0.269,
        0.913,
        3.559,
        4.28,
        4.517,
        5.33,
        6.519,
        7.111,
        8.382,
        9.791
    ],
    "4": [
        0.418,
        2.522,
        3.814,
        4.138,
        5.203,
        5.808,
        6.087,
        6.625,
        7.303,
        7.338
    ]
}