{
    "0": [
        2.16,
        7.937,
        10.481,
        11.306,
        16.023,
        17.238,
        19.859,
        22.618,
        25.828,
        31.044
    ],
    "1": [
        1.939,
        6.838,
        7.499,
        10.548,
        12.831,
        16.387,
        17.074,
        22.764,
        35.955,
        41.731
    ],
    "2": [
        1.331,
        4.261,
        6.584,
        7.799,
        8.124,
        9.621,
        9.905,
        10.974,
        11.219,
        13.14
    ],
    "3": [
        3.231,
        3.301,
        6.992,
        7.003,
        7.004,
        7.323,
        10.744,
        11.1,
        13.306,
        13.725
    ],
    "4": [
        4.644,
        7.386,
        11.965,
        14.869,
        14.87,
        15.863,
        18.468,
        19.241,
        23.875,
        24.964
    ]
}